%YAML 1.1
%TAG !u! tag:unity3d.com,2011:
--- !u!74 &7400000
AnimationClip:
  m_ObjectHideFlags: 0
  m_PrefabParentObject: {fileID: 0}
  m_PrefabInternal: {fileID: 0}
  m_Name: girl heal
  serializedVersion: 6
  m_Legacy: 0
  m_Compressed: 0
  m_UseHighQualityCurve: 1
  m_RotationCurves:
  - curve:
      serializedVersion: 2
      m_Curve:
      - time: 0
        value: {x: 0, y: 0, z: -0.0028676882, w: 0.9999959}
        inSlope: {x: 0, y: 0, z: -0.17164761, w: -0.00073671335}
        outSlope: {x: 0, y: 0, z: -0.17164761, w: -0.00073671335}
        tangentMode: 0
      - time: 0.016666668
        value: {x: 0, y: 0, z: -0.005728482, w: 0.9999836}
        inSlope: {x: 0, y: 0, z: -0.17164624, w: -0.0009834765}
        outSlope: {x: 0, y: 0, z: -0.17164624, w: -0.0009834765}
        tangentMode: 0
      - time: 0.033333335
        value: {x: 0, y: 0, z: -0.00858923, w: 0.9999631}
        inSlope: {x: 0, y: 0, z: -0.1716427, w: -0.0014752147}
        outSlope: {x: 0, y: 0, z: -0.1716427, w: -0.0014752147}
        tangentMode: 0
      - time: 0.050000004
        value: {x: 0, y: 0, z: -0.011449906, w: 0.99993443}
        inSlope: {x: 0, y: 0, z: -0.17163776, w: -0.0019651651}
        outSlope: {x: 0, y: 0, z: -0.17163776, w: -0.0019651651}
        tangentMode: 0
      - time: 0.06666667
        value: {x: 0, y: 0, z: -0.0143104885, w: 0.9998976}
        inSlope: {x: 0, y: 0, z: -0.17163146, w: -0.0024551156}
        outSlope: {x: 0, y: 0, z: -0.17163146, w: -0.0024551156}
        tangentMode: 0
      - time: 0.083333336
        value: {x: 0, y: 0, z: -0.017170954, w: 0.9998526}
        inSlope: {x: 0, y: 0, z: -0.17162378, w: -0.0029468539}
        outSlope: {x: 0, y: 0, z: -0.17162378, w: -0.0029468539}
        tangentMode: 0
      - time: 0.1
        value: {x: 0, y: 0, z: -0.02003128, w: 0.9997994}
        inSlope: {x: 0, y: 0, z: -0.17161456, w: -0.0034385922}
        outSlope: {x: 0, y: 0, z: -0.17161456, w: -0.0034385922}
        tangentMode: 0
      - time: 0.11666667
        value: {x: 0, y: 0, z: -0.02289144, w: 0.999738}
        inSlope: {x: 0, y: 0, z: -0.17160402, w: -0.00393033}
        outSlope: {x: 0, y: 0, z: -0.17160402, w: -0.00393033}
        tangentMode: 0
      - time: 0.13333334
        value: {x: 0, y: 0, z: -0.025751416, w: 0.99966836}
        inSlope: {x: 0, y: 0, z: -0.17159218, w: -0.00442028}
        outSlope: {x: 0, y: 0, z: -0.17159218, w: -0.00442028}
        tangentMode: 0
      - time: 0.15
        value: {x: 0, y: 0, z: -0.02861118, w: 0.99959064}
        inSlope: {x: 0, y: 0, z: -0.1715788, w: -0.004910231}
        outSlope: {x: 0, y: 0, z: -0.1715788, w: -0.004910231}
        tangentMode: 0
      - time: 0.16666667
        value: {x: 0, y: 0, z: -0.03147071, w: 0.9995047}
        inSlope: {x: 0, y: 0, z: -0.17156404, w: -0.0054019694}
        outSlope: {x: 0, y: 0, z: -0.17156404, w: -0.0054019694}
        tangentMode: 0
      - time: 0.18333334
        value: {x: 0, y: 0, z: -0.03432998, w: 0.99941057}
        inSlope: {x: 0, y: 0, z: -0.17154785, w: -0.0058937077}
        outSlope: {x: 0, y: 0, z: -0.17154785, w: -0.0058937077}
        tangentMode: 0
      - time: 0.2
        value: {x: 0, y: 0, z: -0.03718897, w: 0.9993082}
        inSlope: {x: 0, y: 0, z: -0.17153019, w: -0.006383658}
        outSlope: {x: 0, y: 0, z: -0.17153019, w: -0.006383658}
        tangentMode: 0
      - time: 0.21666667
        value: {x: 0, y: 0, z: -0.040047653, w: 0.9991978}
        inSlope: {x: 0, y: 0, z: -0.17151129, w: -0.006873608}
        outSlope: {x: 0, y: 0, z: -0.17151129, w: -0.006873608}
        tangentMode: 0
      - time: 0.23333333
        value: {x: 0, y: 0, z: -0.042906012, w: 0.9990791}
        inSlope: {x: 0, y: 0, z: -0.17149107, w: -0.0073653464}
        outSlope: {x: 0, y: 0, z: -0.17149107, w: -0.0073653464}
        tangentMode: 0
      - time: 0.25
        value: {x: 0, y: 0, z: -0.04576402, w: 0.99895227}
        inSlope: {x: 0, y: 0, z: -0.1714692, w: -0.007855293}
        outSlope: {x: 0, y: 0, z: -0.1714692, w: -0.007855293}
        tangentMode: 0
      - time: 0.26666668
        value: {x: 0, y: 0, z: -0.048621655, w: 0.99881727}
        inSlope: {x: 0, y: 0, z: -0.17144598, w: -0.008345239}
        outSlope: {x: 0, y: 0, z: -0.17144598, w: -0.008345239}
        tangentMode: 0
      - time: 0.28333336
        value: {x: 0, y: 0, z: -0.051478893, w: 0.9986741}
        inSlope: {x: 0, y: 0, z: -0.1714214, w: -0.008836977}
        outSlope: {x: 0, y: 0, z: -0.1714214, w: -0.008836977}
        tangentMode: 0
      - time: 0.30000004
        value: {x: 0, y: 0, z: -0.054335706, w: 0.9985227}
        inSlope: {x: 0, y: 0, z: -0.17139536, w: -0.009326927}
        outSlope: {x: 0, y: 0, z: -0.17139536, w: -0.009326927}
        tangentMode: 0
      - time: 0.31666672
        value: {x: 0, y: 0, z: -0.057192076, w: 0.9983632}
        inSlope: {x: 0, y: 0, z: -0.17136809, w: -0.009816877}
        outSlope: {x: 0, y: 0, z: -0.17136809, w: -0.009816877}
        tangentMode: 0
      - time: 0.3333334
        value: {x: 0, y: 0, z: -0.06004798, w: 0.99819547}
        inSlope: {x: 0, y: 0, z: -0.17133924, w: -0.010306827}
        outSlope: {x: 0, y: 0, z: -0.17133924, w: -0.010306827}
        tangentMode: 0
      - time: 0.35000008
        value: {x: 0, y: 0, z: -0.06290339, w: 0.99801964}
        inSlope: {x: 0, y: 0, z: -0.17130929, w: -0.010796776}
        outSlope: {x: 0, y: 0, z: -0.17130929, w: -0.010796776}
        tangentMode: 0
      - time: 0.36666676
        value: {x: 0, y: 0, z: -0.065758295, w: 0.9978356}
        inSlope: {x: 0, y: 0, z: -0.17127767, w: -0.011288514}
        outSlope: {x: 0, y: 0, z: -0.17127767, w: -0.011288514}
        tangentMode: 0
      - time: 0.38333344
        value: {x: 0, y: 0, z: -0.06861265, w: 0.99764335}
        inSlope: {x: 0, y: 0, z: -0.17124437, w: -0.011776676}
        outSlope: {x: 0, y: 0, z: -0.17124437, w: -0.011776676}
        tangentMode: 0
      - time: 0.40000013
        value: {x: 0, y: 0, z: -0.071466446, w: 0.997443}
        inSlope: {x: 0, y: 0, z: -0.17120995, w: -0.012266626}
        outSlope: {x: 0, y: 0, z: -0.17120995, w: -0.012266626}
        tangentMode: 0
      - time: 0.4166668
        value: {x: 0, y: 0, z: -0.07431965, w: 0.99723446}
        inSlope: {x: 0, y: 0, z: -0.1711744, w: -0.012756575}
        outSlope: {x: 0, y: 0, z: -0.1711744, w: -0.012756575}
        tangentMode: 0
      - time: 0.4333335
        value: {x: 0, y: 0, z: -0.077172264, w: 0.9970178}
        inSlope: {x: 0, y: 0, z: -0.1711373, w: -0.013246525}
        outSlope: {x: 0, y: 0, z: -0.1711373, w: -0.013246525}
        tangentMode: 0
      - time: 0.45000017
        value: {x: 0, y: 0, z: -0.080024235, w: 0.9967929}
        inSlope: {x: 0, y: 0, z: -0.17109841, w: -0.013736475}
        outSlope: {x: 0, y: 0, z: -0.17109841, w: -0.013736475}
        tangentMode: 0
      - time: 0.46666685
        value: {x: 0, y: 0, z: -0.08287555, w: 0.9965599}
        inSlope: {x: 0, y: 0, z: -0.17105862, w: -0.014224636}
        outSlope: {x: 0, y: 0, z: -0.17105862, w: -0.014224636}
        tangentMode: 0
      - time: 0.48333353
        value: {x: 0, y: 0, z: -0.085726194, w: 0.99631876}
        inSlope: {x: 0, y: 0, z: -0.17101723, w: -0.014714681}
        outSlope: {x: 0, y: 0, z: -0.17101723, w: -0.014714681}
        tangentMode: 0
      - time: 0.5
        value: {x: 0, y: 0, z: -0.08857609, w: 0.99606943}
        inSlope: {x: 0, y: 0, z: -0.17099595, w: -0.014959749}
        outSlope: {x: 0, y: 0, z: -0.17099595, w: -0.014959749}
        tangentMode: 0
      m_PreInfinity: 2
      m_PostInfinity: 2
      m_RotationOrder: 4
    path: body/armL
  - curve:
      serializedVersion: 2
      m_Curve:
      - time: 0
        value: {x: 0, y: 0, z: 0.17416905, w: 0.98471576}
        inSlope: {x: 0, y: 0, z: 0.12358635, w: -0.021990536}
        outSlope: {x: 0, y: 0, z: 0.12358635, w: -0.021990536}
        tangentMode: 0
      - time: 0.016666668
        value: {x: 0, y: 0, z: 0.17622882, w: 0.98434925}
        inSlope: {x: 0, y: 0, z: 0.123564444, w: -0.02212107}
        outSlope: {x: 0, y: 0, z: 0.123564444, w: -0.02212107}
        tangentMode: 0
      - time: 0.033333335
        value: {x: 0, y: 0, z: 0.17828786, w: 0.9839784}
        inSlope: {x: 0, y: 0, z: 0.123517945, w: -0.022380348}
        outSlope: {x: 0, y: 0, z: 0.123517945, w: -0.022380348}
        tangentMode: 0
      - time: 0.050000004
        value: {x: 0, y: 0, z: 0.18034609, w: 0.98360324}
        inSlope: {x: 0, y: 0, z: 0.12347057, w: -0.022639632}
        outSlope: {x: 0, y: 0, z: 0.12347057, w: -0.022639632}
        tangentMode: 0
      - time: 0.06666667
        value: {x: 0, y: 0, z: 0.18240355, w: 0.98322374}
        inSlope: {x: 0, y: 0, z: 0.12342364, w: -0.022897126}
        outSlope: {x: 0, y: 0, z: 0.12342364, w: -0.022897126}
        tangentMode: 0
      - time: 0.083333336
        value: {x: 0, y: 0, z: 0.18446021, w: 0.98284}
        inSlope: {x: 0, y: 0, z: 0.12337447, w: -0.023154618}
        outSlope: {x: 0, y: 0, z: 0.12337447, w: -0.023154618}
        tangentMode: 0
      - time: 0.1
        value: {x: 0, y: 0, z: 0.18651603, w: 0.9824519}
        inSlope: {x: 0, y: 0, z: 0.12332619, w: -0.023413898}
        outSlope: {x: 0, y: 0, z: 0.12332619, w: -0.023413898}
        tangentMode: 0
      - time: 0.11666667
        value: {x: 0, y: 0, z: 0.18857108, w: 0.98205954}
        inSlope: {x: 0, y: 0, z: 0.12327699, w: -0.023671385}
        outSlope: {x: 0, y: 0, z: 0.12327699, w: -0.023671385}
        tangentMode: 0
      - time: 0.13333334
        value: {x: 0, y: 0, z: 0.19062527, w: 0.98166287}
        inSlope: {x: 0, y: 0, z: 0.12322737, w: -0.023928877}
        outSlope: {x: 0, y: 0, z: 0.12322737, w: -0.023928877}
        tangentMode: 0
      - time: 0.15
        value: {x: 0, y: 0, z: 0.19267866, w: 0.9812619}
        inSlope: {x: 0, y: 0, z: 0.123177774, w: -0.024186375}
        outSlope: {x: 0, y: 0, z: 0.123177774, w: -0.024186375}
        tangentMode: 0
      - time: 0.16666667
        value: {x: 0, y: 0, z: 0.19473119, w: 0.98085666}
        inSlope: {x: 0, y: 0, z: 0.12312547, w: -0.024443867}
        outSlope: {x: 0, y: 0, z: 0.12312547, w: -0.024443867}
        tangentMode: 0
      - time: 0.18333334
        value: {x: 0, y: 0, z: 0.19678284, w: 0.9804471}
        inSlope: {x: 0, y: 0, z: 0.12307451, w: -0.024701359}
        outSlope: {x: 0, y: 0, z: 0.12307451, w: -0.024701359}
        tangentMode: 0
      - time: 0.2
        value: {x: 0, y: 0, z: 0.19883367, w: 0.9800333}
        inSlope: {x: 0, y: 0, z: 0.12302265, w: -0.024960639}
        outSlope: {x: 0, y: 0, z: 0.12302265, w: -0.024960639}
        tangentMode: 0
      - time: 0.21666667
        value: {x: 0, y: 0, z: 0.2008836, w: 0.9796151}
        inSlope: {x: 0, y: 0, z: 0.1229699, w: -0.025218131}
        outSlope: {x: 0, y: 0, z: 0.1229699, w: -0.025218131}
        tangentMode: 0
      - time: 0.23333333
        value: {x: 0, y: 0, z: 0.20293267, w: 0.9791927}
        inSlope: {x: 0, y: 0, z: 0.1229176, w: -0.025473835}
        outSlope: {x: 0, y: 0, z: 0.1229176, w: -0.025473835}
        tangentMode: 0
      - time: 0.25
        value: {x: 0, y: 0, z: 0.20498085, w: 0.97876596}
        inSlope: {x: 0, y: 0, z: 0.12286346, w: -0.025729526}
        outSlope: {x: 0, y: 0, z: 0.12286346, w: -0.025729526}
        tangentMode: 0
      - time: 0.26666668
        value: {x: 0, y: 0, z: 0.20702812, w: 0.978335}
        inSlope: {x: 0, y: 0, z: 0.122809306, w: -0.025987007}
        outSlope: {x: 0, y: 0, z: 0.122809306, w: -0.025987007}
        tangentMode: 0
      - time: 0.28333336
        value: {x: 0, y: 0, z: 0.2090745, w: 0.97789973}
        inSlope: {x: 0, y: 0, z: 0.12275566, w: -0.026246287}
        outSlope: {x: 0, y: 0, z: 0.12275566, w: -0.026246287}
        tangentMode: 0
      - time: 0.30000004
        value: {x: 0, y: 0, z: 0.21111998, w: 0.97746015}
        inSlope: {x: 0, y: 0, z: 0.12269978, w: -0.02650199}
        outSlope: {x: 0, y: 0, z: 0.12269978, w: -0.02650199}
        tangentMode: 0
      - time: 0.31666672
        value: {x: 0, y: 0, z: 0.2131645, w: 0.9770163}
        inSlope: {x: 0, y: 0, z: 0.12264301, w: -0.026757695}
        outSlope: {x: 0, y: 0, z: 0.12264301, w: -0.026757695}
        tangentMode: 0
      - time: 0.3333334
        value: {x: 0, y: 0, z: 0.21520808, w: 0.9765682}
        inSlope: {x: 0, y: 0, z: 0.12258758, w: -0.027015187}
        outSlope: {x: 0, y: 0, z: 0.12258758, w: -0.027015187}
        tangentMode: 0
      - time: 0.35000008
        value: {x: 0, y: 0, z: 0.21725075, w: 0.9761158}
        inSlope: {x: 0, y: 0, z: 0.12253125, w: -0.02727089}
        outSlope: {x: 0, y: 0, z: 0.12253125, w: -0.02727089}
        tangentMode: 0
      - time: 0.36666676
        value: {x: 0, y: 0, z: 0.21929246, w: 0.9756592}
        inSlope: {x: 0, y: 0, z: 0.12247403, w: -0.027526595}
        outSlope: {x: 0, y: 0, z: 0.12247403, w: -0.027526595}
        tangentMode: 0
      - time: 0.38333344
        value: {x: 0, y: 0, z: 0.22133322, w: 0.97519827}
        inSlope: {x: 0, y: 0, z: 0.12241547, w: -0.027784087}
        outSlope: {x: 0, y: 0, z: 0.12241547, w: -0.027784087}
        tangentMode: 0
      - time: 0.40000013
        value: {x: 0, y: 0, z: 0.22337298, w: 0.97473305}
        inSlope: {x: 0, y: 0, z: 0.12235691, w: -0.028039789}
        outSlope: {x: 0, y: 0, z: 0.12235691, w: -0.028039789}
        tangentMode: 0
      - time: 0.4166668
        value: {x: 0, y: 0, z: 0.22541179, w: 0.9742636}
        inSlope: {x: 0, y: 0, z: 0.12229924, w: -0.028295493}
        outSlope: {x: 0, y: 0, z: 0.12229924, w: -0.028295493}
        tangentMode: 0
      - time: 0.4333335
        value: {x: 0, y: 0, z: 0.22744963, w: 0.9737899}
        inSlope: {x: 0, y: 0, z: 0.12223889, w: -0.028552985}
        outSlope: {x: 0, y: 0, z: 0.12223889, w: -0.028552985}
        tangentMode: 0
      - time: 0.45000017
        value: {x: 0, y: 0, z: 0.22948642, w: 0.97331184}
        inSlope: {x: 0, y: 0, z: 0.12217809, w: -0.0288069}
        outSlope: {x: 0, y: 0, z: 0.12217809, w: -0.0288069}
        tangentMode: 0
      - time: 0.46666685
        value: {x: 0, y: 0, z: 0.23152223, w: 0.97282964}
        inSlope: {x: 0, y: 0, z: 0.12211864, w: -0.029062605}
        outSlope: {x: 0, y: 0, z: 0.12211864, w: -0.029062605}
        tangentMode: 0
      - time: 0.48333353
        value: {x: 0, y: 0, z: 0.23355705, w: 0.9723431}
        inSlope: {x: 0, y: 0, z: 0.122057706, w: -0.029318493}
        outSlope: {x: 0, y: 0, z: 0.122057706, w: -0.029318493}
        tangentMode: 0
      - time: 0.5
        value: {x: 0, y: 0, z: 0.2355908, w: 0.97185236}
        inSlope: {x: 0, y: 0, z: 0.122026734, w: -0.029443847}
        outSlope: {x: 0, y: 0, z: 0.122026734, w: -0.029443847}
        tangentMode: 0
      m_PreInfinity: 2
      m_PostInfinity: 2
      m_RotationOrder: 4
    path: body/armR
  - curve:
      serializedVersion: 2
      m_Curve:
      - time: 0
        value: {x: 0, y: 0, z: 0.09946002, w: 0.99504155}
        inSlope: {x: 0, y: 0, z: -0.18577291, w: 0.018278359}
        outSlope: {x: 0, y: 0, z: -0.18577291, w: 0.018278359}
        tangentMode: 0
      - time: 0.016666668
        value: {x: 0, y: 0, z: 0.096363805, w: 0.9953462}
        inSlope: {x: 0, y: 0, z: -0.18580107, w: 0.017988682}
        outSlope: {x: 0, y: 0, z: -0.18580107, w: 0.017988682}
        tangentMode: 0
      - time: 0.033333335
        value: {x: 0, y: 0, z: 0.09326665, w: 0.9956412}
        inSlope: {x: 0, y: 0, z: -0.18585604, w: 0.017409323}
        outSlope: {x: 0, y: 0, z: -0.18585604, w: 0.017409323}
        tangentMode: 0
      - time: 0.050000004
        value: {x: 0, y: 0, z: 0.0901686, w: 0.9959265}
        inSlope: {x: 0, y: 0, z: -0.18590903, w: 0.016831756}
        outSlope: {x: 0, y: 0, z: -0.18590903, w: 0.016831756}
        tangentMode: 0
      - time: 0.06666667
        value: {x: 0, y: 0, z: 0.08706968, w: 0.99620223}
        inSlope: {x: 0, y: 0, z: -0.18596092, w: 0.016254188}
        outSlope: {x: 0, y: 0, z: -0.18596092, w: 0.016254188}
        tangentMode: 0
      - time: 0.083333336
        value: {x: 0, y: 0, z: 0.083969906, w: 0.9964683}
        inSlope: {x: 0, y: 0, z: -0.18601076, w: 0.015674831}
        outSlope: {x: 0, y: 0, z: -0.18601076, w: 0.015674831}
        tangentMode: 0
      - time: 0.1
        value: {x: 0, y: 0, z: 0.080869325, w: 0.9967247}
        inSlope: {x: 0, y: 0, z: -0.18605815, w: 0.015095473}
        outSlope: {x: 0, y: 0, z: -0.18605815, w: 0.015095473}
        tangentMode: 0
      - time: 0.11666667
        value: {x: 0, y: 0, z: 0.07776797, w: 0.9969715}
        inSlope: {x: 0, y: 0, z: -0.18610437, w: 0.014516113}
        outSlope: {x: 0, y: 0, z: -0.18610437, w: 0.014516113}
        tangentMode: 0
      - time: 0.13333334
        value: {x: 0, y: 0, z: 0.074665844, w: 0.9972086}
        inSlope: {x: 0, y: 0, z: -0.18614863, w: 0.013938544}
        outSlope: {x: 0, y: 0, z: -0.18614863, w: 0.013938544}
        tangentMode: 0
      - time: 0.15
        value: {x: 0, y: 0, z: 0.07156301, w: 0.9974361}
        inSlope: {x: 0, y: 0, z: -0.18619092, w: 0.01335919}
        outSlope: {x: 0, y: 0, z: -0.18619092, w: 0.01335919}
        tangentMode: 0
      - time: 0.16666667
        value: {x: 0, y: 0, z: 0.06845948, w: 0.9976539}
        inSlope: {x: 0, y: 0, z: -0.18623205, w: 0.012778045}
        outSlope: {x: 0, y: 0, z: -0.18623205, w: 0.012778045}
        tangentMode: 0
      - time: 0.18333334
        value: {x: 0, y: 0, z: 0.06535528, w: 0.99786204}
        inSlope: {x: 0, y: 0, z: -0.18627071, w: 0.012200476}
        outSlope: {x: 0, y: 0, z: -0.18627071, w: 0.012200476}
        tangentMode: 0
      - time: 0.2
        value: {x: 0, y: 0, z: 0.062250458, w: 0.9980606}
        inSlope: {x: 0, y: 0, z: -0.1863076, w: 0.0116211185}
        outSlope: {x: 0, y: 0, z: -0.1863076, w: 0.0116211185}
        tangentMode: 0
      - time: 0.21666667
        value: {x: 0, y: 0, z: 0.059145026, w: 0.9982494}
        inSlope: {x: 0, y: 0, z: -0.18634301, w: 0.011039973}
        outSlope: {x: 0, y: 0, z: -0.18634301, w: 0.011039973}
        tangentMode: 0
      - time: 0.23333333
        value: {x: 0, y: 0, z: 0.056039024, w: 0.9984286}
        inSlope: {x: 0, y: 0, z: -0.18637644, w: 0.010460616}
        outSlope: {x: 0, y: 0, z: -0.18637644, w: 0.010460616}
        tangentMode: 0
      - time: 0.25
        value: {x: 0, y: 0, z: 0.05293248, w: 0.9985981}
        inSlope: {x: 0, y: 0, z: -0.1864081, w: 0.009881254}
        outSlope: {x: 0, y: 0, z: -0.1864081, w: 0.009881254}
        tangentMode: 0
      - time: 0.26666668
        value: {x: 0, y: 0, z: 0.04982542, w: 0.99875796}
        inSlope: {x: 0, y: 0, z: -0.18643774, w: 0.009300105}
        outSlope: {x: 0, y: 0, z: -0.18643774, w: 0.009300105}
        tangentMode: 0
      - time: 0.28333336
        value: {x: 0, y: 0, z: 0.046717882, w: 0.9989081}
        inSlope: {x: 0, y: 0, z: -0.1864659, w: 0.008720748}
        outSlope: {x: 0, y: 0, z: -0.1864659, w: 0.008720748}
        tangentMode: 0
      - time: 0.30000004
        value: {x: 0, y: 0, z: 0.043609884, w: 0.99904865}
        inSlope: {x: 0, y: 0, z: -0.18649228, w: 0.008141391}
        outSlope: {x: 0, y: 0, z: -0.18649228, w: 0.008141391}
        tangentMode: 0
      - time: 0.31666672
        value: {x: 0, y: 0, z: 0.040501468, w: 0.9991795}
        inSlope: {x: 0, y: 0, z: -0.18651664, w: 0.0075602466}
        outSlope: {x: 0, y: 0, z: -0.18651664, w: 0.0075602466}
        tangentMode: 0
      - time: 0.3333334
        value: {x: 0, y: 0, z: 0.037392657, w: 0.99930066}
        inSlope: {x: 0, y: 0, z: -0.18653911, w: 0.0069791023}
        outSlope: {x: 0, y: 0, z: -0.18653911, w: 0.0069791023}
        tangentMode: 0
      - time: 0.35000008
        value: {x: 0, y: 0, z: 0.034283493, w: 0.9994121}
        inSlope: {x: 0, y: 0, z: -0.18655989, w: 0.006399745}
        outSlope: {x: 0, y: 0, z: -0.18655989, w: 0.006399745}
        tangentMode: 0
      - time: 0.36666676
        value: {x: 0, y: 0, z: 0.03117399, w: 0.999514}
        inSlope: {x: 0, y: 0, z: -0.18657894, w: 0.005820389}
        outSlope: {x: 0, y: 0, z: -0.18657894, w: 0.005820389}
        tangentMode: 0
      - time: 0.38333344
        value: {x: 0, y: 0, z: 0.02806419, w: 0.99960613}
        inSlope: {x: 0, y: 0, z: -0.18659621, w: 0.0052392436}
        outSlope: {x: 0, y: 0, z: -0.18659621, w: 0.0052392436}
        tangentMode: 0
      - time: 0.40000013
        value: {x: 0, y: 0, z: 0.02495411, w: 0.9996886}
        inSlope: {x: 0, y: 0, z: -0.1866118, w: 0.0046580993}
        outSlope: {x: 0, y: 0, z: -0.1866118, w: 0.0046580993}
        tangentMode: 0
      - time: 0.4166668
        value: {x: 0, y: 0, z: 0.021843791, w: 0.9997614}
        inSlope: {x: 0, y: 0, z: -0.18662527, w: 0.004076954}
        outSlope: {x: 0, y: 0, z: -0.18662527, w: 0.004076954}
        tangentMode: 0
      - time: 0.4333335
        value: {x: 0, y: 0, z: 0.018733263, w: 0.9998245}
        inSlope: {x: 0, y: 0, z: -0.18663678, w: 0.0034975978}
        outSlope: {x: 0, y: 0, z: -0.18663678, w: 0.0034975978}
        tangentMode: 0
      - time: 0.45000017
        value: {x: 0, y: 0, z: 0.01562256, w: 0.999878}
        inSlope: {x: 0, y: 0, z: -0.18664686, w: 0.002916453}
        outSlope: {x: 0, y: 0, z: -0.18664686, w: 0.002916453}
        tangentMode: 0
      - time: 0.46666685
        value: {x: 0, y: 0, z: 0.012511696, w: 0.99992174}
        inSlope: {x: 0, y: 0, z: -0.18665527, w: 0.0023353081}
        outSlope: {x: 0, y: 0, z: -0.18665527, w: 0.0023353081}
        tangentMode: 0
      - time: 0.48333353
        value: {x: 0, y: 0, z: 0.009400712, w: 0.99995583}
        inSlope: {x: 0, y: 0, z: -0.18666148, w: 0.0017541724}
        outSlope: {x: 0, y: 0, z: -0.18666148, w: 0.0017541724}
        tangentMode: 0
      - time: 0.5
        value: {x: 0, y: 0, z: 0.00628968, w: 0.9999802}
        inSlope: {x: 0, y: 0, z: -0.18666412, w: 0.0014627151}
        outSlope: {x: 0, y: 0, z: -0.18666412, w: 0.0014627151}
        tangentMode: 0
      m_PreInfinity: 2
      m_PostInfinity: 2
      m_RotationOrder: 4
    path: body/glasses
  m_CompressedRotationCurves: []
  m_EulerCurves: []
  m_PositionCurves:
  - curve:
      serializedVersion: 2
      m_Curve:
      - time: 0
        value: {x: 0, y: 0, z: 0}
        inSlope: {x: -0.48, y: 0.71999997, z: 0}
        outSlope: {x: Infinity, y: Infinity, z: Infinity}
        tangentMode: 0
      - time: 2.1666667
        value: {x: 0, y: 0, z: 0}
        inSlope: {x: -0.48, y: 0.71999997, z: 0}
        outSlope: {x: -0, y: -11.72, z: -0}
        tangentMode: 0
      - time: 2.6666667
        value: {x: 0, y: -5.86, z: 0}
        inSlope: {x: 0, y: 0, z: 0}
        outSlope: {x: 0, y: 0, z: 0}
        tangentMode: 0
      m_PreInfinity: 2
      m_PostInfinity: 2
      m_RotationOrder: 4
    path: body
  - curve:
      serializedVersion: 2
      m_Curve:
      - time: 0
        value: {x: -2.662, y: 1.8729997, z: 0}
        inSlope: {x: -0.056000233, y: -1.0659993, z: 0}
        outSlope: {x: -0.056000233, y: -1.0659993, z: 0}
        tangentMode: 0
      - time: 0.5
        value: {x: -2.69, y: 1.34, z: 0}
        inSlope: {x: -0.056000233, y: -1.0659993, z: 0}
        outSlope: {x: -0.056000233, y: -1.0659993, z: 0}
        tangentMode: 0
      m_PreInfinity: 2
      m_PostInfinity: 2
      m_RotationOrder: 4
    path: body/armL
  - curve:
      serializedVersion: 2
      m_Curve:
      - time: 0
        value: {x: 2.6420002, y: 2.2799997, z: 0}
        inSlope: {x: -0.20400047, y: -1.2199996, z: 0}
        outSlope: {x: -0.20400047, y: -1.2199996, z: 0}
        tangentMode: 0
      - time: 0.5
        value: {x: 2.54, y: 1.67, z: 0}
        inSlope: {x: -0.20400047, y: -1.2199996, z: 0}
        outSlope: {x: -0.20400047, y: -1.2199996, z: 0}
        tangentMode: 0
      m_PreInfinity: 2
      m_PostInfinity: 2
      m_RotationOrder: 4
    path: body/armR
  - curve:
      serializedVersion: 2
      m_Curve:
      - time: 0
        value: {x: -1.8509998, y: 2.784, z: 0}
        inSlope: {x: 1.1219997, y: -0.18799973, z: 0}
        outSlope: {x: 1.1219997, y: -0.18799973, z: 0}
        tangentMode: 0
      - time: 0.5
        value: {x: -1.29, y: 2.69, z: 0}
        inSlope: {x: 1.1219997, y: -0.18799973, z: 0}
        outSlope: {x: 1.1219997, y: -0.18799973, z: 0}
        tangentMode: 0
      m_PreInfinity: 2
      m_PostInfinity: 2
      m_RotationOrder: 4
    path: body/eyeL
  - curve:
      serializedVersion: 2
      m_Curve:
      - time: 0
        value: {x: 1.6200004, y: 2.6039996, z: 0}
        inSlope: {x: -1.5200007, y: 0.2520008, z: 0}
        outSlope: {x: -1.5200007, y: 0.2520008, z: 0}
        tangentMode: 0
      - time: 0.5
        value: {x: 0.86, y: 2.73, z: 0}
        inSlope: {x: -1.5200007, y: 0.2520008, z: 0}
        outSlope: {x: -1.5200007, y: 0.2520008, z: 0}
        tangentMode: 0
      m_PreInfinity: 2
      m_PostInfinity: 2
      m_RotationOrder: 4
    path: body/eyeR
  - curve:
      serializedVersion: 2
      m_Curve:
      - time: 0
        value: {x: -0.27299976, y: 3.087, z: 0}
        inSlope: {x: 0.55799854, y: 2.3580008, z: 0}
        outSlope: {x: 0.55799854, y: 2.3580008, z: 0}
        tangentMode: 0
      - time: 0.16666667
        value: {x: -0.18, y: 3.48, z: 0}
        inSlope: {x: 0.23399928, y: 0.069000244, z: 0}
        outSlope: {x: 0.23399928, y: 0.069000244, z: 0}
        tangentMode: 0
      - time: 0.5
        value: {x: -0.21, y: 2.74, z: 0}
        inSlope: {x: -0.08999997, y: -2.2200003, z: 0}
        outSlope: {x: -0.08999997, y: -2.2200003, z: 0}
        tangentMode: 0
      m_PreInfinity: 2
      m_PostInfinity: 2
      m_RotationOrder: 4
    path: body/glasses
  - curve:
      serializedVersion: 2
      m_Curve:
      - time: 0
        value: {x: 0.25, y: -0.14000034, z: 0}
        inSlope: {x: 0, y: -0.5599993, z: 0}
        outSlope: {x: 0, y: -0.5599993, z: 0}
        tangentMode: 0
      - time: 0.5
        value: {x: 0.25, y: -0.42, z: 0}
        inSlope: {x: 0, y: -0.5599993, z: 0}
        outSlope: {x: 0, y: -0.5599993, z: 0}
        tangentMode: 0
      m_PreInfinity: 2
      m_PostInfinity: 2
      m_RotationOrder: 4
    path: body/leg
  m_ScaleCurves:
  - curve:
      serializedVersion: 2
      m_Curve:
      - time: 0
        value: {x: 1, y: 1, z: 1}
        inSlope: {x: 0.09634924, y: -0.09482646, z: 0}
        outSlope: {x: 0.09634924, y: -0.09482646, z: 0}
        tangentMode: 0
      - time: 0.16666667
        value: {x: 1.0160582, y: 0.9841956, z: 1}
        inSlope: {x: -0.023520827, y: 0.023706794, z: 0}
        outSlope: {x: -0.023520827, y: 0.023706794, z: 0}
        tangentMode: 0
      - time: 0.33333334
        value: {x: 0.9921597, y: 1.0079023, z: 1}
        inSlope: {x: -0.04817462, y: 0.04741323, z: 0}
        outSlope: {x: -0.04817462, y: 0.04741323, z: 0}
        tangentMode: 0
      - time: 0.5
        value: {x: 1, y: 1, z: 1}
        inSlope: {x: 0.02352083, y: -0.023706796, z: 0}
        outSlope: {x: 0.02352083, y: -0.023706796, z: 0}
        tangentMode: 0
      - time: 2
        value: {x: 1, y: 1, z: 1}
        inSlope: {x: -0.08541974, y: 0.087923124, z: 0}
        outSlope: {x: -0.08541974, y: 0.087923124, z: 0}
        tangentMode: 0
      - time: 2.1666667
        value: {x: 0.97152674, y: 1.0293077, z: 1}
        inSlope: {x: 0.041136302, y: -0.04057984, z: 0}
        outSlope: {x: 0.041136302, y: -0.04057984, z: 0}
        tangentMode: 0
      - time: 2.3333333
        value: {x: 1.013712, y: 0.98647344, z: 1}
        inSlope: {x: 0.25311208, y: -0.25700593, z: 0}
        outSlope: {x: 0.25311208, y: -0.25700593, z: 0}
        tangentMode: 0
      m_PreInfinity: 2
      m_PostInfinity: 2
      m_RotationOrder: 4
    path: body
  - curve:
      serializedVersion: 2
      m_Curve:
      - time: 0
        value: {x: 1, y: 1, z: 1}
        inSlope: {x: 0, y: 0, z: 0}
        outSlope: {x: 0, y: 0, z: 0}
        tangentMode: 0
      m_PreInfinity: 2
      m_PostInfinity: 2
      m_RotationOrder: 4
    path: body/leg
  m_FloatCurves: []
  m_PPtrCurves:
  - curve:
    - time: 0
      value: {fileID: 21300014, guid: 1c8c6149879540c4ca956f0af394bb7b, type: 3}
    - time: 0.6666667
      value: {fileID: 21300004, guid: a163879c182372c4bb6a2a406b88f5e2, type: 3}
    attribute: m_Sprite
    path: body/mouth
    classID: 212
    script: {fileID: 0}
  m_SampleRate: 60
  m_WrapMode: 0
  m_Bounds:
    m_Center: {x: 0, y: 0, z: 0}
    m_Extent: {x: 0, y: 0, z: 0}
  m_ClipBindingConstant:
    genericBindings:
    - path: 3685223346
      attribute: 1
      script: {fileID: 0}
      classID: 4
      customType: 0
      isPPtrCurve: 0
    - path: 4140087224
      attribute: 1
      script: {fileID: 0}
      classID: 4
      customType: 0
      isPPtrCurve: 0
    - path: 214665947
      attribute: 1
      script: {fileID: 0}
      classID: 4
      customType: 0
      isPPtrCurve: 0
    - path: 3173664006
      attribute: 1
      script: {fileID: 0}
      classID: 4
      customType: 0
      isPPtrCurve: 0
    - path: 1193637989
      attribute: 1
      script: {fileID: 0}
      classID: 4
      customType: 0
      isPPtrCurve: 0
    - path: 3003413200
      attribute: 1
      script: {fileID: 0}
      classID: 4
      customType: 0
      isPPtrCurve: 0
    - path: 2675273060
      attribute: 1
      script: {fileID: 0}
      classID: 4
      customType: 0
      isPPtrCurve: 0
    - path: 4140087224
      attribute: 2
      script: {fileID: 0}
      classID: 4
      customType: 0
      isPPtrCurve: 0
    - path: 214665947
      attribute: 2
      script: {fileID: 0}
      classID: 4
      customType: 0
      isPPtrCurve: 0
    - path: 3003413200
      attribute: 2
      script: {fileID: 0}
      classID: 4
      customType: 0
      isPPtrCurve: 0
    - path: 3685223346
      attribute: 3
      script: {fileID: 0}
      classID: 4
      customType: 0
      isPPtrCurve: 0
    - path: 906941854
      attribute: 0
      script: {fileID: 0}
      classID: 212
      customType: 23
      isPPtrCurve: 1
    - path: 2675273060
      attribute: 3
      script: {fileID: 0}
      classID: 4
      customType: 0
      isPPtrCurve: 0
    pptrCurveMapping:
    - {fileID: 21300014, guid: 1c8c6149879540c4ca956f0af394bb7b, type: 3}
    - {fileID: 21300004, guid: a163879c182372c4bb6a2a406b88f5e2, type: 3}
  m_AnimationClipSettings:
    serializedVersion: 2
    m_AdditiveReferencePoseClip: {fileID: 0}
    m_AdditiveReferencePoseTime: 0
    m_StartTime: 0
    m_StopTime: 2.6666667
    m_OrientationOffsetY: 0
    m_Level: 0
    m_CycleOffset: 0
    m_HasAdditiveReferencePose: 0
    m_LoopTime: 0
    m_LoopBlend: 0
    m_LoopBlendOrientation: 0
    m_LoopBlendPositionY: 0
    m_LoopBlendPositionXZ: 0
    m_KeepOriginalOrientation: 0
    m_KeepOriginalPositionY: 1
    m_KeepOriginalPositionXZ: 0
    m_HeightFromFeet: 0
    m_Mirror: 0
  m_EditorCurves:
  - curve:
      serializedVersion: 2
      m_Curve:
      - time: 0
        value: 0
        inSlope: -0.48
        outSlope: Infinity
        tangentMode: 25
      - time: 2.1666667
        value: 0
        inSlope: -0.48
        outSlope: -0
        tangentMode: 17
      - time: 2.6666667
        value: 0
        inSlope: 0
        outSlope: 0
        tangentMode: 7
      m_PreInfinity: 2
      m_PostInfinity: 2
      m_RotationOrder: 4
    attribute: m_LocalPosition.x
    path: body
    classID: 4
    script: {fileID: 0}
  - curve:
      serializedVersion: 2
      m_Curve:
      - time: 0
        value: 0
        inSlope: 0.71999997
        outSlope: Infinity
        tangentMode: 25
      - time: 2.1666667
        value: 0
        inSlope: 0.71999997
        outSlope: -11.72
        tangentMode: 17
      - time: 2.6666667
        value: -5.86
        inSlope: 0
        outSlope: 0
        tangentMode: 7
      m_PreInfinity: 2
      m_PostInfinity: 2
      m_RotationOrder: 4
    attribute: m_LocalPosition.y
    path: body
    classID: 4
    script: {fileID: 0}
  - curve:
      serializedVersion: 2
      m_Curve:
      - time: 0
        value: 0
        inSlope: 0
        outSlope: Infinity
        tangentMode: 25
      - time: 2.1666667
        value: 0
        inSlope: 0
        outSlope: -0
        tangentMode: 17
      - time: 2.6666667
        value: 0
        inSlope: 0
        outSlope: 0
        tangentMode: 7
      m_PreInfinity: 2
      m_PostInfinity: 2
      m_RotationOrder: 4
    attribute: m_LocalPosition.z
    path: body
    classID: 4
    script: {fileID: 0}
  - curve:
      serializedVersion: 2
      m_Curve:
      - time: 0
        value: 1
        inSlope: 0.09634924
        outSlope: 0.09634924
        tangentMode: 10
      - time: 0.16666667
        value: 1.0160582
        inSlope: -0.023520827
        outSlope: -0.023520827
        tangentMode: 10
      - time: 0.33333334
        value: 0.9921597
        inSlope: -0.04817462
        outSlope: -0.04817462
        tangentMode: 10
      - time: 0.5
        value: 1
        inSlope: 0.02352083
        outSlope: 0.02352083
        tangentMode: 10
      - time: 2
        value: 1
        inSlope: -0.08541974
        outSlope: -0.08541974
        tangentMode: 10
      - time: 2.1666667
        value: 0.97152674
        inSlope: 0.041136302
        outSlope: 0.041136302
        tangentMode: 10
      - time: 2.3333333
        value: 1.013712
        inSlope: 0.25311208
        outSlope: 0.25311208
        tangentMode: 10
      m_PreInfinity: 2
      m_PostInfinity: 2
      m_RotationOrder: 4
    attribute: m_LocalScale.x
    path: body
    classID: 4
    script: {fileID: 0}
  - curve:
      serializedVersion: 2
      m_Curve:
      - time: 0
        value: 1
        inSlope: -0.09482646
        outSlope: -0.09482646
        tangentMode: 10
      - time: 0.16666667
        value: 0.9841956
        inSlope: 0.023706794
        outSlope: 0.023706794
        tangentMode: 10
      - time: 0.33333334
        value: 1.0079023
        inSlope: 0.04741323
        outSlope: 0.04741323
        tangentMode: 10
      - time: 0.5
        value: 1
        inSlope: -0.023706796
        outSlope: -0.023706796
        tangentMode: 10
      - time: 2
        value: 1
        inSlope: 0.087923124
        outSlope: 0.087923124
        tangentMode: 10
      - time: 2.1666667
        value: 1.0293077
        inSlope: -0.04057984
        outSlope: -0.04057984
        tangentMode: 10
      - time: 2.3333333
        value: 0.98647344
        inSlope: -0.25700593
        outSlope: -0.25700593
        tangentMode: 10
      m_PreInfinity: 2
      m_PostInfinity: 2
      m_RotationOrder: 4
    attribute: m_LocalScale.y
    path: body
    classID: 4
    script: {fileID: 0}
  - curve:
      serializedVersion: 2
      m_Curve:
      - time: 0
        value: 1
        inSlope: 0
        outSlope: 0
        tangentMode: 10
      - time: 0.16666667
        value: 1
        inSlope: 0
        outSlope: 0
        tangentMode: 10
      - time: 0.33333334
        value: 1
        inSlope: 0
        outSlope: 0
        tangentMode: 10
      - time: 0.5
        value: 1
        inSlope: 0
        outSlope: 0
        tangentMode: 10
      - time: 2
        value: 1
        inSlope: 0
        outSlope: 0
        tangentMode: 10
      - time: 2.1666667
        value: 1
        inSlope: 0
        outSlope: 0
        tangentMode: 10
      - time: 2.3333333
        value: 1
        inSlope: 0
        outSlope: 0
        tangentMode: 10
      m_PreInfinity: 2
      m_PostInfinity: 2
      m_RotationOrder: 4
    attribute: m_LocalScale.z
    path: body
    classID: 4
    script: {fileID: 0}
  - curve:
      serializedVersion: 2
      m_Curve:
      - time: 0
        value: -2.662
        inSlope: -0.056000233
        outSlope: -0.056000233
        tangentMode: 10
      - time: 0.5
        value: -2.69
        inSlope: -0.056000233
        outSlope: -0.056000233
        tangentMode: 10
      m_PreInfinity: 2
      m_PostInfinity: 2
      m_RotationOrder: 4
    attribute: m_LocalPosition.x
    path: body/armL
    classID: 4
    script: {fileID: 0}
  - curve:
      serializedVersion: 2
      m_Curve:
      - time: 0
        value: 1.8729997
        inSlope: -1.0659993
        outSlope: -1.0659993
        tangentMode: 10
      - time: 0.5
        value: 1.34
        inSlope: -1.0659993
        outSlope: -1.0659993
        tangentMode: 10
      m_PreInfinity: 2
      m_PostInfinity: 2
      m_RotationOrder: 4
    attribute: m_LocalPosition.y
    path: body/armL
    classID: 4
    script: {fileID: 0}
  - curve:
      serializedVersion: 2
      m_Curve:
      - time: 0
        value: 0
        inSlope: 0
        outSlope: 0
        tangentMode: 10
      - time: 0.5
        value: 0
        inSlope: 0
        outSlope: 0
        tangentMode: 10
      m_PreInfinity: 2
      m_PostInfinity: 2
      m_RotationOrder: 4
    attribute: m_LocalPosition.z
    path: body/armL
    classID: 4
    script: {fileID: 0}
  - curve:
      serializedVersion: 2
      m_Curve:
      - time: 0
        value: 2.6420002
        inSlope: -0.20400047
        outSlope: -0.20400047
        tangentMode: 10
      - time: 0.5
        value: 2.54
        inSlope: -0.20400047
        outSlope: -0.20400047
        tangentMode: 10
      m_PreInfinity: 2
      m_PostInfinity: 2
      m_RotationOrder: 4
    attribute: m_LocalPosition.x
    path: body/armR
    classID: 4
    script: {fileID: 0}
  - curve:
      serializedVersion: 2
      m_Curve:
      - time: 0
        value: 2.2799997
        inSlope: -1.2199996
        outSlope: -1.2199996
        tangentMode: 10
      - time: 0.5
        value: 1.67
        inSlope: -1.2199996
        outSlope: -1.2199996
        tangentMode: 10
      m_PreInfinity: 2
      m_PostInfinity: 2
      m_RotationOrder: 4
    attribute: m_LocalPosition.y
    path: body/armR
    classID: 4
    script: {fileID: 0}
  - curve:
      serializedVersion: 2
      m_Curve:
      - time: 0
        value: 0
        inSlope: 0
        outSlope: 0
        tangentMode: 10
      - time: 0.5
        value: 0
        inSlope: 0
        outSlope: 0
        tangentMode: 10
      m_PreInfinity: 2
      m_PostInfinity: 2
      m_RotationOrder: 4
    attribute: m_LocalPosition.z
    path: body/armR
    classID: 4
    script: {fileID: 0}
  - curve:
      serializedVersion: 2
      m_Curve:
      - time: 0
        value: -1.8509998
        inSlope: 1.1219997
        outSlope: 1.1219997
        tangentMode: 10
      - time: 0.5
        value: -1.29
        inSlope: 1.1219997
        outSlope: 1.1219997
        tangentMode: 10
      m_PreInfinity: 2
      m_PostInfinity: 2
      m_RotationOrder: 4
    attribute: m_LocalPosition.x
    path: body/eyeL
    classID: 4
    script: {fileID: 0}
  - curve:
      serializedVersion: 2
      m_Curve:
      - time: 0
        value: 2.784
        inSlope: -0.18799973
        outSlope: -0.18799973
        tangentMode: 10
      - time: 0.5
        value: 2.69
        inSlope: -0.18799973
        outSlope: -0.18799973
        tangentMode: 10
      m_PreInfinity: 2
      m_PostInfinity: 2
      m_RotationOrder: 4
    attribute: m_LocalPosition.y
    path: body/eyeL
    classID: 4
    script: {fileID: 0}
  - curve:
      serializedVersion: 2
      m_Curve:
      - time: 0
        value: 0
        inSlope: 0
        outSlope: 0
        tangentMode: 10
      - time: 0.5
        value: 0
        inSlope: 0
        outSlope: 0
        tangentMode: 10
      m_PreInfinity: 2
      m_PostInfinity: 2
      m_RotationOrder: 4
    attribute: m_LocalPosition.z
    path: body/eyeL
    classID: 4
    script: {fileID: 0}
  - curve:
      serializedVersion: 2
      m_Curve:
      - time: 0
        value: 1.6200004
        inSlope: -1.5200007
        outSlope: -1.5200007
        tangentMode: 10
      - time: 0.5
        value: 0.86
        inSlope: -1.5200007
        outSlope: -1.5200007
        tangentMode: 10
      m_PreInfinity: 2
      m_PostInfinity: 2
      m_RotationOrder: 4
    attribute: m_LocalPosition.x
    path: body/eyeR
    classID: 4
    script: {fileID: 0}
  - curve:
      serializedVersion: 2
      m_Curve:
      - time: 0
        value: 2.6039996
        inSlope: 0.2520008
        outSlope: 0.2520008
        tangentMode: 10
      - time: 0.5
        value: 2.73
        inSlope: 0.2520008
        outSlope: 0.2520008
        tangentMode: 10
      m_PreInfinity: 2
      m_PostInfinity: 2
      m_RotationOrder: 4
    attribute: m_LocalPosition.y
    path: body/eyeR
    classID: 4
    script: {fileID: 0}
  - curve:
      serializedVersion: 2
      m_Curve:
      - time: 0
        value: 0
        inSlope: 0
        outSlope: 0
        tangentMode: 10
      - time: 0.5
        value: 0
        inSlope: 0
        outSlope: 0
        tangentMode: 10
      m_PreInfinity: 2
      m_PostInfinity: 2
      m_RotationOrder: 4
    attribute: m_LocalPosition.z
    path: body/eyeR
    classID: 4
    script: {fileID: 0}
  - curve:
      serializedVersion: 2
      m_Curve:
      - time: 0
        value: -0.27299976
        inSlope: 0.55799854
        outSlope: 0.55799854
        tangentMode: 10
      - time: 0.16666667
        value: -0.18
        inSlope: 0.23399928
        outSlope: 0.23399928
        tangentMode: 10
      - time: 0.5
        value: -0.21
        inSlope: -0.08999997
        outSlope: -0.08999997
        tangentMode: 10
      m_PreInfinity: 2
      m_PostInfinity: 2
      m_RotationOrder: 4
    attribute: m_LocalPosition.x
    path: body/glasses
    classID: 4
    script: {fileID: 0}
  - curve:
      serializedVersion: 2
      m_Curve:
      - time: 0
        value: 3.087
        inSlope: 2.3580008
        outSlope: 2.3580008
        tangentMode: 10
      - time: 0.16666667
        value: 3.48
        inSlope: 0.069000244
        outSlope: 0.069000244
        tangentMode: 10
      - time: 0.5
        value: 2.74
        inSlope: -2.2200003
        outSlope: -2.2200003
        tangentMode: 10
      m_PreInfinity: 2
      m_PostInfinity: 2
      m_RotationOrder: 4
    attribute: m_LocalPosition.y
    path: body/glasses
    classID: 4
    script: {fileID: 0}
  - curve:
      serializedVersion: 2
      m_Curve:
      - time: 0
        value: 0
        inSlope: 0
        outSlope: 0
        tangentMode: 10
      - time: 0.16666667
        value: 0
        inSlope: 0
        outSlope: 0
        tangentMode: 10
      - time: 0.5
        value: 0
        inSlope: 0
        outSlope: 0
        tangentMode: 10
      m_PreInfinity: 2
      m_PostInfinity: 2
      m_RotationOrder: 4
    attribute: m_LocalPosition.z
    path: body/glasses
    classID: 4
    script: {fileID: 0}
  - curve:
      serializedVersion: 2
      m_Curve:
      - time: 0
        value: 1
        inSlope: 0
        outSlope: 0
        tangentMode: 10
      m_PreInfinity: 2
      m_PostInfinity: 2
      m_RotationOrder: 4
    attribute: m_LocalScale.x
    path: body/leg
    classID: 4
    script: {fileID: 0}
  - curve:
      serializedVersion: 2
      m_Curve:
      - time: 0
        value: 1
        inSlope: 0
        outSlope: 0
        tangentMode: 10
      m_PreInfinity: 2
      m_PostInfinity: 2
      m_RotationOrder: 4
    attribute: m_LocalScale.y
    path: body/leg
    classID: 4
    script: {fileID: 0}
  - curve:
      serializedVersion: 2
      m_Curve:
      - time: 0
        value: 1
        inSlope: 0
        outSlope: 0
        tangentMode: 10
      m_PreInfinity: 2
      m_PostInfinity: 2
      m_RotationOrder: 4
    attribute: m_LocalScale.z
    path: body/leg
    classID: 4
    script: {fileID: 0}
  - curve:
      serializedVersion: 2
      m_Curve:
      - time: 0
        value: 0.25
        inSlope: 0
        outSlope: 0
        tangentMode: 10
      - time: 0.5
        value: 0.25
        inSlope: 0
        outSlope: 0
        tangentMode: 10
      m_PreInfinity: 2
      m_PostInfinity: 2
      m_RotationOrder: 4
    attribute: m_LocalPosition.x
    path: body/leg
    classID: 4
    script: {fileID: 0}
  - curve:
      serializedVersion: 2
      m_Curve:
      - time: 0
        value: -0.14000034
        inSlope: -0.5599993
        outSlope: -0.5599993
        tangentMode: 10
      - time: 0.5
        value: -0.42
        inSlope: -0.5599993
        outSlope: -0.5599993
        tangentMode: 10
      m_PreInfinity: 2
      m_PostInfinity: 2
      m_RotationOrder: 4
    attribute: m_LocalPosition.y
    path: body/leg
    classID: 4
    script: {fileID: 0}
  - curve:
      serializedVersion: 2
      m_Curve:
      - time: 0
        value: 0
        inSlope: 0
        outSlope: 0
        tangentMode: 10
      - time: 0.5
        value: 0
        inSlope: 0
        outSlope: 0
        tangentMode: 10
      m_PreInfinity: 2
      m_PostInfinity: 2
      m_RotationOrder: 4
    attribute: m_LocalPosition.z
    path: body/leg
    classID: 4
    script: {fileID: 0}
  - curve:
      serializedVersion: 2
      m_Curve:
      - time: 0
        value: 0
        inSlope: 0
        outSlope: 0
        tangentMode: 0
      - time: 0.016666668
        value: 0
        inSlope: 0
        outSlope: 0
        tangentMode: 0
      - time: 0.033333335
        value: 0
        inSlope: 0
        outSlope: 0
        tangentMode: 0
      - time: 0.050000004
        value: 0
        inSlope: 0
        outSlope: 0
        tangentMode: 0
      - time: 0.06666667
        value: 0
        inSlope: 0
        outSlope: 0
        tangentMode: 0
      - time: 0.083333336
        value: 0
        inSlope: 0
        outSlope: 0
        tangentMode: 0
      - time: 0.1
        value: 0
        inSlope: 0
        outSlope: 0
        tangentMode: 0
      - time: 0.11666667
        value: 0
        inSlope: 0
        outSlope: 0
        tangentMode: 0
      - time: 0.13333334
        value: 0
        inSlope: 0
        outSlope: 0
        tangentMode: 0
      - time: 0.15
        value: 0
        inSlope: 0
        outSlope: 0
        tangentMode: 0
      - time: 0.16666667
        value: 0
        inSlope: 0
        outSlope: 0
        tangentMode: 0
      - time: 0.18333334
        value: 0
        inSlope: 0
        outSlope: 0
        tangentMode: 0
      - time: 0.2
        value: 0
        inSlope: 0
        outSlope: 0
        tangentMode: 0
      - time: 0.21666667
        value: 0
        inSlope: 0
        outSlope: 0
        tangentMode: 0
      - time: 0.23333333
        value: 0
        inSlope: 0
        outSlope: 0
        tangentMode: 0
      - time: 0.25
        value: 0
        inSlope: 0
        outSlope: 0
        tangentMode: 0
      - time: 0.26666668
        value: 0
        inSlope: 0
        outSlope: 0
        tangentMode: 0
      - time: 0.28333336
        value: 0
        inSlope: 0
        outSlope: 0
        tangentMode: 0
      - time: 0.30000004
        value: 0
        inSlope: 0
        outSlope: 0
        tangentMode: 0
      - time: 0.31666672
        value: 0
        inSlope: 0
        outSlope: 0
        tangentMode: 0
      - time: 0.3333334
        value: 0
        inSlope: 0
        outSlope: 0
        tangentMode: 0
      - time: 0.35000008
        value: 0
        inSlope: 0
        outSlope: 0
        tangentMode: 0
      - time: 0.36666676
        value: 0
        inSlope: 0
        outSlope: 0
        tangentMode: 0
      - time: 0.38333344
        value: 0
        inSlope: 0
        outSlope: 0
        tangentMode: 0
      - time: 0.40000013
        value: 0
        inSlope: 0
        outSlope: 0
        tangentMode: 0
      - time: 0.4166668
        value: 0
        inSlope: 0
        outSlope: 0
        tangentMode: 0
      - time: 0.4333335
        value: 0
        inSlope: 0
        outSlope: 0
        tangentMode: 0
      - time: 0.45000017
        value: 0
        inSlope: 0
        outSlope: 0
        tangentMode: 0
      - time: 0.46666685
        value: 0
        inSlope: 0
        outSlope: 0
        tangentMode: 0
      - time: 0.48333353
        value: 0
        inSlope: 0
        outSlope: 0
        tangentMode: 0
      - time: 0.5
        value: 0
        inSlope: 0
        outSlope: 0
        tangentMode: 0
      m_PreInfinity: 2
      m_PostInfinity: 2
      m_RotationOrder: 4
    attribute: m_LocalRotation.x
    path: body/armL
    classID: 4
    script: {fileID: 0}
  - curve:
      serializedVersion: 2
      m_Curve:
      - time: 0
        value: 0
        inSlope: 0
        outSlope: 0
        tangentMode: 0
      - time: 0.016666668
        value: 0
        inSlope: 0
        outSlope: 0
        tangentMode: 0
      - time: 0.033333335
        value: 0
        inSlope: 0
        outSlope: 0
        tangentMode: 0
      - time: 0.050000004
        value: 0
        inSlope: 0
        outSlope: 0
        tangentMode: 0
      - time: 0.06666667
        value: 0
        inSlope: 0
        outSlope: 0
        tangentMode: 0
      - time: 0.083333336
        value: 0
        inSlope: 0
        outSlope: 0
        tangentMode: 0
      - time: 0.1
        value: 0
        inSlope: 0
        outSlope: 0
        tangentMode: 0
      - time: 0.11666667
        value: 0
        inSlope: 0
        outSlope: 0
        tangentMode: 0
      - time: 0.13333334
        value: 0
        inSlope: 0
        outSlope: 0
        tangentMode: 0
      - time: 0.15
        value: 0
        inSlope: 0
        outSlope: 0
        tangentMode: 0
      - time: 0.16666667
        value: 0
        inSlope: 0
        outSlope: 0
        tangentMode: 0
      - time: 0.18333334
        value: 0
        inSlope: 0
        outSlope: 0
        tangentMode: 0
      - time: 0.2
        value: 0
        inSlope: 0
        outSlope: 0
        tangentMode: 0
      - time: 0.21666667
        value: 0
        inSlope: 0
        outSlope: 0
        tangentMode: 0
      - time: 0.23333333
        value: 0
        inSlope: 0
        outSlope: 0
        tangentMode: 0
      - time: 0.25
        value: 0
        inSlope: 0
        outSlope: 0
        tangentMode: 0
      - time: 0.26666668
        value: 0
        inSlope: 0
        outSlope: 0
        tangentMode: 0
      - time: 0.28333336
        value: 0
        inSlope: 0
        outSlope: 0
        tangentMode: 0
      - time: 0.30000004
        value: 0
        inSlope: 0
        outSlope: 0
        tangentMode: 0
      - time: 0.31666672
        value: 0
        inSlope: 0
        outSlope: 0
        tangentMode: 0
      - time: 0.3333334
        value: 0
        inSlope: 0
        outSlope: 0
        tangentMode: 0
      - time: 0.35000008
        value: 0
        inSlope: 0
        outSlope: 0
        tangentMode: 0
      - time: 0.36666676
        value: 0
        inSlope: 0
        outSlope: 0
        tangentMode: 0
      - time: 0.38333344
        value: 0
        inSlope: 0
        outSlope: 0
        tangentMode: 0
      - time: 0.40000013
        value: 0
        inSlope: 0
        outSlope: 0
        tangentMode: 0
      - time: 0.4166668
        value: 0
        inSlope: 0
        outSlope: 0
        tangentMode: 0
      - time: 0.4333335
        value: 0
        inSlope: 0
        outSlope: 0
        tangentMode: 0
      - time: 0.45000017
        value: 0
        inSlope: 0
        outSlope: 0
        tangentMode: 0
      - time: 0.46666685
        value: 0
        inSlope: 0
        outSlope: 0
        tangentMode: 0
      - time: 0.48333353
        value: 0
        inSlope: 0
        outSlope: 0
        tangentMode: 0
      - time: 0.5
        value: 0
        inSlope: 0
        outSlope: 0
        tangentMode: 0
      m_PreInfinity: 2
      m_PostInfinity: 2
      m_RotationOrder: 4
    attribute: m_LocalRotation.y
    path: body/armL
    classID: 4
    script: {fileID: 0}
  - curve:
      serializedVersion: 2
      m_Curve:
      - time: 0
        value: -0.0028676882
        inSlope: -0.17164761
        outSlope: -0.17164761
        tangentMode: 0
      - time: 0.016666668
        value: -0.005728482
        inSlope: -0.17164624
        outSlope: -0.17164624
        tangentMode: 0
      - time: 0.033333335
        value: -0.00858923
        inSlope: -0.1716427
        outSlope: -0.1716427
        tangentMode: 0
      - time: 0.050000004
        value: -0.011449906
        inSlope: -0.17163776
        outSlope: -0.17163776
        tangentMode: 0
      - time: 0.06666667
        value: -0.0143104885
        inSlope: -0.17163146
        outSlope: -0.17163146
        tangentMode: 0
      - time: 0.083333336
        value: -0.017170954
        inSlope: -0.17162378
        outSlope: -0.17162378
        tangentMode: 0
      - time: 0.1
        value: -0.02003128
        inSlope: -0.17161456
        outSlope: -0.17161456
        tangentMode: 0
      - time: 0.11666667
        value: -0.02289144
        inSlope: -0.17160402
        outSlope: -0.17160402
        tangentMode: 0
      - time: 0.13333334
        value: -0.025751416
        inSlope: -0.17159218
        outSlope: -0.17159218
        tangentMode: 0
      - time: 0.15
        value: -0.02861118
        inSlope: -0.1715788
        outSlope: -0.1715788
        tangentMode: 0
      - time: 0.16666667
        value: -0.03147071
        inSlope: -0.17156404
        outSlope: -0.17156404
        tangentMode: 0
      - time: 0.18333334
        value: -0.03432998
        inSlope: -0.17154785
        outSlope: -0.17154785
        tangentMode: 0
      - time: 0.2
        value: -0.03718897
        inSlope: -0.17153019
        outSlope: -0.17153019
        tangentMode: 0
      - time: 0.21666667
        value: -0.040047653
        inSlope: -0.17151129
        outSlope: -0.17151129
        tangentMode: 0
      - time: 0.23333333
        value: -0.042906012
        inSlope: -0.17149107
        outSlope: -0.17149107
        tangentMode: 0
      - time: 0.25
        value: -0.04576402
        inSlope: -0.1714692
        outSlope: -0.1714692
        tangentMode: 0
      - time: 0.26666668
        value: -0.048621655
        inSlope: -0.17144598
        outSlope: -0.17144598
        tangentMode: 0
      - time: 0.28333336
        value: -0.051478893
        inSlope: -0.1714214
        outSlope: -0.1714214
        tangentMode: 0
      - time: 0.30000004
        value: -0.054335706
        inSlope: -0.17139536
        outSlope: -0.17139536
        tangentMode: 0
      - time: 0.31666672
        value: -0.057192076
        inSlope: -0.17136809
        outSlope: -0.17136809
        tangentMode: 0
      - time: 0.3333334
        value: -0.06004798
        inSlope: -0.17133924
        outSlope: -0.17133924
        tangentMode: 0
      - time: 0.35000008
        value: -0.06290339
        inSlope: -0.17130929
        outSlope: -0.17130929
        tangentMode: 0
      - time: 0.36666676
        value: -0.065758295
        inSlope: -0.17127767
        outSlope: -0.17127767
        tangentMode: 0
      - time: 0.38333344
        value: -0.06861265
        inSlope: -0.17124437
        outSlope: -0.17124437
        tangentMode: 0
      - time: 0.40000013
        value: -0.071466446
        inSlope: -0.17120995
        outSlope: -0.17120995
        tangentMode: 0
      - time: 0.4166668
        value: -0.07431965
        inSlope: -0.1711744
        outSlope: -0.1711744
        tangentMode: 0
      - time: 0.4333335
        value: -0.077172264
        inSlope: -0.1711373
        outSlope: -0.1711373
        tangentMode: 0
      - time: 0.45000017
        value: -0.080024235
        inSlope: -0.17109841
        outSlope: -0.17109841
        tangentMode: 0
      - time: 0.46666685
        value: -0.08287555
        inSlope: -0.17105862
        outSlope: -0.17105862
        tangentMode: 0
      - time: 0.48333353
        value: -0.085726194
        inSlope: -0.17101723
        outSlope: -0.17101723
        tangentMode: 0
      - time: 0.5
        value: -0.08857609
        inSlope: -0.17099595
        outSlope: -0.17099595
        tangentMode: 0
      m_PreInfinity: 2
      m_PostInfinity: 2
      m_RotationOrder: 4
    attribute: m_LocalRotation.z
    path: body/armL
    classID: 4
    script: {fileID: 0}
  - curve:
      serializedVersion: 2
      m_Curve:
      - time: 0
        value: 0.9999959
        inSlope: -0.00073671335
        outSlope: -0.00073671335
        tangentMode: 0
      - time: 0.016666668
        value: 0.9999836
        inSlope: -0.0009834765
        outSlope: -0.0009834765
        tangentMode: 0
      - time: 0.033333335
        value: 0.9999631
        inSlope: -0.0014752147
        outSlope: -0.0014752147
        tangentMode: 0
      - time: 0.050000004
        value: 0.99993443
        inSlope: -0.0019651651
        outSlope: -0.0019651651
        tangentMode: 0
      - time: 0.06666667
        value: 0.9998976
        inSlope: -0.0024551156
        outSlope: -0.0024551156
        tangentMode: 0
      - time: 0.083333336
        value: 0.9998526
        inSlope: -0.0029468539
        outSlope: -0.0029468539
        tangentMode: 0
      - time: 0.1
        value: 0.9997994
        inSlope: -0.0034385922
        outSlope: -0.0034385922
        tangentMode: 0
      - time: 0.11666667
        value: 0.999738
        inSlope: -0.00393033
        outSlope: -0.00393033
        tangentMode: 0
      - time: 0.13333334
        value: 0.99966836
        inSlope: -0.00442028
        outSlope: -0.00442028
        tangentMode: 0
      - time: 0.15
        value: 0.99959064
        inSlope: -0.004910231
        outSlope: -0.004910231
        tangentMode: 0
      - time: 0.16666667
        value: 0.9995047
        inSlope: -0.0054019694
        outSlope: -0.0054019694
        tangentMode: 0
      - time: 0.18333334
        value: 0.99941057
        inSlope: -0.0058937077
        outSlope: -0.0058937077
        tangentMode: 0
      - time: 0.2
        value: 0.9993082
        inSlope: -0.006383658
        outSlope: -0.006383658
        tangentMode: 0
      - time: 0.21666667
        value: 0.9991978
        inSlope: -0.006873608
        outSlope: -0.006873608
        tangentMode: 0
      - time: 0.23333333
        value: 0.9990791
        inSlope: -0.0073653464
        outSlope: -0.0073653464
        tangentMode: 0
      - time: 0.25
        value: 0.99895227
        inSlope: -0.007855293
        outSlope: -0.007855293
        tangentMode: 0
      - time: 0.26666668
        value: 0.99881727
        inSlope: -0.008345239
        outSlope: -0.008345239
        tangentMode: 0
      - time: 0.28333336
        value: 0.9986741
        inSlope: -0.008836977
        outSlope: -0.008836977
        tangentMode: 0
      - time: 0.30000004
        value: 0.9985227
        inSlope: -0.009326927
        outSlope: -0.009326927
        tangentMode: 0
      - time: 0.31666672
        value: 0.9983632
        inSlope: -0.009816877
        outSlope: -0.009816877
        tangentMode: 0
      - time: 0.3333334
        value: 0.99819547
        inSlope: -0.010306827
        outSlope: -0.010306827
        tangentMode: 0
      - time: 0.35000008
        value: 0.99801964
        inSlope: -0.010796776
        outSlope: -0.010796776
        tangentMode: 0
      - time: 0.36666676
        value: 0.9978356
        inSlope: -0.011288514
        outSlope: -0.011288514
        tangentMode: 0
      - time: 0.38333344
        value: 0.99764335
        inSlope: -0.011776676
        outSlope: -0.011776676
        tangentMode: 0
      - time: 0.40000013
        value: 0.997443
        inSlope: -0.012266626
        outSlope: -0.012266626
        tangentMode: 0
      - time: 0.4166668
        value: 0.99723446
        inSlope: -0.012756575
        outSlope: -0.012756575
        tangentMode: 0
      - time: 0.4333335
        value: 0.9970178
        inSlope: -0.013246525
        outSlope: -0.013246525
        tangentMode: 0
      - time: 0.45000017
        value: 0.9967929
        inSlope: -0.013736475
        outSlope: -0.013736475
        tangentMode: 0
      - time: 0.46666685
        value: 0.9965599
        inSlope: -0.014224636
        outSlope: -0.014224636
        tangentMode: 0
      - time: 0.48333353
        value: 0.99631876
        inSlope: -0.014714681
        outSlope: -0.014714681
        tangentMode: 0
      - time: 0.5
        value: 0.99606943
        inSlope: -0.014959749
        outSlope: -0.014959749
        tangentMode: 0
      m_PreInfinity: 2
      m_PostInfinity: 2
      m_RotationOrder: 4
    attribute: m_LocalRotation.w
    path: body/armL
    classID: 4
    script: {fileID: 0}
  - curve:
      serializedVersion: 2
      m_Curve:
      - time: 0
        value: 0
        inSlope: 0
        outSlope: 0
        tangentMode: 0
      - time: 0.016666668
        value: 0
        inSlope: 0
        outSlope: 0
        tangentMode: 0
      - time: 0.033333335
        value: 0
        inSlope: 0
        outSlope: 0
        tangentMode: 0
      - time: 0.050000004
        value: 0
        inSlope: 0
        outSlope: 0
        tangentMode: 0
      - time: 0.06666667
        value: 0
        inSlope: 0
        outSlope: 0
        tangentMode: 0
      - time: 0.083333336
        value: 0
        inSlope: 0
        outSlope: 0
        tangentMode: 0
      - time: 0.1
        value: 0
        inSlope: 0
        outSlope: 0
        tangentMode: 0
      - time: 0.11666667
        value: 0
        inSlope: 0
        outSlope: 0
        tangentMode: 0
      - time: 0.13333334
        value: 0
        inSlope: 0
        outSlope: 0
        tangentMode: 0
      - time: 0.15
        value: 0
        inSlope: 0
        outSlope: 0
        tangentMode: 0
      - time: 0.16666667
        value: 0
        inSlope: 0
        outSlope: 0
        tangentMode: 0
      - time: 0.18333334
        value: 0
        inSlope: 0
        outSlope: 0
        tangentMode: 0
      - time: 0.2
        value: 0
        inSlope: 0
        outSlope: 0
        tangentMode: 0
      - time: 0.21666667
        value: 0
        inSlope: 0
        outSlope: 0
        tangentMode: 0
      - time: 0.23333333
        value: 0
        inSlope: 0
        outSlope: 0
        tangentMode: 0
      - time: 0.25
        value: 0
        inSlope: 0
        outSlope: 0
        tangentMode: 0
      - time: 0.26666668
        value: 0
        inSlope: 0
        outSlope: 0
        tangentMode: 0
      - time: 0.28333336
        value: 0
        inSlope: 0
        outSlope: 0
        tangentMode: 0
      - time: 0.30000004
        value: 0
        inSlope: 0
        outSlope: 0
        tangentMode: 0
      - time: 0.31666672
        value: 0
        inSlope: 0
        outSlope: 0
        tangentMode: 0
      - time: 0.3333334
        value: 0
        inSlope: 0
        outSlope: 0
        tangentMode: 0
      - time: 0.35000008
        value: 0
        inSlope: 0
        outSlope: 0
        tangentMode: 0
      - time: 0.36666676
        value: 0
        inSlope: 0
        outSlope: 0
        tangentMode: 0
      - time: 0.38333344
        value: 0
        inSlope: 0
        outSlope: 0
        tangentMode: 0
      - time: 0.40000013
        value: 0
        inSlope: 0
        outSlope: 0
        tangentMode: 0
      - time: 0.4166668
        value: 0
        inSlope: 0
        outSlope: 0
        tangentMode: 0
      - time: 0.4333335
        value: 0
        inSlope: 0
        outSlope: 0
        tangentMode: 0
      - time: 0.45000017
        value: 0
        inSlope: 0
        outSlope: 0
        tangentMode: 0
      - time: 0.46666685
        value: 0
        inSlope: 0
        outSlope: 0
        tangentMode: 0
      - time: 0.48333353
        value: 0
        inSlope: 0
        outSlope: 0
        tangentMode: 0
      - time: 0.5
        value: 0
        inSlope: 0
        outSlope: 0
        tangentMode: 0
      m_PreInfinity: 2
      m_PostInfinity: 2
      m_RotationOrder: 4
    attribute: m_LocalRotation.x
    path: body/armR
    classID: 4
    script: {fileID: 0}
  - curve:
      serializedVersion: 2
      m_Curve:
      - time: 0
        value: 0
        inSlope: 0
        outSlope: 0
        tangentMode: 0
      - time: 0.016666668
        value: 0
        inSlope: 0
        outSlope: 0
        tangentMode: 0
      - time: 0.033333335
        value: 0
        inSlope: 0
        outSlope: 0
        tangentMode: 0
      - time: 0.050000004
        value: 0
        inSlope: 0
        outSlope: 0
        tangentMode: 0
      - time: 0.06666667
        value: 0
        inSlope: 0
        outSlope: 0
        tangentMode: 0
      - time: 0.083333336
        value: 0
        inSlope: 0
        outSlope: 0
        tangentMode: 0
      - time: 0.1
        value: 0
        inSlope: 0
        outSlope: 0
        tangentMode: 0
      - time: 0.11666667
        value: 0
        inSlope: 0
        outSlope: 0
        tangentMode: 0
      - time: 0.13333334
        value: 0
        inSlope: 0
        outSlope: 0
        tangentMode: 0
      - time: 0.15
        value: 0
        inSlope: 0
        outSlope: 0
        tangentMode: 0
      - time: 0.16666667
        value: 0
        inSlope: 0
        outSlope: 0
        tangentMode: 0
      - time: 0.18333334
        value: 0
        inSlope: 0
        outSlope: 0
        tangentMode: 0
      - time: 0.2
        value: 0
        inSlope: 0
        outSlope: 0
        tangentMode: 0
      - time: 0.21666667
        value: 0
        inSlope: 0
        outSlope: 0
        tangentMode: 0
      - time: 0.23333333
        value: 0
        inSlope: 0
        outSlope: 0
        tangentMode: 0
      - time: 0.25
        value: 0
        inSlope: 0
        outSlope: 0
        tangentMode: 0
      - time: 0.26666668
        value: 0
        inSlope: 0
        outSlope: 0
        tangentMode: 0
      - time: 0.28333336
        value: 0
        inSlope: 0
        outSlope: 0
        tangentMode: 0
      - time: 0.30000004
        value: 0
        inSlope: 0
        outSlope: 0
        tangentMode: 0
      - time: 0.31666672
        value: 0
        inSlope: 0
        outSlope: 0
        tangentMode: 0
      - time: 0.3333334
        value: 0
        inSlope: 0
        outSlope: 0
        tangentMode: 0
      - time: 0.35000008
        value: 0
        inSlope: 0
        outSlope: 0
        tangentMode: 0
      - time: 0.36666676
        value: 0
        inSlope: 0
        outSlope: 0
        tangentMode: 0
      - time: 0.38333344
        value: 0
        inSlope: 0
        outSlope: 0
        tangentMode: 0
      - time: 0.40000013
        value: 0
        inSlope: 0
        outSlope: 0
        tangentMode: 0
      - time: 0.4166668
        value: 0
        inSlope: 0
        outSlope: 0
        tangentMode: 0
      - time: 0.4333335
        value: 0
        inSlope: 0
        outSlope: 0
        tangentMode: 0
      - time: 0.45000017
        value: 0
        inSlope: 0
        outSlope: 0
        tangentMode: 0
      - time: 0.46666685
        value: 0
        inSlope: 0
        outSlope: 0
        tangentMode: 0
      - time: 0.48333353
        value: 0
        inSlope: 0
        outSlope: 0
        tangentMode: 0
      - time: 0.5
        value: 0
        inSlope: 0
        outSlope: 0
        tangentMode: 0
      m_PreInfinity: 2
      m_PostInfinity: 2
      m_RotationOrder: 4
    attribute: m_LocalRotation.y
    path: body/armR
    classID: 4
    script: {fileID: 0}
  - curve:
      serializedVersion: 2
      m_Curve:
      - time: 0
        value: 0.17416905
        inSlope: 0.12358635
        outSlope: 0.12358635
        tangentMode: 0
      - time: 0.016666668
        value: 0.17622882
        inSlope: 0.123564444
        outSlope: 0.123564444
        tangentMode: 0
      - time: 0.033333335
        value: 0.17828786
        inSlope: 0.123517945
        outSlope: 0.123517945
        tangentMode: 0
      - time: 0.050000004
        value: 0.18034609
        inSlope: 0.12347057
        outSlope: 0.12347057
        tangentMode: 0
      - time: 0.06666667
        value: 0.18240355
        inSlope: 0.12342364
        outSlope: 0.12342364
        tangentMode: 0
      - time: 0.083333336
        value: 0.18446021
        inSlope: 0.12337447
        outSlope: 0.12337447
        tangentMode: 0
      - time: 0.1
        value: 0.18651603
        inSlope: 0.12332619
        outSlope: 0.12332619
        tangentMode: 0
      - time: 0.11666667
        value: 0.18857108
        inSlope: 0.12327699
        outSlope: 0.12327699
        tangentMode: 0
      - time: 0.13333334
        value: 0.19062527
        inSlope: 0.12322737
        outSlope: 0.12322737
        tangentMode: 0
      - time: 0.15
        value: 0.19267866
        inSlope: 0.123177774
        outSlope: 0.123177774
        tangentMode: 0
      - time: 0.16666667
        value: 0.19473119
        inSlope: 0.12312547
        outSlope: 0.12312547
        tangentMode: 0
      - time: 0.18333334
        value: 0.19678284
        inSlope: 0.12307451
        outSlope: 0.12307451
        tangentMode: 0
      - time: 0.2
        value: 0.19883367
        inSlope: 0.12302265
        outSlope: 0.12302265
        tangentMode: 0
      - time: 0.21666667
        value: 0.2008836
        inSlope: 0.1229699
        outSlope: 0.1229699
        tangentMode: 0
      - time: 0.23333333
        value: 0.20293267
        inSlope: 0.1229176
        outSlope: 0.1229176
        tangentMode: 0
      - time: 0.25
        value: 0.20498085
        inSlope: 0.12286346
        outSlope: 0.12286346
        tangentMode: 0
      - time: 0.26666668
        value: 0.20702812
        inSlope: 0.122809306
        outSlope: 0.122809306
        tangentMode: 0
      - time: 0.28333336
        value: 0.2090745
        inSlope: 0.12275566
        outSlope: 0.12275566
        tangentMode: 0
      - time: 0.30000004
        value: 0.21111998
        inSlope: 0.12269978
        outSlope: 0.12269978
        tangentMode: 0
      - time: 0.31666672
        value: 0.2131645
        inSlope: 0.12264301
        outSlope: 0.12264301
        tangentMode: 0
      - time: 0.3333334
        value: 0.21520808
        inSlope: 0.12258758
        outSlope: 0.12258758
        tangentMode: 0
      - time: 0.35000008
        value: 0.21725075
        inSlope: 0.12253125
        outSlope: 0.12253125
        tangentMode: 0
      - time: 0.36666676
        value: 0.21929246
        inSlope: 0.12247403
        outSlope: 0.12247403
        tangentMode: 0
      - time: 0.38333344
        value: 0.22133322
        inSlope: 0.12241547
        outSlope: 0.12241547
        tangentMode: 0
      - time: 0.40000013
        value: 0.22337298
        inSlope: 0.12235691
        outSlope: 0.12235691
        tangentMode: 0
      - time: 0.4166668
        value: 0.22541179
        inSlope: 0.12229924
        outSlope: 0.12229924
        tangentMode: 0
      - time: 0.4333335
        value: 0.22744963
        inSlope: 0.12223889
        outSlope: 0.12223889
        tangentMode: 0
      - time: 0.45000017
        value: 0.22948642
        inSlope: 0.12217809
        outSlope: 0.12217809
        tangentMode: 0
      - time: 0.46666685
        value: 0.23152223
        inSlope: 0.12211864
        outSlope: 0.12211864
        tangentMode: 0
      - time: 0.48333353
        value: 0.23355705
        inSlope: 0.122057706
        outSlope: 0.122057706
        tangentMode: 0
      - time: 0.5
        value: 0.2355908
        inSlope: 0.122026734
        outSlope: 0.122026734
        tangentMode: 0
      m_PreInfinity: 2
      m_PostInfinity: 2
      m_RotationOrder: 4
    attribute: m_LocalRotation.z
    path: body/armR
    classID: 4
    script: {fileID: 0}
  - curve:
      serializedVersion: 2
      m_Curve:
      - time: 0
        value: 0.98471576
        inSlope: -0.021990536
        outSlope: -0.021990536
        tangentMode: 0
      - time: 0.016666668
        value: 0.98434925
        inSlope: -0.02212107
        outSlope: -0.02212107
        tangentMode: 0
      - time: 0.033333335
        value: 0.9839784
        inSlope: -0.022380348
        outSlope: -0.022380348
        tangentMode: 0
      - time: 0.050000004
        value: 0.98360324
        inSlope: -0.022639632
        outSlope: -0.022639632
        tangentMode: 0
      - time: 0.06666667
        value: 0.98322374
        inSlope: -0.022897126
        outSlope: -0.022897126
        tangentMode: 0
      - time: 0.083333336
        value: 0.98284
        inSlope: -0.023154618
        outSlope: -0.023154618
        tangentMode: 0
      - time: 0.1
        value: 0.9824519
        inSlope: -0.023413898
        outSlope: -0.023413898
        tangentMode: 0
      - time: 0.11666667
        value: 0.98205954
        inSlope: -0.023671385
        outSlope: -0.023671385
        tangentMode: 0
      - time: 0.13333334
        value: 0.98166287
        inSlope: -0.023928877
        outSlope: -0.023928877
        tangentMode: 0
      - time: 0.15
        value: 0.9812619
        inSlope: -0.024186375
        outSlope: -0.024186375
        tangentMode: 0
      - time: 0.16666667
        value: 0.98085666
        inSlope: -0.024443867
        outSlope: -0.024443867
        tangentMode: 0
      - time: 0.18333334
        value: 0.9804471
        inSlope: -0.024701359
        outSlope: -0.024701359
        tangentMode: 0
      - time: 0.2
        value: 0.9800333
        inSlope: -0.024960639
        outSlope: -0.024960639
        tangentMode: 0
      - time: 0.21666667
        value: 0.9796151
        inSlope: -0.025218131
        outSlope: -0.025218131
        tangentMode: 0
      - time: 0.23333333
        value: 0.9791927
        inSlope: -0.025473835
        outSlope: -0.025473835
        tangentMode: 0
      - time: 0.25
        value: 0.97876596
        inSlope: -0.025729526
        outSlope: -0.025729526
        tangentMode: 0
      - time: 0.26666668
        value: 0.978335
        inSlope: -0.025987007
        outSlope: -0.025987007
        tangentMode: 0
      - time: 0.28333336
        value: 0.97789973
        inSlope: -0.026246287
        outSlope: -0.026246287
        tangentMode: 0
      - time: 0.30000004
        value: 0.97746015
        inSlope: -0.02650199
        outSlope: -0.02650199
        tangentMode: 0
      - time: 0.31666672
        value: 0.9770163
        inSlope: -0.026757695
        outSlope: -0.026757695
        tangentMode: 0
      - time: 0.3333334
        value: 0.9765682
        inSlope: -0.027015187
        outSlope: -0.027015187
        tangentMode: 0
      - time: 0.35000008
        value: 0.9761158
        inSlope: -0.02727089
        outSlope: -0.02727089
        tangentMode: 0
      - time: 0.36666676
        value: 0.9756592
        inSlope: -0.027526595
        outSlope: -0.027526595
        tangentMode: 0
      - time: 0.38333344
        value: 0.97519827
        inSlope: -0.027784087
        outSlope: -0.027784087
        tangentMode: 0
      - time: 0.40000013
        value: 0.97473305
        inSlope: -0.028039789
        outSlope: -0.028039789
        tangentMode: 0
      - time: 0.4166668
        value: 0.9742636
        inSlope: -0.028295493
        outSlope: -0.028295493
        tangentMode: 0
      - time: 0.4333335
        value: 0.9737899
        inSlope: -0.028552985
        outSlope: -0.028552985
        tangentMode: 0
      - time: 0.45000017
        value: 0.97331184
        inSlope: -0.0288069
        outSlope: -0.0288069
        tangentMode: 0
      - time: 0.46666685
        value: 0.97282964
        inSlope: -0.029062605
        outSlope: -0.029062605
        tangentMode: 0
      - time: 0.48333353
        value: 0.9723431
        inSlope: -0.029318493
        outSlope: -0.029318493
        tangentMode: 0
      - time: 0.5
        value: 0.97185236
        inSlope: -0.029443847
        outSlope: -0.029443847
        tangentMode: 0
      m_PreInfinity: 2
      m_PostInfinity: 2
      m_RotationOrder: 4
    attribute: m_LocalRotation.w
    path: body/armR
    classID: 4
    script: {fileID: 0}
  - curve:
      serializedVersion: 2
      m_Curve:
      - time: 0
        value: 0
        inSlope: 0
        outSlope: 0
        tangentMode: 0
      - time: 0.016666668
        value: 0
        inSlope: 0
        outSlope: 0
        tangentMode: 0
      - time: 0.033333335
        value: 0
        inSlope: 0
        outSlope: 0
        tangentMode: 0
      - time: 0.050000004
        value: 0
        inSlope: 0
        outSlope: 0
        tangentMode: 0
      - time: 0.06666667
        value: 0
        inSlope: 0
        outSlope: 0
        tangentMode: 0
      - time: 0.083333336
        value: 0
        inSlope: 0
        outSlope: 0
        tangentMode: 0
      - time: 0.1
        value: 0
        inSlope: 0
        outSlope: 0
        tangentMode: 0
      - time: 0.11666667
        value: 0
        inSlope: 0
        outSlope: 0
        tangentMode: 0
      - time: 0.13333334
        value: 0
        inSlope: 0
        outSlope: 0
        tangentMode: 0
      - time: 0.15
        value: 0
        inSlope: 0
        outSlope: 0
        tangentMode: 0
      - time: 0.16666667
        value: 0
        inSlope: 0
        outSlope: 0
        tangentMode: 0
      - time: 0.18333334
        value: 0
        inSlope: 0
        outSlope: 0
        tangentMode: 0
      - time: 0.2
        value: 0
        inSlope: 0
        outSlope: 0
        tangentMode: 0
      - time: 0.21666667
        value: 0
        inSlope: 0
        outSlope: 0
        tangentMode: 0
      - time: 0.23333333
        value: 0
        inSlope: 0
        outSlope: 0
        tangentMode: 0
      - time: 0.25
        value: 0
        inSlope: 0
        outSlope: 0
        tangentMode: 0
      - time: 0.26666668
        value: 0
        inSlope: 0
        outSlope: 0
        tangentMode: 0
      - time: 0.28333336
        value: 0
        inSlope: 0
        outSlope: 0
        tangentMode: 0
      - time: 0.30000004
        value: 0
        inSlope: 0
        outSlope: 0
        tangentMode: 0
      - time: 0.31666672
        value: 0
        inSlope: 0
        outSlope: 0
        tangentMode: 0
      - time: 0.3333334
        value: 0
        inSlope: 0
        outSlope: 0
        tangentMode: 0
      - time: 0.35000008
        value: 0
        inSlope: 0
        outSlope: 0
        tangentMode: 0
      - time: 0.36666676
        value: 0
        inSlope: 0
        outSlope: 0
        tangentMode: 0
      - time: 0.38333344
        value: 0
        inSlope: 0
        outSlope: 0
        tangentMode: 0
      - time: 0.40000013
        value: 0
        inSlope: 0
        outSlope: 0
        tangentMode: 0
      - time: 0.4166668
        value: 0
        inSlope: 0
        outSlope: 0
        tangentMode: 0
      - time: 0.4333335
        value: 0
        inSlope: 0
        outSlope: 0
        tangentMode: 0
      - time: 0.45000017
        value: 0
        inSlope: 0
        outSlope: 0
        tangentMode: 0
      - time: 0.46666685
        value: 0
        inSlope: 0
        outSlope: 0
        tangentMode: 0
      - time: 0.48333353
        value: 0
        inSlope: 0
        outSlope: 0
        tangentMode: 0
      - time: 0.5
        value: 0
        inSlope: 0
        outSlope: 0
        tangentMode: 0
      m_PreInfinity: 2
      m_PostInfinity: 2
      m_RotationOrder: 4
    attribute: m_LocalRotation.x
    path: body/glasses
    classID: 4
    script: {fileID: 0}
  - curve:
      serializedVersion: 2
      m_Curve:
      - time: 0
        value: 0
        inSlope: 0
        outSlope: 0
        tangentMode: 0
      - time: 0.016666668
        value: 0
        inSlope: 0
        outSlope: 0
        tangentMode: 0
      - time: 0.033333335
        value: 0
        inSlope: 0
        outSlope: 0
        tangentMode: 0
      - time: 0.050000004
        value: 0
        inSlope: 0
        outSlope: 0
        tangentMode: 0
      - time: 0.06666667
        value: 0
        inSlope: 0
        outSlope: 0
        tangentMode: 0
      - time: 0.083333336
        value: 0
        inSlope: 0
        outSlope: 0
        tangentMode: 0
      - time: 0.1
        value: 0
        inSlope: 0
        outSlope: 0
        tangentMode: 0
      - time: 0.11666667
        value: 0
        inSlope: 0
        outSlope: 0
        tangentMode: 0
      - time: 0.13333334
        value: 0
        inSlope: 0
        outSlope: 0
        tangentMode: 0
      - time: 0.15
        value: 0
        inSlope: 0
        outSlope: 0
        tangentMode: 0
      - time: 0.16666667
        value: 0
        inSlope: 0
        outSlope: 0
        tangentMode: 0
      - time: 0.18333334
        value: 0
        inSlope: 0
        outSlope: 0
        tangentMode: 0
      - time: 0.2
        value: 0
        inSlope: 0
        outSlope: 0
        tangentMode: 0
      - time: 0.21666667
        value: 0
        inSlope: 0
        outSlope: 0
        tangentMode: 0
      - time: 0.23333333
        value: 0
        inSlope: 0
        outSlope: 0
        tangentMode: 0
      - time: 0.25
        value: 0
        inSlope: 0
        outSlope: 0
        tangentMode: 0
      - time: 0.26666668
        value: 0
        inSlope: 0
        outSlope: 0
        tangentMode: 0
      - time: 0.28333336
        value: 0
        inSlope: 0
        outSlope: 0
        tangentMode: 0
      - time: 0.30000004
        value: 0
        inSlope: 0
        outSlope: 0
        tangentMode: 0
      - time: 0.31666672
        value: 0
        inSlope: 0
        outSlope: 0
        tangentMode: 0
      - time: 0.3333334
        value: 0
        inSlope: 0
        outSlope: 0
        tangentMode: 0
      - time: 0.35000008
        value: 0
        inSlope: 0
        outSlope: 0
        tangentMode: 0
      - time: 0.36666676
        value: 0
        inSlope: 0
        outSlope: 0
        tangentMode: 0
      - time: 0.38333344
        value: 0
        inSlope: 0
        outSlope: 0
        tangentMode: 0
      - time: 0.40000013
        value: 0
        inSlope: 0
        outSlope: 0
        tangentMode: 0
      - time: 0.4166668
        value: 0
        inSlope: 0
        outSlope: 0
        tangentMode: 0
      - time: 0.4333335
        value: 0
        inSlope: 0
        outSlope: 0
        tangentMode: 0
      - time: 0.45000017
        value: 0
        inSlope: 0
        outSlope: 0
        tangentMode: 0
      - time: 0.46666685
        value: 0
        inSlope: 0
        outSlope: 0
        tangentMode: 0
      - time: 0.48333353
        value: 0
        inSlope: 0
        outSlope: 0
        tangentMode: 0
      - time: 0.5
        value: 0
        inSlope: 0
        outSlope: 0
        tangentMode: 0
      m_PreInfinity: 2
      m_PostInfinity: 2
      m_RotationOrder: 4
    attribute: m_LocalRotation.y
    path: body/glasses
    classID: 4
    script: {fileID: 0}
  - curve:
      serializedVersion: 2
      m_Curve:
      - time: 0
        value: 0.09946002
        inSlope: -0.18577291
        outSlope: -0.18577291
        tangentMode: 0
      - time: 0.016666668
        value: 0.096363805
        inSlope: -0.18580107
        outSlope: -0.18580107
        tangentMode: 0
      - time: 0.033333335
        value: 0.09326665
        inSlope: -0.18585604
        outSlope: -0.18585604
        tangentMode: 0
      - time: 0.050000004
        value: 0.0901686
        inSlope: -0.18590903
        outSlope: -0.18590903
        tangentMode: 0
      - time: 0.06666667
        value: 0.08706968
        inSlope: -0.18596092
        outSlope: -0.18596092
        tangentMode: 0
      - time: 0.083333336
        value: 0.083969906
        inSlope: -0.18601076
        outSlope: -0.18601076
        tangentMode: 0
      - time: 0.1
        value: 0.080869325
        inSlope: -0.18605815
        outSlope: -0.18605815
        tangentMode: 0
      - time: 0.11666667
        value: 0.07776797
        inSlope: -0.18610437
        outSlope: -0.18610437
        tangentMode: 0
      - time: 0.13333334
        value: 0.074665844
        inSlope: -0.18614863
        outSlope: -0.18614863
        tangentMode: 0
      - time: 0.15
        value: 0.07156301
        inSlope: -0.18619092
        outSlope: -0.18619092
        tangentMode: 0
      - time: 0.16666667
        value: 0.06845948
        inSlope: -0.18623205
        outSlope: -0.18623205
        tangentMode: 0
      - time: 0.18333334
        value: 0.06535528
        inSlope: -0.18627071
        outSlope: -0.18627071
        tangentMode: 0
      - time: 0.2
        value: 0.062250458
        inSlope: -0.1863076
        outSlope: -0.1863076
        tangentMode: 0
      - time: 0.21666667
        value: 0.059145026
        inSlope: -0.18634301
        outSlope: -0.18634301
        tangentMode: 0
      - time: 0.23333333
        value: 0.056039024
        inSlope: -0.18637644
        outSlope: -0.18637644
        tangentMode: 0
      - time: 0.25
        value: 0.05293248
        inSlope: -0.1864081
        outSlope: -0.1864081
        tangentMode: 0
      - time: 0.26666668
        value: 0.04982542
        inSlope: -0.18643774
        outSlope: -0.18643774
        tangentMode: 0
      - time: 0.28333336
        value: 0.046717882
        inSlope: -0.1864659
        outSlope: -0.1864659
        tangentMode: 0
      - time: 0.30000004
        value: 0.043609884
        inSlope: -0.18649228
        outSlope: -0.18649228
        tangentMode: 0
      - time: 0.31666672
        value: 0.040501468
        inSlope: -0.18651664
        outSlope: -0.18651664
        tangentMode: 0
      - time: 0.3333334
        value: 0.037392657
        inSlope: -0.18653911
        outSlope: -0.18653911
        tangentMode: 0
      - time: 0.35000008
        value: 0.034283493
        inSlope: -0.18655989
        outSlope: -0.18655989
        tangentMode: 0
      - time: 0.36666676
        value: 0.03117399
        inSlope: -0.18657894
        outSlope: -0.18657894
        tangentMode: 0
      - time: 0.38333344
        value: 0.02806419
        inSlope: -0.18659621
        outSlope: -0.18659621
        tangentMode: 0
      - time: 0.40000013
        value: 0.02495411
        inSlope: -0.1866118
        outSlope: -0.1866118
        tangentMode: 0
      - time: 0.4166668
        value: 0.021843791
        inSlope: -0.18662527
        outSlope: -0.18662527
        tangentMode: 0
      - time: 0.4333335
        value: 0.018733263
        inSlope: -0.18663678
        outSlope: -0.18663678
        tangentMode: 0
      - time: 0.45000017
        value: 0.01562256
        inSlope: -0.18664686
        outSlope: -0.18664686
        tangentMode: 0
      - time: 0.46666685
        value: 0.012511696
        inSlope: -0.18665527
        outSlope: -0.18665527
        tangentMode: 0
      - time: 0.48333353
        value: 0.009400712
        inSlope: -0.18666148
        outSlope: -0.18666148
        tangentMode: 0
      - time: 0.5
        value: 0.00628968
        inSlope: -0.18666412
        outSlope: -0.18666412
        tangentMode: 0
      m_PreInfinity: 2
      m_PostInfinity: 2
      m_RotationOrder: 4
    attribute: m_LocalRotation.z
    path: body/glasses
    classID: 4
    script: {fileID: 0}
  - curve:
      serializedVersion: 2
      m_Curve:
      - time: 0
        value: 0.99504155
        inSlope: 0.018278359
        outSlope: 0.018278359
        tangentMode: 0
      - time: 0.016666668
        value: 0.9953462
        inSlope: 0.017988682
        outSlope: 0.017988682
        tangentMode: 0
      - time: 0.033333335
        value: 0.9956412
        inSlope: 0.017409323
        outSlope: 0.017409323
        tangentMode: 0
      - time: 0.050000004
        value: 0.9959265
        inSlope: 0.016831756
        outSlope: 0.016831756
        tangentMode: 0
      - time: 0.06666667
        value: 0.99620223
        inSlope: 0.016254188
        outSlope: 0.016254188
        tangentMode: 0
      - time: 0.083333336
        value: 0.9964683
        inSlope: 0.015674831
        outSlope: 0.015674831
        tangentMode: 0
      - time: 0.1
        value: 0.9967247
        inSlope: 0.015095473
        outSlope: 0.015095473
        tangentMode: 0
      - time: 0.11666667
        value: 0.9969715
        inSlope: 0.014516113
        outSlope: 0.014516113
        tangentMode: 0
      - time: 0.13333334
        value: 0.9972086
        inSlope: 0.013938544
        outSlope: 0.013938544
        tangentMode: 0
      - time: 0.15
        value: 0.9974361
        inSlope: 0.01335919
        outSlope: 0.01335919
        tangentMode: 0
      - time: 0.16666667
        value: 0.9976539
        inSlope: 0.012778045
        outSlope: 0.012778045
        tangentMode: 0
      - time: 0.18333334
        value: 0.99786204
        inSlope: 0.012200476
        outSlope: 0.012200476
        tangentMode: 0
      - time: 0.2
        value: 0.9980606
        inSlope: 0.0116211185
        outSlope: 0.0116211185
        tangentMode: 0
      - time: 0.21666667
        value: 0.9982494
        inSlope: 0.011039973
        outSlope: 0.011039973
        tangentMode: 0
      - time: 0.23333333
        value: 0.9984286
        inSlope: 0.010460616
        outSlope: 0.010460616
        tangentMode: 0
      - time: 0.25
        value: 0.9985981
        inSlope: 0.009881254
        outSlope: 0.009881254
        tangentMode: 0
      - time: 0.26666668
        value: 0.99875796
        inSlope: 0.009300105
        outSlope: 0.009300105
        tangentMode: 0
      - time: 0.28333336
        value: 0.9989081
        inSlope: 0.008720748
        outSlope: 0.008720748
        tangentMode: 0
      - time: 0.30000004
        value: 0.99904865
        inSlope: 0.008141391
        outSlope: 0.008141391
        tangentMode: 0
      - time: 0.31666672
        value: 0.9991795
        inSlope: 0.0075602466
        outSlope: 0.0075602466
        tangentMode: 0
      - time: 0.3333334
        value: 0.99930066
        inSlope: 0.0069791023
        outSlope: 0.0069791023
        tangentMode: 0
      - time: 0.35000008
        value: 0.9994121
        inSlope: 0.006399745
        outSlope: 0.006399745
        tangentMode: 0
      - time: 0.36666676
        value: 0.999514
        inSlope: 0.005820389
        outSlope: 0.005820389
        tangentMode: 0
      - time: 0.38333344
        value: 0.99960613
        inSlope: 0.0052392436
        outSlope: 0.0052392436
        tangentMode: 0
      - time: 0.40000013
        value: 0.9996886
        inSlope: 0.0046580993
        outSlope: 0.0046580993
        tangentMode: 0
      - time: 0.4166668
        value: 0.9997614
        inSlope: 0.004076954
        outSlope: 0.004076954
        tangentMode: 0
      - time: 0.4333335
        value: 0.9998245
        inSlope: 0.0034975978
        outSlope: 0.0034975978
        tangentMode: 0
      - time: 0.45000017
        value: 0.999878
        inSlope: 0.002916453
        outSlope: 0.002916453
        tangentMode: 0
      - time: 0.46666685
        value: 0.99992174
        inSlope: 0.0023353081
        outSlope: 0.0023353081
        tangentMode: 0
      - time: 0.48333353
        value: 0.99995583
        inSlope: 0.0017541724
        outSlope: 0.0017541724
        tangentMode: 0
      - time: 0.5
        value: 0.9999802
        inSlope: 0.0014627151
        outSlope: 0.0014627151
        tangentMode: 0
      m_PreInfinity: 2
      m_PostInfinity: 2
      m_RotationOrder: 4
    attribute: m_LocalRotation.w
    path: body/glasses
    classID: 4
    script: {fileID: 0}
  m_EulerEditorCurves:
  - curve:
      serializedVersion: 2
      m_Curve:
      - time: 0
        value: 0
        inSlope: 0
        outSlope: 0
        tangentMode: 10
      - time: 0.5
        value: 0
        inSlope: 0
        outSlope: 0
        tangentMode: 10
      m_PreInfinity: 2
      m_PostInfinity: 2
      m_RotationOrder: 4
    attribute: localEulerAnglesBaked.x
    path: body/glasses
    classID: 4
    script: {fileID: 0}
  - curve:
      serializedVersion: 2
      m_Curve:
      - time: 0
        value: 0
        inSlope: 0
        outSlope: 0
        tangentMode: 10
      - time: 0.5
        value: 0
        inSlope: 0
        outSlope: 0
        tangentMode: 10
      m_PreInfinity: 2
      m_PostInfinity: 2
      m_RotationOrder: 4
    attribute: localEulerAnglesBaked.y
    path: body/glasses
    classID: 4
    script: {fileID: 0}
  - curve:
      serializedVersion: 2
      m_Curve:
      - time: 0
        value: 11.416153
        inSlope: -21.390808
        outSlope: -21.390808
        tangentMode: 10
      - time: 0.5
        value: 0.7207489
        inSlope: -21.390808
        outSlope: -21.390808
        tangentMode: 10
      m_PreInfinity: 2
      m_PostInfinity: 2
      m_RotationOrder: 4
    attribute: localEulerAnglesBaked.z
    path: body/glasses
    classID: 4
    script: {fileID: 0}
  - curve:
      serializedVersion: 2
      m_Curve:
      - time: 0
        value: 0
        inSlope: 0
        outSlope: 0
        tangentMode: 10
      - time: 0.5
        value: 0
        inSlope: 0
        outSlope: 0
        tangentMode: 10
      m_PreInfinity: 2
      m_PostInfinity: 2
      m_RotationOrder: 4
    attribute: localEulerAnglesBaked.x
    path: body/armR
    classID: 4
    script: {fileID: 0}
  - curve:
      serializedVersion: 2
      m_Curve:
      - time: 0
        value: 0
        inSlope: 0
        outSlope: 0
        tangentMode: 10
      - time: 0.5
        value: 0
        inSlope: 0
        outSlope: 0
        tangentMode: 10
      m_PreInfinity: 2
      m_PostInfinity: 2
      m_RotationOrder: 4
    attribute: localEulerAnglesBaked.y
    path: body/armR
    classID: 4
    script: {fileID: 0}
  - curve:
      serializedVersion: 2
      m_Curve:
      - time: 0
        value: 20.060608
        inSlope: 14.3845825
        outSlope: 14.3845825
        tangentMode: 10
      - time: 0.5
        value: 27.2529
        inSlope: 14.3845825
        outSlope: 14.3845825
        tangentMode: 10
      m_PreInfinity: 2
      m_PostInfinity: 2
      m_RotationOrder: 4
    attribute: localEulerAnglesBaked.z
    path: body/armR
    classID: 4
    script: {fileID: 0}
  - curve:
      serializedVersion: 2
      m_Curve:
      - time: 0
        value: 0
        inSlope: 0
        outSlope: 0
        tangentMode: 10
      - time: 0.5
        value: 0
        inSlope: 0
        outSlope: 0
        tangentMode: 10
      m_PreInfinity: 2
      m_PostInfinity: 2
      m_RotationOrder: 4
    attribute: localEulerAnglesBaked.x
    path: body/armL
    classID: 4
    script: {fileID: 0}
  - curve:
      serializedVersion: 2
      m_Curve:
      - time: 0
        value: 0
        inSlope: 0
        outSlope: 0
        tangentMode: 10
      - time: 0.5
        value: 0
        inSlope: 0
        outSlope: 0
        tangentMode: 10
      m_PreInfinity: 2
      m_PostInfinity: 2
      m_RotationOrder: 4
    attribute: localEulerAnglesBaked.y
    path: body/armL
    classID: 4
    script: {fileID: 0}
  - curve:
      serializedVersion: 2
      m_Curve:
      - time: 0
        value: -0.32861328
        inSlope: -19.669556
        outSlope: -19.669556
        tangentMode: 10
      - time: 0.5
        value: -10.163391
        inSlope: -19.669556
        outSlope: -19.669556
        tangentMode: 10
      m_PreInfinity: 2
      m_PostInfinity: 2
      m_RotationOrder: 4
    attribute: localEulerAnglesBaked.z
    path: body/armL
    classID: 4
    script: {fileID: 0}
  m_HasGenericRootTransform: 0
  m_HasMotionFloatCurves: 0
  m_GenerateMotionCurves: 0
  m_Events:
  - time: 1
    functionName: OnAnimationEvent
    data: Hide
    objectReferenceParameter: {fileID: 0}
    floatParameter: 0
    intParameter: 1
    messageOptions: 0
  - time: 2.6
    functionName: OnAnimationEvent
    data: Drop
    objectReferenceParameter: {fileID: 0}
    floatParameter: 0
    intParameter: 0
    messageOptions: 0
