%YAML 1.1
%TAG !u! tag:unity3d.com,2011:
--- !u!74 &7400000
AnimationClip:
  m_ObjectHideFlags: 0
  m_PrefabParentObject: {fileID: 0}
  m_PrefabInternal: {fileID: 0}
  m_Name: girl cold
  serializedVersion: 6
  m_Legacy: 0
  m_Compressed: 0
  m_UseHighQualityCurve: 1
  m_RotationCurves:
  - curve:
      serializedVersion: 2
      m_Curve:
      - time: 0
        value: {x: 0, y: 0, z: .0994600207, w: .995041549}
        inSlope: {x: 0, y: 0, z: 0, w: 0}
        outSlope: {x: 0, y: 0, z: 0, w: 0}
        tangentMode: 0
      - time: .0166666675
        value: {x: 0, y: 0, z: .0994600207, w: .995041549}
        inSlope: {x: 0, y: 0, z: 0, w: 0}
        outSlope: {x: 0, y: 0, z: 0, w: 0}
        tangentMode: 0
      - time: .0333333351
        value: {x: 0, y: 0, z: .0994600207, w: .995041549}
        inSlope: {x: 0, y: 0, z: 0, w: 0}
        outSlope: {x: 0, y: 0, z: 0, w: 0}
        tangentMode: 0
      - time: .0500000045
        value: {x: 0, y: 0, z: .0994600207, w: .995041549}
        inSlope: {x: 0, y: 0, z: 0, w: 0}
        outSlope: {x: 0, y: 0, z: 0, w: 0}
        tangentMode: 0
      - time: .0666666701
        value: {x: 0, y: 0, z: .0994600207, w: .995041549}
        inSlope: {x: 0, y: 0, z: -.641839683, w: .0572007932}
        outSlope: {x: 0, y: 0, z: -.641839683, w: .0572007932}
        tangentMode: 0
      - time: .0833333358
        value: {x: 0, y: 0, z: .0780653656, w: .996948242}
        inSlope: {x: 0, y: 0, z: -.641839683, w: .0572007932}
        outSlope: {x: 0, y: 0, z: -.641839683, w: .0572007932}
        tangentMode: 0
      - time: .100000001
        value: {x: 0, y: 0, z: .0780653656, w: .996948242}
        inSlope: {x: 0, y: 0, z: 0, w: 0}
        outSlope: {x: 0, y: 0, z: 0, w: 0}
        tangentMode: 0
      - time: .116666667
        value: {x: 0, y: 0, z: .0780653656, w: .996948242}
        inSlope: {x: 0, y: 0, z: 0, w: 0}
        outSlope: {x: 0, y: 0, z: 0, w: 0}
        tangentMode: 0
      - time: .13333334
        value: {x: 0, y: 0, z: .0780653656, w: .996948242}
        inSlope: {x: 0, y: 0, z: 0, w: 0}
        outSlope: {x: 0, y: 0, z: 0, w: 0}
        tangentMode: 0
      - time: .150000006
        value: {x: 0, y: 0, z: .0780653656, w: .996948242}
        inSlope: {x: 0, y: 0, z: -1.38234007, w: .0762015656}
        outSlope: {x: 0, y: 0, z: -1.38234007, w: .0762015656}
        tangentMode: 0
      - time: .166666672
        value: {x: 0, y: 0, z: .0319873653, w: .999488294}
        inSlope: {x: 0, y: 0, z: -1.38234007, w: .0762015656}
        outSlope: {x: 0, y: 0, z: -1.38234007, w: .0762015656}
        tangentMode: 0
      - time: .183333337
        value: {x: 0, y: 0, z: .0319873653, w: .999488294}
        inSlope: {x: 0, y: 0, z: 0, w: 0}
        outSlope: {x: 0, y: 0, z: 0, w: 0}
        tangentMode: 0
      - time: .200000003
        value: {x: 0, y: 0, z: .0319873653, w: .999488294}
        inSlope: {x: 0, y: 0, z: 0, w: 0}
        outSlope: {x: 0, y: 0, z: 0, w: 0}
        tangentMode: 0
      - time: .216666669
        value: {x: 0, y: 0, z: .0319873653, w: .999488294}
        inSlope: {x: 0, y: 0, z: 0, w: 0}
        outSlope: {x: 0, y: 0, z: 0, w: 0}
        tangentMode: 0
      - time: .233333334
        value: {x: 0, y: 0, z: .0319873653, w: .999488294}
        inSlope: {x: 0, y: 0, z: 2.0241797, w: -.133402362}
        outSlope: {x: 0, y: 0, z: 2.0241797, w: -.133402362}
        tangentMode: 0
      - time: .25
        value: {x: 0, y: 0, z: .0994600207, w: .995041549}
        inSlope: {x: 0, y: 0, z: 4.04835939, w: -.266804725}
        outSlope: {x: 0, y: 0, z: 4.04835939, w: -.266804725}
        tangentMode: 0
      m_PreInfinity: 2
      m_PostInfinity: 2
    path: body/glasses
  m_CompressedRotationCurves: []
  m_PositionCurves:
  - curve:
      serializedVersion: 2
      m_Curve:
      - time: 0
        value: {x: -.272999763, y: 3.08699989, z: 0}
        inSlope: {x: .875997126, y: .516002655, z: 0}
        outSlope: {x: Infinity, y: Infinity, z: Infinity}
        tangentMode: 0
      - time: .0833333358
        value: {x: -.200000003, y: 2.96000004, z: 0}
        inSlope: {x: .6179986, y: -1.6619997, z: 0}
        outSlope: {x: Infinity, y: Infinity, z: Infinity}
        tangentMode: 0
      - time: .166666672
        value: {x: -.170000002, y: 3.20000005, z: 0}
        inSlope: {x: -.437998593, y: -.258001208, z: 0}
        outSlope: {x: Infinity, y: Infinity, z: Infinity}
        tangentMode: 0
      - time: .25
        value: {x: -.272999763, y: 3.08699989, z: 0}
        inSlope: {x: -1.2359972, y: -1.35600197, z: 0}
        outSlope: {x: -1.2359972, y: -1.35600197, z: 0}
        tangentMode: 0
      m_PreInfinity: 2
      m_PostInfinity: 2
    path: body/glasses
  - curve:
      serializedVersion: 2
      m_Curve:
      - time: 0
        value: {x: 2.6420002, y: 2.27999973, z: 0}
        inSlope: {x: -.390002102, y: 0, z: 0}
        outSlope: {x: -.390002102, y: 0, z: 0}
        tangentMode: 0
      - time: .13333334
        value: {x: 2.58999991, y: 2.27999973, z: 0}
        inSlope: {x: .0278573185, y: 0, z: 0}
        outSlope: {x: .0278573185, y: 0, z: 0}
        tangentMode: 0
      - time: .25
        value: {x: 2.6420002, y: 2.27999973, z: 0}
        inSlope: {x: .445716739, y: 0, z: 0}
        outSlope: {x: .445716739, y: 0, z: 0}
        tangentMode: 0
      m_PreInfinity: 2
      m_PostInfinity: 2
    path: body/armR
  - curve:
      serializedVersion: 2
      m_Curve:
      - time: 0
        value: {x: -2.66199994, y: 1.87299967, z: 0}
        inSlope: {x: .465000242, y: 0, z: 0}
        outSlope: {x: .465000242, y: 0, z: 0}
        tangentMode: 0
      - time: .13333334
        value: {x: -2.5999999, y: 1.87299967, z: 0}
        inSlope: {x: -.0332143456, y: 0, z: 0}
        outSlope: {x: -.0332143456, y: 0, z: 0}
        tangentMode: 0
      - time: .25
        value: {x: -2.66199994, y: 1.87299967, z: 0}
        inSlope: {x: -.531428933, y: 0, z: 0}
        outSlope: {x: -.531428933, y: 0, z: 0}
        tangentMode: 0
      m_PreInfinity: 2
      m_PostInfinity: 2
    path: body/armL
  - curve:
      serializedVersion: 2
      m_Curve:
      - time: 0
        value: {x: -1.85099983, y: 2.78399992, z: 0}
        inSlope: {x: .395998478, y: -.22799778, z: 0}
        outSlope: {x: Infinity, y: Infinity, z: Infinity}
        tangentMode: 0
      - time: .0833333358
        value: {x: -1.81799996, y: 2.7650001, z: 0}
        inSlope: {x: .311998844, y: .288000584, z: 0}
        outSlope: {x: Infinity, y: Infinity, z: Infinity}
        tangentMode: 0
      - time: .166666672
        value: {x: -1.79900002, y: 2.83200002, z: 0}
        inSlope: {x: -.197999269, y: .11399886, z: 0}
        outSlope: {x: Infinity, y: Infinity, z: Infinity}
        tangentMode: 0
      - time: .25
        value: {x: -1.85099983, y: 2.78399992, z: 0}
        inSlope: {x: -.623997748, y: -.576001227, z: 0}
        outSlope: {x: -.623997748, y: -.576001227, z: 0}
        tangentMode: 0
      m_PreInfinity: 2
      m_PostInfinity: 2
    path: body/eyeL
  - curve:
      serializedVersion: 2
      m_Curve:
      - time: 0
        value: {x: 1.62000036, y: 2.60399961, z: 0}
        inSlope: {x: -.516004086, y: -.515994072, z: 0}
        outSlope: {x: Infinity, y: Infinity, z: Infinity}
        tangentMode: 0
      - time: .0833333358
        value: {x: 1.57700002, y: 2.56100011, z: 0}
        inSlope: {x: -.282002449, y: .174001694, z: 0}
        outSlope: {x: Infinity, y: Infinity, z: Infinity}
        tangentMode: 0
      - time: .166666672
        value: {x: 1.57299995, y: 2.6329999, z: 0}
        inSlope: {x: .258002073, y: .257997036, z: 0}
        outSlope: {x: Infinity, y: Infinity, z: Infinity}
        tangentMode: 0
      - time: .25
        value: {x: 1.62000036, y: 2.60399961, z: 0}
        inSlope: {x: .564004958, y: -.348003417, z: 0}
        outSlope: {x: .564004958, y: -.348003417, z: 0}
        tangentMode: 0
      m_PreInfinity: 2
      m_PostInfinity: 2
    path: body/eyeR
  - curve:
      serializedVersion: 2
      m_Curve:
      - time: 0
        value: {x: 0, y: 0, z: 0}
        inSlope: {x: -.479999989, y: .719999969, z: 0}
        outSlope: {x: Infinity, y: Infinity, z: Infinity}
        tangentMode: 0
      - time: .0833333358
        value: {x: -.0199999996, y: .0199999996, z: 0}
        inSlope: {x: .300000012, y: .11999999, z: 0}
        outSlope: {x: Infinity, y: Infinity, z: Infinity}
        tangentMode: 0
      - time: .166666672
        value: {x: .0199999996, y: .00999999978, z: 0}
        inSlope: {x: .179999977, y: -.660000026, z: 0}
        outSlope: {x: Infinity, y: Infinity, z: Infinity}
        tangentMode: 0
      - time: .25
        value: {x: 0, y: 0, z: 0}
        inSlope: {x: -.479999989, y: .719999969, z: 0}
        outSlope: {x: Infinity, y: Infinity, z: Infinity}
        tangentMode: 0
      m_PreInfinity: 2
      m_PostInfinity: 2
    path: body
  m_ScaleCurves:
  - curve:
      serializedVersion: 2
      m_Curve:
      - time: 0
        value: {x: 1, y: 1, z: 1}
        inSlope: {x: .0299999714, y: -.0599999428, z: 0}
        outSlope: {x: .0299999714, y: -.0599999428, z: 0}
        tangentMode: 0
      - time: .166666672
        value: {x: 1.005, y: .99000001, z: 1}
        inSlope: {x: -.0149999876, y: .0299999751, z: 0}
        outSlope: {x: -.0149999876, y: .0299999751, z: 0}
        tangentMode: 0
      - time: .25
        value: {x: 1, y: 1, z: 1}
        inSlope: {x: -.0599999465, y: .119999893, z: 0}
        outSlope: {x: -.0599999465, y: .119999893, z: 0}
        tangentMode: 0
      m_PreInfinity: 2
      m_PostInfinity: 2
    path: body
  - curve:
      serializedVersion: 2
      m_Curve:
      - time: 0
        value: {x: 1, y: 1, z: 1}
        inSlope: {x: -.422052383, y: .437437534, z: 0}
        outSlope: {x: -.422052383, y: .437437534, z: 0}
        tangentMode: 0
      - time: .0833333358
        value: {x: .964828968, y: 1.03645313, z: 1}
        inSlope: {x: -.105513088, y: .109359376, z: 0}
        outSlope: {x: -.105513088, y: .109359376, z: 0}
        tangentMode: 0
      - time: .25
        value: {x: 1, y: 1, z: 1}
        inSlope: {x: .211026207, y: -.218718782, z: 0}
        outSlope: {x: .211026207, y: -.218718782, z: 0}
        tangentMode: 0
      m_PreInfinity: 2
      m_PostInfinity: 2
    path: body/leg
  m_FloatCurves: []
  m_PPtrCurves: []
  m_SampleRate: 60
  m_WrapMode: 0
  m_Bounds:
    m_Center: {x: 0, y: 0, z: 0}
    m_Extent: {x: 0, y: 0, z: 0}
  m_ClipBindingConstant:
    genericBindings:
    - path: 3003413200
      attribute: 1
      script: {fileID: 0}
      classID: 4
      customType: 0
      isPPtrCurve: 0
    - path: 214665947
      attribute: 1
      script: {fileID: 0}
      classID: 4
      customType: 0
      isPPtrCurve: 0
    - path: 4140087224
      attribute: 1
      script: {fileID: 0}
      classID: 4
      customType: 0
      isPPtrCurve: 0
    - path: 3173664006
      attribute: 1
      script: {fileID: 0}
      classID: 4
      customType: 0
      isPPtrCurve: 0
    - path: 1193637989
      attribute: 1
      script: {fileID: 0}
      classID: 4
      customType: 0
      isPPtrCurve: 0
    - path: 3685223346
      attribute: 1
      script: {fileID: 0}
      classID: 4
      customType: 0
      isPPtrCurve: 0
    - path: 3003413200
      attribute: 2
      script: {fileID: 0}
      classID: 4
      customType: 0
      isPPtrCurve: 0
    - path: 3685223346
      attribute: 3
      script: {fileID: 0}
      classID: 4
      customType: 0
      isPPtrCurve: 0
    - path: 2675273060
      attribute: 3
      script: {fileID: 0}
      classID: 4
      customType: 0
      isPPtrCurve: 0
    pptrCurveMapping: []
  m_AnimationClipSettings:
    serializedVersion: 2
    m_StartTime: 0
    m_StopTime: .25
    m_OrientationOffsetY: 0
    m_Level: 0
    m_CycleOffset: 0
    m_LoopTime: 1
    m_LoopBlend: 0
    m_LoopBlendOrientation: 0
    m_LoopBlendPositionY: 0
    m_LoopBlendPositionXZ: 0
    m_KeepOriginalOrientation: 0
    m_KeepOriginalPositionY: 1
    m_KeepOriginalPositionXZ: 0
    m_HeightFromFeet: 0
    m_Mirror: 0
  m_EditorCurves:
  - curve:
      serializedVersion: 2
      m_Curve:
      - time: 0
        value: -.272999763
        inSlope: .875997126
        outSlope: Infinity
        tangentMode: 25
      - time: .0833333358
        value: -.200000003
        inSlope: .6179986
        outSlope: Infinity
        tangentMode: 25
      - time: .166666672
        value: -.170000002
        inSlope: -.437998593
        outSlope: Infinity
        tangentMode: 25
      - time: .25
        value: -.272999763
        inSlope: -1.2359972
        outSlope: -1.2359972
        tangentMode: 10
      m_PreInfinity: 2
      m_PostInfinity: 2
    attribute: m_LocalPosition.x
    path: body/glasses
    classID: 4
    script: {fileID: 0}
  - curve:
      serializedVersion: 2
      m_Curve:
      - time: 0
        value: 3.08699989
        inSlope: .516002655
        outSlope: Infinity
        tangentMode: 25
      - time: .0833333358
        value: 2.96000004
        inSlope: -1.6619997
        outSlope: Infinity
        tangentMode: 25
      - time: .166666672
        value: 3.20000005
        inSlope: -.258001208
        outSlope: Infinity
        tangentMode: 25
      - time: .25
        value: 3.08699989
        inSlope: -1.35600197
        outSlope: -1.35600197
        tangentMode: 10
      m_PreInfinity: 2
      m_PostInfinity: 2
    attribute: m_LocalPosition.y
    path: body/glasses
    classID: 4
    script: {fileID: 0}
  - curve:
      serializedVersion: 2
      m_Curve:
      - time: 0
        value: 0
        inSlope: 0
        outSlope: Infinity
        tangentMode: 25
      - time: .0833333358
        value: 0
        inSlope: 0
        outSlope: Infinity
        tangentMode: 25
      - time: .166666672
        value: 0
        inSlope: 0
        outSlope: Infinity
        tangentMode: 25
      - time: .25
        value: 0
        inSlope: 0
        outSlope: 0
        tangentMode: 10
      m_PreInfinity: 2
      m_PostInfinity: 2
    attribute: m_LocalPosition.z
    path: body/glasses
    classID: 4
    script: {fileID: 0}
  - curve:
      serializedVersion: 2
      m_Curve:
      - time: 0
        value: 0
        inSlope: 0
        outSlope: 0
        tangentMode: 0
      - time: .0166666675
        value: 0
        inSlope: 0
        outSlope: 0
        tangentMode: 0
      - time: .0333333351
        value: 0
        inSlope: 0
        outSlope: 0
        tangentMode: 0
      - time: .0500000045
        value: 0
        inSlope: 0
        outSlope: 0
        tangentMode: 0
      - time: .0666666701
        value: 0
        inSlope: 0
        outSlope: 0
        tangentMode: 0
      - time: .0833333358
        value: 0
        inSlope: 0
        outSlope: 0
        tangentMode: 0
      - time: .100000001
        value: 0
        inSlope: 0
        outSlope: 0
        tangentMode: 0
      - time: .116666667
        value: 0
        inSlope: 0
        outSlope: 0
        tangentMode: 0
      - time: .13333334
        value: 0
        inSlope: 0
        outSlope: 0
        tangentMode: 0
      - time: .150000006
        value: 0
        inSlope: 0
        outSlope: 0
        tangentMode: 0
      - time: .166666672
        value: 0
        inSlope: 0
        outSlope: 0
        tangentMode: 0
      - time: .183333337
        value: 0
        inSlope: 0
        outSlope: 0
        tangentMode: 0
      - time: .200000003
        value: 0
        inSlope: 0
        outSlope: 0
        tangentMode: 0
      - time: .216666669
        value: 0
        inSlope: 0
        outSlope: 0
        tangentMode: 0
      - time: .233333334
        value: 0
        inSlope: 0
        outSlope: 0
        tangentMode: 0
      - time: .25
        value: 0
        inSlope: 0
        outSlope: 0
        tangentMode: 0
      m_PreInfinity: 2
      m_PostInfinity: 2
    attribute: m_LocalRotation.x
    path: body/glasses
    classID: 4
    script: {fileID: 0}
  - curve:
      serializedVersion: 2
      m_Curve:
      - time: 0
        value: 0
        inSlope: 0
        outSlope: 0
        tangentMode: 0
      - time: .0166666675
        value: 0
        inSlope: 0
        outSlope: 0
        tangentMode: 0
      - time: .0333333351
        value: 0
        inSlope: 0
        outSlope: 0
        tangentMode: 0
      - time: .0500000045
        value: 0
        inSlope: 0
        outSlope: 0
        tangentMode: 0
      - time: .0666666701
        value: 0
        inSlope: 0
        outSlope: 0
        tangentMode: 0
      - time: .0833333358
        value: 0
        inSlope: 0
        outSlope: 0
        tangentMode: 0
      - time: .100000001
        value: 0
        inSlope: 0
        outSlope: 0
        tangentMode: 0
      - time: .116666667
        value: 0
        inSlope: 0
        outSlope: 0
        tangentMode: 0
      - time: .13333334
        value: 0
        inSlope: 0
        outSlope: 0
        tangentMode: 0
      - time: .150000006
        value: 0
        inSlope: 0
        outSlope: 0
        tangentMode: 0
      - time: .166666672
        value: 0
        inSlope: 0
        outSlope: 0
        tangentMode: 0
      - time: .183333337
        value: 0
        inSlope: 0
        outSlope: 0
        tangentMode: 0
      - time: .200000003
        value: 0
        inSlope: 0
        outSlope: 0
        tangentMode: 0
      - time: .216666669
        value: 0
        inSlope: 0
        outSlope: 0
        tangentMode: 0
      - time: .233333334
        value: 0
        inSlope: 0
        outSlope: 0
        tangentMode: 0
      - time: .25
        value: 0
        inSlope: 0
        outSlope: 0
        tangentMode: 0
      m_PreInfinity: 2
      m_PostInfinity: 2
    attribute: m_LocalRotation.y
    path: body/glasses
    classID: 4
    script: {fileID: 0}
  - curve:
      serializedVersion: 2
      m_Curve:
      - time: 0
        value: .0994600207
        inSlope: 0
        outSlope: 0
        tangentMode: 0
      - time: .0166666675
        value: .0994600207
        inSlope: 0
        outSlope: 0
        tangentMode: 0
      - time: .0333333351
        value: .0994600207
        inSlope: 0
        outSlope: 0
        tangentMode: 0
      - time: .0500000045
        value: .0994600207
        inSlope: 0
        outSlope: 0
        tangentMode: 0
      - time: .0666666701
        value: .0994600207
        inSlope: -.641839683
        outSlope: -.641839683
        tangentMode: 0
      - time: .0833333358
        value: .0780653656
        inSlope: -.641839683
        outSlope: -.641839683
        tangentMode: 0
      - time: .100000001
        value: .0780653656
        inSlope: 0
        outSlope: 0
        tangentMode: 0
      - time: .116666667
        value: .0780653656
        inSlope: 0
        outSlope: 0
        tangentMode: 0
      - time: .13333334
        value: .0780653656
        inSlope: 0
        outSlope: 0
        tangentMode: 0
      - time: .150000006
        value: .0780653656
        inSlope: -1.38234007
        outSlope: -1.38234007
        tangentMode: 0
      - time: .166666672
        value: .0319873653
        inSlope: -1.38234007
        outSlope: -1.38234007
        tangentMode: 0
      - time: .183333337
        value: .0319873653
        inSlope: 0
        outSlope: 0
        tangentMode: 0
      - time: .200000003
        value: .0319873653
        inSlope: 0
        outSlope: 0
        tangentMode: 0
      - time: .216666669
        value: .0319873653
        inSlope: 0
        outSlope: 0
        tangentMode: 0
      - time: .233333334
        value: .0319873653
        inSlope: 2.0241797
        outSlope: 2.0241797
        tangentMode: 0
      - time: .25
        value: .0994600207
        inSlope: 4.04835939
        outSlope: 4.04835939
        tangentMode: 0
      m_PreInfinity: 2
      m_PostInfinity: 2
    attribute: m_LocalRotation.z
    path: body/glasses
    classID: 4
    script: {fileID: 0}
  - curve:
      serializedVersion: 2
      m_Curve:
      - time: 0
        value: .995041549
        inSlope: 0
        outSlope: 0
        tangentMode: 0
      - time: .0166666675
        value: .995041549
        inSlope: 0
        outSlope: 0
        tangentMode: 0
      - time: .0333333351
        value: .995041549
        inSlope: 0
        outSlope: 0
        tangentMode: 0
      - time: .0500000045
        value: .995041549
        inSlope: 0
        outSlope: 0
        tangentMode: 0
      - time: .0666666701
        value: .995041549
        inSlope: .0572007932
        outSlope: .0572007932
        tangentMode: 0
      - time: .0833333358
        value: .996948242
        inSlope: .0572007932
        outSlope: .0572007932
        tangentMode: 0
      - time: .100000001
        value: .996948242
        inSlope: 0
        outSlope: 0
        tangentMode: 0
      - time: .116666667
        value: .996948242
        inSlope: 0
        outSlope: 0
        tangentMode: 0
      - time: .13333334
        value: .996948242
        inSlope: 0
        outSlope: 0
        tangentMode: 0
      - time: .150000006
        value: .996948242
        inSlope: .0762015656
        outSlope: .0762015656
        tangentMode: 0
      - time: .166666672
        value: .999488294
        inSlope: .0762015656
        outSlope: .0762015656
        tangentMode: 0
      - time: .183333337
        value: .999488294
        inSlope: 0
        outSlope: 0
        tangentMode: 0
      - time: .200000003
        value: .999488294
        inSlope: 0
        outSlope: 0
        tangentMode: 0
      - time: .216666669
        value: .999488294
        inSlope: 0
        outSlope: 0
        tangentMode: 0
      - time: .233333334
        value: .999488294
        inSlope: -.133402362
        outSlope: -.133402362
        tangentMode: 0
      - time: .25
        value: .995041549
        inSlope: -.266804725
        outSlope: -.266804725
        tangentMode: 0
      m_PreInfinity: 2
      m_PostInfinity: 2
    attribute: m_LocalRotation.w
    path: body/glasses
    classID: 4
    script: {fileID: 0}
  - curve:
      serializedVersion: 2
      m_Curve:
      - time: 0
        value: 1
        inSlope: .0299999714
        outSlope: .0299999714
        tangentMode: 10
      - time: .166666672
        value: 1.005
        inSlope: -.0149999876
        outSlope: -.0149999876
        tangentMode: 10
      - time: .25
        value: 1
        inSlope: -.0599999465
        outSlope: -.0599999465
        tangentMode: 10
      m_PreInfinity: 2
      m_PostInfinity: 2
    attribute: m_LocalScale.x
    path: body
    classID: 4
    script: {fileID: 0}
  - curve:
      serializedVersion: 2
      m_Curve:
      - time: 0
        value: 1
        inSlope: -.0599999428
        outSlope: -.0599999428
        tangentMode: 10
      - time: .166666672
        value: .99000001
        inSlope: .0299999751
        outSlope: .0299999751
        tangentMode: 10
      - time: .25
        value: 1
        inSlope: .119999893
        outSlope: .119999893
        tangentMode: 10
      m_PreInfinity: 2
      m_PostInfinity: 2
    attribute: m_LocalScale.y
    path: body
    classID: 4
    script: {fileID: 0}
  - curve:
      serializedVersion: 2
      m_Curve:
      - time: 0
        value: 1
        inSlope: 0
        outSlope: 0
        tangentMode: 10
      - time: .166666672
        value: 1
        inSlope: 0
        outSlope: 0
        tangentMode: 10
      - time: .25
        value: 1
        inSlope: 0
        outSlope: 0
        tangentMode: 10
      m_PreInfinity: 2
      m_PostInfinity: 2
    attribute: m_LocalScale.z
    path: body
    classID: 4
    script: {fileID: 0}
  - curve:
      serializedVersion: 2
      m_Curve:
      - time: 0
        value: 1
        inSlope: -.422052383
        outSlope: -.422052383
        tangentMode: 10
      - time: .0833333358
        value: .964828968
        inSlope: -.105513088
        outSlope: -.105513088
        tangentMode: 10
      - time: .25
        value: 1
        inSlope: .211026207
        outSlope: .211026207
        tangentMode: 10
      m_PreInfinity: 2
      m_PostInfinity: 2
    attribute: m_LocalScale.x
    path: body/leg
    classID: 4
    script: {fileID: 0}
  - curve:
      serializedVersion: 2
      m_Curve:
      - time: 0
        value: 1
        inSlope: .437437534
        outSlope: .437437534
        tangentMode: 10
      - time: .0833333358
        value: 1.03645313
        inSlope: .109359376
        outSlope: .109359376
        tangentMode: 10
      - time: .25
        value: 1
        inSlope: -.218718782
        outSlope: -.218718782
        tangentMode: 10
      m_PreInfinity: 2
      m_PostInfinity: 2
    attribute: m_LocalScale.y
    path: body/leg
    classID: 4
    script: {fileID: 0}
  - curve:
      serializedVersion: 2
      m_Curve:
      - time: 0
        value: 1
        inSlope: 0
        outSlope: 0
        tangentMode: 10
      - time: .0833333358
        value: 1
        inSlope: 0
        outSlope: 0
        tangentMode: 10
      - time: .25
        value: 1
        inSlope: 0
        outSlope: 0
        tangentMode: 10
      m_PreInfinity: 2
      m_PostInfinity: 2
    attribute: m_LocalScale.z
    path: body/leg
    classID: 4
    script: {fileID: 0}
  - curve:
      serializedVersion: 2
      m_Curve:
      - time: 0
        value: 2.6420002
        inSlope: -.390002102
        outSlope: -.390002102
        tangentMode: 10
      - time: .13333334
        value: 2.58999991
        inSlope: .0278573185
        outSlope: .0278573185
        tangentMode: 10
      - time: .25
        value: 2.6420002
        inSlope: .445716739
        outSlope: .445716739
        tangentMode: 10
      m_PreInfinity: 2
      m_PostInfinity: 2
    attribute: m_LocalPosition.x
    path: body/armR
    classID: 4
    script: {fileID: 0}
  - curve:
      serializedVersion: 2
      m_Curve:
      - time: 0
        value: 2.27999973
        inSlope: 0
        outSlope: 0
        tangentMode: 10
      - time: .13333334
        value: 2.27999973
        inSlope: 0
        outSlope: 0
        tangentMode: 10
      - time: .25
        value: 2.27999973
        inSlope: 0
        outSlope: 0
        tangentMode: 10
      m_PreInfinity: 2
      m_PostInfinity: 2
    attribute: m_LocalPosition.y
    path: body/armR
    classID: 4
    script: {fileID: 0}
  - curve:
      serializedVersion: 2
      m_Curve:
      - time: 0
        value: 0
        inSlope: 0
        outSlope: 0
        tangentMode: 10
      - time: .13333334
        value: 0
        inSlope: 0
        outSlope: 0
        tangentMode: 10
      - time: .25
        value: 0
        inSlope: 0
        outSlope: 0
        tangentMode: 10
      m_PreInfinity: 2
      m_PostInfinity: 2
    attribute: m_LocalPosition.z
    path: body/armR
    classID: 4
    script: {fileID: 0}
  - curve:
      serializedVersion: 2
      m_Curve:
      - time: 0
        value: -2.66199994
        inSlope: .465000242
        outSlope: .465000242
        tangentMode: 10
      - time: .13333334
        value: -2.5999999
        inSlope: -.0332143456
        outSlope: -.0332143456
        tangentMode: 10
      - time: .25
        value: -2.66199994
        inSlope: -.531428933
        outSlope: -.531428933
        tangentMode: 10
      m_PreInfinity: 2
      m_PostInfinity: 2
    attribute: m_LocalPosition.x
    path: body/armL
    classID: 4
    script: {fileID: 0}
  - curve:
      serializedVersion: 2
      m_Curve:
      - time: 0
        value: 1.87299967
        inSlope: 0
        outSlope: 0
        tangentMode: 10
      - time: .13333334
        value: 1.87299967
        inSlope: 0
        outSlope: 0
        tangentMode: 10
      - time: .25
        value: 1.87299967
        inSlope: 0
        outSlope: 0
        tangentMode: 10
      m_PreInfinity: 2
      m_PostInfinity: 2
    attribute: m_LocalPosition.y
    path: body/armL
    classID: 4
    script: {fileID: 0}
  - curve:
      serializedVersion: 2
      m_Curve:
      - time: 0
        value: 0
        inSlope: 0
        outSlope: 0
        tangentMode: 10
      - time: .13333334
        value: 0
        inSlope: 0
        outSlope: 0
        tangentMode: 10
      - time: .25
        value: 0
        inSlope: 0
        outSlope: 0
        tangentMode: 10
      m_PreInfinity: 2
      m_PostInfinity: 2
    attribute: m_LocalPosition.z
    path: body/armL
    classID: 4
    script: {fileID: 0}
  - curve:
      serializedVersion: 2
      m_Curve:
      - time: 0
        value: -1.85099983
        inSlope: .395998478
        outSlope: Infinity
        tangentMode: 25
      - time: .0833333358
        value: -1.81799996
        inSlope: .311998844
        outSlope: Infinity
        tangentMode: 25
      - time: .166666672
        value: -1.79900002
        inSlope: -.197999269
        outSlope: Infinity
        tangentMode: 25
      - time: .25
        value: -1.85099983
        inSlope: -.623997748
        outSlope: -.623997748
        tangentMode: 10
      m_PreInfinity: 2
      m_PostInfinity: 2
    attribute: m_LocalPosition.x
    path: body/eyeL
    classID: 4
    script: {fileID: 0}
  - curve:
      serializedVersion: 2
      m_Curve:
      - time: 0
        value: 2.78399992
        inSlope: -.22799778
        outSlope: Infinity
        tangentMode: 25
      - time: .0833333358
        value: 2.7650001
        inSlope: .288000584
        outSlope: Infinity
        tangentMode: 25
      - time: .166666672
        value: 2.83200002
        inSlope: .11399886
        outSlope: Infinity
        tangentMode: 25
      - time: .25
        value: 2.78399992
        inSlope: -.576001227
        outSlope: -.576001227
        tangentMode: 10
      m_PreInfinity: 2
      m_PostInfinity: 2
    attribute: m_LocalPosition.y
    path: body/eyeL
    classID: 4
    script: {fileID: 0}
  - curve:
      serializedVersion: 2
      m_Curve:
      - time: 0
        value: 0
        inSlope: 0
        outSlope: Infinity
        tangentMode: 25
      - time: .0833333358
        value: 0
        inSlope: 0
        outSlope: Infinity
        tangentMode: 25
      - time: .166666672
        value: 0
        inSlope: 0
        outSlope: Infinity
        tangentMode: 25
      - time: .25
        value: 0
        inSlope: 0
        outSlope: 0
        tangentMode: 10
      m_PreInfinity: 2
      m_PostInfinity: 2
    attribute: m_LocalPosition.z
    path: body/eyeL
    classID: 4
    script: {fileID: 0}
  - curve:
      serializedVersion: 2
      m_Curve:
      - time: 0
        value: 1.62000036
        inSlope: -.516004086
        outSlope: Infinity
        tangentMode: 25
      - time: .0833333358
        value: 1.57700002
        inSlope: -.282002449
        outSlope: Infinity
        tangentMode: 25
      - time: .166666672
        value: 1.57299995
        inSlope: .258002073
        outSlope: Infinity
        tangentMode: 25
      - time: .25
        value: 1.62000036
        inSlope: .564004958
        outSlope: .564004958
        tangentMode: 10
      m_PreInfinity: 2
      m_PostInfinity: 2
    attribute: m_LocalPosition.x
    path: body/eyeR
    classID: 4
    script: {fileID: 0}
  - curve:
      serializedVersion: 2
      m_Curve:
      - time: 0
        value: 2.60399961
        inSlope: -.515994072
        outSlope: Infinity
        tangentMode: 25
      - time: .0833333358
        value: 2.56100011
        inSlope: .174001694
        outSlope: Infinity
        tangentMode: 25
      - time: .166666672
        value: 2.6329999
        inSlope: .257997036
        outSlope: Infinity
        tangentMode: 25
      - time: .25
        value: 2.60399961
        inSlope: -.348003417
        outSlope: -.348003417
        tangentMode: 10
      m_PreInfinity: 2
      m_PostInfinity: 2
    attribute: m_LocalPosition.y
    path: body/eyeR
    classID: 4
    script: {fileID: 0}
  - curve:
      serializedVersion: 2
      m_Curve:
      - time: 0
        value: 0
        inSlope: 0
        outSlope: Infinity
        tangentMode: 25
      - time: .0833333358
        value: 0
        inSlope: 0
        outSlope: Infinity
        tangentMode: 25
      - time: .166666672
        value: 0
        inSlope: 0
        outSlope: Infinity
        tangentMode: 25
      - time: .25
        value: 0
        inSlope: 0
        outSlope: 0
        tangentMode: 10
      m_PreInfinity: 2
      m_PostInfinity: 2
    attribute: m_LocalPosition.z
    path: body/eyeR
    classID: 4
    script: {fileID: 0}
  - curve:
      serializedVersion: 2
      m_Curve:
      - time: 0
        value: 0
        inSlope: -.479999989
        outSlope: Infinity
        tangentMode: 25
      - time: .0833333358
        value: -.0199999996
        inSlope: .300000012
        outSlope: Infinity
        tangentMode: 25
      - time: .166666672
        value: .0199999996
        inSlope: .179999977
        outSlope: Infinity
        tangentMode: 25
      - time: .25
        value: 0
        inSlope: -.479999989
        outSlope: Infinity
        tangentMode: 25
      m_PreInfinity: 2
      m_PostInfinity: 2
    attribute: m_LocalPosition.x
    path: body
    classID: 4
    script: {fileID: 0}
  - curve:
      serializedVersion: 2
      m_Curve:
      - time: 0
        value: 0
        inSlope: .719999969
        outSlope: Infinity
        tangentMode: 25
      - time: .0833333358
        value: .0199999996
        inSlope: .11999999
        outSlope: Infinity
        tangentMode: 25
      - time: .166666672
        value: .00999999978
        inSlope: -.660000026
        outSlope: Infinity
        tangentMode: 25
      - time: .25
        value: 0
        inSlope: .719999969
        outSlope: Infinity
        tangentMode: 25
      m_PreInfinity: 2
      m_PostInfinity: 2
    attribute: m_LocalPosition.y
    path: body
    classID: 4
    script: {fileID: 0}
  - curve:
      serializedVersion: 2
      m_Curve:
      - time: 0
        value: 0
        inSlope: 0
        outSlope: Infinity
        tangentMode: 25
      - time: .0833333358
        value: 0
        inSlope: 0
        outSlope: Infinity
        tangentMode: 25
      - time: .166666672
        value: 0
        inSlope: 0
        outSlope: Infinity
        tangentMode: 25
      - time: .25
        value: 0
        inSlope: 0
        outSlope: Infinity
        tangentMode: 25
      m_PreInfinity: 2
      m_PostInfinity: 2
    attribute: m_LocalPosition.z
    path: body
    classID: 4
    script: {fileID: 0}
  m_EulerEditorCurves:
  - curve:
      serializedVersion: 2
      m_Curve:
      - time: 0
        value: 0
        inSlope: 0
        outSlope: Infinity
        tangentMode: 25
      - time: .0833333358
        value: 0
        inSlope: 0
        outSlope: Infinity
        tangentMode: 25
      - time: .166666672
        value: 0
        inSlope: 0
        outSlope: Infinity
        tangentMode: 25
      - time: .25
        value: 0
        inSlope: 0
        outSlope: 0
        tangentMode: 10
      m_PreInfinity: 2
      m_PostInfinity: 2
    attribute: localEulerAnglesBaked.x
    path: body/glasses
    classID: 4
    script: {fileID: 0}
  - curve:
      serializedVersion: 2
      m_Curve:
      - time: 0
        value: 0
        inSlope: 0
        outSlope: Infinity
        tangentMode: 25
      - time: .0833333358
        value: 0
        inSlope: 0
        outSlope: Infinity
        tangentMode: 25
      - time: .166666672
        value: 0
        inSlope: 0
        outSlope: Infinity
        tangentMode: 25
      - time: .25
        value: 0
        inSlope: 0
        outSlope: 0
        tangentMode: 10
      m_PreInfinity: 2
      m_PostInfinity: 2
    attribute: localEulerAnglesBaked.y
    path: body/glasses
    classID: 4
    script: {fileID: 0}
  - curve:
      serializedVersion: 2
      m_Curve:
      - time: 0
        value: 11.416153
        inSlope: -271.13031
        outSlope: Infinity
        tangentMode: 25
      - time: .0833333358
        value: 8.95474243
        inSlope: -78.9489441
        outSlope: Infinity
        tangentMode: 25
      - time: .166666672
        value: 3.66610718
        inSlope: 135.565155
        outSlope: Infinity
        tangentMode: 25
      - time: .25
        value: 11.416153
        inSlope: 93.0005569
        outSlope: 93.0005569
        tangentMode: 10
      m_PreInfinity: 2
      m_PostInfinity: 2
    attribute: localEulerAnglesBaked.z
    path: body/glasses
    classID: 4
    script: {fileID: 0}
  m_HasGenericRootTransform: 0
  m_HasMotionFloatCurves: 0
  m_GenerateMotionCurves: 0
  m_Events: []
