%YAML 1.1
%TAG !u! tag:unity3d.com,2011:
--- !u!74 &7400000
AnimationClip:
  m_ObjectHideFlags: 0
  m_PrefabParentObject: {fileID: 0}
  m_PrefabInternal: {fileID: 0}
  m_Name: boy eyes
  serializedVersion: 6
  m_Legacy: 0
  m_Compressed: 0
  m_UseHighQualityCurve: 1
  m_RotationCurves: []
  m_CompressedRotationCurves: []
  m_PositionCurves:
  - curve:
      serializedVersion: 2
      m_Curve:
      - time: 0
        value: {x: -1.1869998, y: 1.57199979, z: 0}
        inSlope: {x: 1.21413553, y: 0, z: 0}
        outSlope: {x: 1.21413553, y: 0, z: 0}
        tangentMode: 0
      - time: 1
        value: {x: -.99000001, y: 1.20000005, z: 0}
        inSlope: {x: -.738651574, y: 0, z: 0}
        outSlope: {x: -.738651574, y: 0, z: 0}
        tangentMode: 0
      - time: 2
        value: {x: -1.1869998, y: 1.57199979, z: 0}
        inSlope: {x: .937683344, y: 0, z: 0}
        outSlope: {x: .937683344, y: 0, z: 0}
        tangentMode: 0
      m_PreInfinity: 2
      m_PostInfinity: 2
    path: body/head/pupilL
  - curve:
      serializedVersion: 2
      m_Curve:
      - time: 0
        value: {x: .572999954, y: 1.79100013, z: 0}
        inSlope: {x: 0, y: -1.10111141, z: 0}
        outSlope: {x: 0, y: -1.10111141, z: 0}
        tangentMode: 0
      - time: 1
        value: {x: .167999998, y: 1.84599996, z: 0}
        inSlope: {x: 0, y: .566042244, z: 0}
        outSlope: {x: 0, y: .566042244, z: 0}
        tangentMode: 0
      - time: 2
        value: {x: .572999954, y: 1.79100013, z: 0}
        inSlope: {x: 0, y: -.85427779, z: 0}
        outSlope: {x: 0, y: -.85427779, z: 0}
        tangentMode: 0
      m_PreInfinity: 2
      m_PostInfinity: 2
    path: body/head/pupilR
  m_ScaleCurves: []
  m_FloatCurves: []
  m_PPtrCurves: []
  m_SampleRate: 60
  m_WrapMode: 0
  m_Bounds:
    m_Center: {x: 0, y: 0, z: 0}
    m_Extent: {x: 0, y: 0, z: 0}
  m_ClipBindingConstant:
    genericBindings:
    - path: 3720840927
      attribute: 1
      script: {fileID: 0}
      classID: 4
      customType: 0
      isPPtrCurve: 0
    - path: 667466684
      attribute: 1
      script: {fileID: 0}
      classID: 4
      customType: 0
      isPPtrCurve: 0
    pptrCurveMapping: []
  m_AnimationClipSettings:
    serializedVersion: 2
    m_StartTime: 0
    m_StopTime: 2
    m_OrientationOffsetY: 0
    m_Level: 0
    m_CycleOffset: 0
    m_LoopTime: 1
    m_LoopBlend: 0
    m_LoopBlendOrientation: 0
    m_LoopBlendPositionY: 0
    m_LoopBlendPositionXZ: 0
    m_KeepOriginalOrientation: 0
    m_KeepOriginalPositionY: 1
    m_KeepOriginalPositionXZ: 0
    m_HeightFromFeet: 0
    m_Mirror: 0
  m_EditorCurves:
  - curve:
      serializedVersion: 2
      m_Curve:
      - time: 0
        value: -1.1869998
        inSlope: 1.21413553
        outSlope: 1.21413553
        tangentMode: 0
      - time: 1
        value: -.99000001
        inSlope: -.738651574
        outSlope: -.738651574
        tangentMode: 0
      - time: 2
        value: -1.1869998
        inSlope: .937683344
        outSlope: .937683344
        tangentMode: 0
      m_PreInfinity: 2
      m_PostInfinity: 2
    attribute: m_LocalPosition.x
    path: body/head/pupilL
    classID: 4
    script: {fileID: 0}
  - curve:
      serializedVersion: 2
      m_Curve:
      - time: 0
        value: 1.57199979
        inSlope: 0
        outSlope: 0
        tangentMode: 0
      - time: 1
        value: 1.20000005
        inSlope: 0
        outSlope: 0
        tangentMode: 0
      - time: 2
        value: 1.57199979
        inSlope: 0
        outSlope: 0
        tangentMode: 0
      m_PreInfinity: 2
      m_PostInfinity: 2
    attribute: m_LocalPosition.y
    path: body/head/pupilL
    classID: 4
    script: {fileID: 0}
  - curve:
      serializedVersion: 2
      m_Curve:
      - time: 0
        value: 0
        inSlope: 0
        outSlope: 0
        tangentMode: 10
      - time: 1
        value: 0
        inSlope: 0
        outSlope: 0
        tangentMode: 10
      - time: 2
        value: 0
        inSlope: 0
        outSlope: 0
        tangentMode: 10
      m_PreInfinity: 2
      m_PostInfinity: 2
    attribute: m_LocalPosition.z
    path: body/head/pupilL
    classID: 4
    script: {fileID: 0}
  - curve:
      serializedVersion: 2
      m_Curve:
      - time: 0
        value: .572999954
        inSlope: 0
        outSlope: 0
        tangentMode: 0
      - time: 1
        value: .167999998
        inSlope: 0
        outSlope: 0
        tangentMode: 10
      - time: 2
        value: .572999954
        inSlope: 0
        outSlope: 0
        tangentMode: 0
      m_PreInfinity: 2
      m_PostInfinity: 2
    attribute: m_LocalPosition.x
    path: body/head/pupilR
    classID: 4
    script: {fileID: 0}
  - curve:
      serializedVersion: 2
      m_Curve:
      - time: 0
        value: 1.79100013
        inSlope: -1.10111141
        outSlope: -1.10111141
        tangentMode: 0
      - time: 1
        value: 1.84599996
        inSlope: .566042244
        outSlope: .566042244
        tangentMode: 0
      - time: 2
        value: 1.79100013
        inSlope: -.85427779
        outSlope: -.85427779
        tangentMode: 0
      m_PreInfinity: 2
      m_PostInfinity: 2
    attribute: m_LocalPosition.y
    path: body/head/pupilR
    classID: 4
    script: {fileID: 0}
  - curve:
      serializedVersion: 2
      m_Curve:
      - time: 0
        value: 0
        inSlope: 0
        outSlope: 0
        tangentMode: 10
      - time: 1
        value: 0
        inSlope: 0
        outSlope: 0
        tangentMode: 10
      - time: 2
        value: 0
        inSlope: 0
        outSlope: 0
        tangentMode: 10
      m_PreInfinity: 2
      m_PostInfinity: 2
    attribute: m_LocalPosition.z
    path: body/head/pupilR
    classID: 4
    script: {fileID: 0}
  m_EulerEditorCurves: []
  m_HasGenericRootTransform: 0
  m_HasMotionFloatCurves: 0
  m_GenerateMotionCurves: 0
  m_Events: []
