%YAML 1.1
%TAG !u! tag:unity3d.com,2011:
--- !u!74 &7400000
AnimationClip:
  m_ObjectHideFlags: 0
  m_PrefabParentObject: {fileID: 0}
  m_PrefabInternal: {fileID: 0}
  m_Name: face stop
  serializedVersion: 6
  m_Legacy: 0
  m_Compressed: 0
  m_UseHighQualityCurve: 1
  m_RotationCurves: []
  m_CompressedRotationCurves: []
  m_PositionCurves:
  - curve:
      serializedVersion: 2
      m_Curve:
      - time: 0
        value: {x: .150000095, y: .25, z: 0}
        inSlope: {x: -.180000588, y: -1.31999993, z: 0}
        outSlope: {x: -.180000588, y: -1.31999993, z: 0}
        tangentMode: 0
      - time: .166666672
        value: {x: .119999997, y: .0299999993, z: 0}
        inSlope: {x: 0, y: 0, z: 0}
        outSlope: {x: 0, y: 0, z: 0}
        tangentMode: 0
      - time: .333333343
        value: {x: .150000095, y: .25, z: 0}
        inSlope: {x: -.0900003389, y: -.660000324, z: 0}
        outSlope: {x: -.0900003389, y: -.660000324, z: 0}
        tangentMode: 0
      - time: .416666657
        value: {x: .119999997, y: .0299999993, z: 0}
        inSlope: {x: -.120000444, y: -.880000353, z: 0}
        outSlope: {x: -.120000444, y: -.880000353, z: 0}
        tangentMode: 0
      - time: .666666687
        value: {x: .150000095, y: .25, z: 0}
        inSlope: {x: .0600001886, y: .439999938, z: 0}
        outSlope: {x: .0600001886, y: .439999938, z: 0}
        tangentMode: 0
      - time: 1
        value: {x: .150000095, y: .25, z: 0}
        inSlope: {x: 0, y: 0, z: 0}
        outSlope: {x: 0, y: 0, z: 0}
        tangentMode: 0
      m_PreInfinity: 2
      m_PostInfinity: 2
    path: teethT
  - curve:
      serializedVersion: 2
      m_Curve:
      - time: 0
        value: {x: -.0899996758, y: -1.79000008, z: 0}
        inSlope: {x: .179998055, y: 1.98000026, z: 0}
        outSlope: {x: .179998055, y: 1.98000026, z: 0}
        tangentMode: 0
      - time: .166666672
        value: {x: -.0599999987, y: -1.46000004, z: 0}
        inSlope: {x: 0, y: 0, z: 0}
        outSlope: {x: 0, y: 0, z: 0}
        tangentMode: 0
      - time: .333333343
        value: {x: -.0899996758, y: -1.79000008, z: 0}
        inSlope: {x: .0899990723, y: .990000606, z: 0}
        outSlope: {x: .0899990723, y: .990000606, z: 0}
        tangentMode: 0
      - time: .416666657
        value: {x: -.0599999987, y: -1.46000004, z: 0}
        inSlope: {x: .119998753, y: 1.32000065, z: 0}
        outSlope: {x: .119998753, y: 1.32000065, z: 0}
        tangentMode: 0
      - time: .666666687
        value: {x: -.0899996758, y: -1.79000008, z: 0}
        inSlope: {x: -.0599993467, y: -.660000026, z: 0}
        outSlope: {x: -.0599993467, y: -.660000026, z: 0}
        tangentMode: 0
      - time: 1
        value: {x: -.0899996758, y: -1.79000008, z: 0}
        inSlope: {x: 0, y: 0, z: 0}
        outSlope: {x: 0, y: 0, z: 0}
        tangentMode: 0
      m_PreInfinity: 2
      m_PostInfinity: 2
    path: teethB
  - curve:
      serializedVersion: 2
      m_Curve:
      - time: 0
        value: {x: 2.46400023, y: -1.53200006, z: 0}
        inSlope: {x: 1.77599859, y: -.347999811, z: 0}
        outSlope: {x: 1.77599859, y: -.347999811, z: 0}
        tangentMode: 0
      - time: .166666672
        value: {x: 2.75999999, y: -1.59000003, z: 0}
        inSlope: {x: 0, y: 0, z: 0}
        outSlope: {x: 0, y: 0, z: 0}
        tangentMode: 0
      - time: .333333343
        value: {x: 2.46400023, y: -1.53200006, z: 0}
        inSlope: {x: .887999773, y: -.173999995, z: 0}
        outSlope: {x: .887999773, y: -.173999995, z: 0}
        tangentMode: 0
      - time: .416666657
        value: {x: 2.75999999, y: -1.59000003, z: 0}
        inSlope: {x: 1.18399954, y: -.231999978, z: 0}
        outSlope: {x: 1.18399954, y: -.231999978, z: 0}
        tangentMode: 0
      - time: .666666687
        value: {x: 2.46400023, y: -1.53200006, z: 0}
        inSlope: {x: -.591999471, y: .115999922, z: 0}
        outSlope: {x: -.591999471, y: .115999922, z: 0}
        tangentMode: 0
      - time: 1
        value: {x: 2.46400023, y: -1.53200006, z: 0}
        inSlope: {x: 0, y: 0, z: 0}
        outSlope: {x: 0, y: 0, z: 0}
        tangentMode: 0
      m_PreInfinity: 2
      m_PostInfinity: 2
    path: 6
  - curve:
      serializedVersion: 2
      m_Curve:
      - time: 0
        value: {x: -1.9749999, y: -1.40100002, z: 0}
        inSlope: {x: -1.35000086, y: -.473999977, z: 0}
        outSlope: {x: -1.35000086, y: -.473999977, z: 0}
        tangentMode: 0
      - time: .166666672
        value: {x: -2.20000005, y: -1.48000002, z: 0}
        inSlope: {x: 0, y: 0, z: 0}
        outSlope: {x: 0, y: 0, z: 0}
        tangentMode: 0
      - time: .333333343
        value: {x: -1.9749999, y: -1.40100002, z: 0}
        inSlope: {x: -.675000787, y: -.237000108, z: 0}
        outSlope: {x: -.675000787, y: -.237000108, z: 0}
        tangentMode: 0
      - time: .416666657
        value: {x: -2.20000005, y: -1.48000002, z: 0}
        inSlope: {x: -.900000989, y: -.316000104, z: 0}
        outSlope: {x: -.900000989, y: -.316000104, z: 0}
        tangentMode: 0
      - time: .666666687
        value: {x: -1.9749999, y: -1.40100002, z: 0}
        inSlope: {x: .450000226, y: .157999977, z: 0}
        outSlope: {x: .450000226, y: .157999977, z: 0}
        tangentMode: 0
      - time: 1
        value: {x: -1.9749999, y: -1.40100002, z: 0}
        inSlope: {x: 0, y: 0, z: 0}
        outSlope: {x: 0, y: 0, z: 0}
        tangentMode: 0
      m_PreInfinity: 2
      m_PostInfinity: 2
    path: 2
  - curve:
      serializedVersion: 2
      m_Curve:
      - time: 0
        value: {x: 2.86100054, y: -1.85600007, z: 0}
        inSlope: {x: 2.03399706, y: -.143999577, z: 0}
        outSlope: {x: 2.03399706, y: -.143999577, z: 0}
        tangentMode: 0
      - time: .166666672
        value: {x: 3.20000005, y: -1.88, z: 0}
        inSlope: {x: 0, y: 0, z: 0}
        outSlope: {x: 0, y: 0, z: 0}
        tangentMode: 0
      - time: .333333343
        value: {x: 2.86100054, y: -1.85600007, z: 0}
        inSlope: {x: 1.01699901, y: -.0719998181, z: 0}
        outSlope: {x: 1.01699901, y: -.0719998181, z: 0}
        tangentMode: 0
      - time: .416666657
        value: {x: 3.20000005, y: -1.88, z: 0}
        inSlope: {x: 1.35599852, y: -.095999755, z: 0}
        outSlope: {x: 1.35599852, y: -.095999755, z: 0}
        tangentMode: 0
      - time: .666666687
        value: {x: 2.86100054, y: -1.85600007, z: 0}
        inSlope: {x: -.67799896, y: .0479998514, z: 0}
        outSlope: {x: -.67799896, y: .0479998514, z: 0}
        tangentMode: 0
      - time: 1
        value: {x: 2.86100054, y: -1.85600007, z: 0}
        inSlope: {x: 0, y: 0, z: 0}
        outSlope: {x: 0, y: 0, z: 0}
        tangentMode: 0
      m_PreInfinity: 2
      m_PostInfinity: 2
    path: 7
  - curve:
      serializedVersion: 2
      m_Curve:
      - time: 0
        value: {x: -3.23899984, y: -1.31900001, z: 0}
        inSlope: {x: -2.22600031, y: -.485999823, z: 0}
        outSlope: {x: -2.22600031, y: -.485999823, z: 0}
        tangentMode: 0
      - time: .166666672
        value: {x: -3.6099999, y: -1.39999998, z: 0}
        inSlope: {x: 0, y: 0, z: 0}
        outSlope: {x: 0, y: 0, z: 0}
        tangentMode: 0
      - time: .333333343
        value: {x: -3.23899984, y: -1.31900001, z: 0}
        inSlope: {x: -1.11300063, y: -.243000031, z: 0}
        outSlope: {x: -1.11300063, y: -.243000031, z: 0}
        tangentMode: 0
      - time: .416666657
        value: {x: -3.6099999, y: -1.39999998, z: 0}
        inSlope: {x: -1.48400068, y: -.324000001, z: 0}
        outSlope: {x: -1.48400068, y: -.324000001, z: 0}
        tangentMode: 0
      - time: .666666687
        value: {x: -3.23899984, y: -1.31900001, z: 0}
        inSlope: {x: .742000043, y: .161999926, z: 0}
        outSlope: {x: .742000043, y: .161999926, z: 0}
        tangentMode: 0
      - time: 1
        value: {x: -3.23899984, y: -1.31900001, z: 0}
        inSlope: {x: 0, y: 0, z: 0}
        outSlope: {x: 0, y: 0, z: 0}
        tangentMode: 0
      m_PreInfinity: 2
      m_PostInfinity: 2
    path: 1
  - curve:
      serializedVersion: 2
      m_Curve:
      - time: 0
        value: {x: -.821000099, y: -1.43000007, z: 0}
        inSlope: {x: -.533999562, y: -.419999599, z: 0}
        outSlope: {x: -.533999562, y: -.419999599, z: 0}
        tangentMode: 0
      - time: .166666672
        value: {x: -.910000026, y: -1.5, z: 0}
        inSlope: {x: 0, y: 0, z: 0}
        outSlope: {x: 0, y: 0, z: 0}
        tangentMode: 0
      - time: .333333343
        value: {x: -.821000099, y: -1.43000007, z: 0}
        inSlope: {x: -.2669999, y: -.209999889, z: 0}
        outSlope: {x: -.2669999, y: -.209999889, z: 0}
        tangentMode: 0
      - time: .416666657
        value: {x: -.910000026, y: -1.5, z: 0}
        inSlope: {x: -.355999827, y: -.279999852, z: 0}
        outSlope: {x: -.355999827, y: -.279999852, z: 0}
        tangentMode: 0
      - time: .666666687
        value: {x: -.821000099, y: -1.43000007, z: 0}
        inSlope: {x: .177999839, y: .139999852, z: 0}
        outSlope: {x: .177999839, y: .139999852, z: 0}
        tangentMode: 0
      - time: 1
        value: {x: -.821000099, y: -1.43000007, z: 0}
        inSlope: {x: 0, y: 0, z: 0}
        outSlope: {x: 0, y: 0, z: 0}
        tangentMode: 0
      m_PreInfinity: 2
      m_PostInfinity: 2
    path: 3
  - curve:
      serializedVersion: 2
      m_Curve:
      - time: 0
        value: {x: .309000015, y: -1.36600006, z: 0}
        inSlope: {x: .245999873, y: -.444000006, z: 0}
        outSlope: {x: .245999873, y: -.444000006, z: 0}
        tangentMode: 0
      - time: .166666672
        value: {x: .349999994, y: -1.44000006, z: 0}
        inSlope: {x: 0, y: 0, z: 0}
        outSlope: {x: 0, y: 0, z: 0}
        tangentMode: 0
      - time: .333333343
        value: {x: .309000015, y: -1.36600006, z: 0}
        inSlope: {x: .122999996, y: -.222000122, z: 0}
        outSlope: {x: .122999996, y: -.222000122, z: 0}
        tangentMode: 0
      - time: .416666657
        value: {x: .349999994, y: -1.44000006, z: 0}
        inSlope: {x: .163999975, y: -.296000123, z: 0}
        outSlope: {x: .163999975, y: -.296000123, z: 0}
        tangentMode: 0
      - time: .666666687
        value: {x: .309000015, y: -1.36600006, z: 0}
        inSlope: {x: -.0819999501, y: .147999987, z: 0}
        outSlope: {x: -.0819999501, y: .147999987, z: 0}
        tangentMode: 0
      - time: 1
        value: {x: .309000015, y: -1.36600006, z: 0}
        inSlope: {x: 0, y: 0, z: 0}
        outSlope: {x: 0, y: 0, z: 0}
        tangentMode: 0
      m_PreInfinity: 2
      m_PostInfinity: 2
    path: 4
  - curve:
      serializedVersion: 2
      m_Curve:
      - time: 0
        value: {x: 1.50200033, y: -1.48500013, z: 0}
        inSlope: {x: 1.12799835, y: -.389998913, z: 0}
        outSlope: {x: 1.12799835, y: -.389998913, z: 0}
        tangentMode: 0
      - time: .166666672
        value: {x: 1.69000006, y: -1.54999995, z: 0}
        inSlope: {x: 0, y: 0, z: 0}
        outSlope: {x: 0, y: 0, z: 0}
        tangentMode: 0
      - time: .333333343
        value: {x: 1.50200033, y: -1.48500013, z: 0}
        inSlope: {x: .563999414, y: -.194999546, z: 0}
        outSlope: {x: .563999414, y: -.194999546, z: 0}
        tangentMode: 0
      - time: .416666657
        value: {x: 1.69000006, y: -1.54999995, z: 0}
        inSlope: {x: .751999199, y: -.259999394, z: 0}
        outSlope: {x: .751999199, y: -.259999394, z: 0}
        tangentMode: 0
      - time: .666666687
        value: {x: 1.50200033, y: -1.48500013, z: 0}
        inSlope: {x: -.375999391, y: .129999623, z: 0}
        outSlope: {x: -.375999391, y: .129999623, z: 0}
        tangentMode: 0
      - time: 1
        value: {x: 1.50200033, y: -1.48500013, z: 0}
        inSlope: {x: 0, y: 0, z: 0}
        outSlope: {x: 0, y: 0, z: 0}
        tangentMode: 0
      m_PreInfinity: 2
      m_PostInfinity: 2
    path: 5
  m_ScaleCurves:
  - curve:
      serializedVersion: 2
      m_Curve:
      - time: 0
        value: {x: 1, y: 1, z: 1}
        inSlope: {x: .699771881, y: -.626682758, z: 0}
        outSlope: {x: .699771881, y: -.626682758, z: 0}
        tangentMode: 0
      - time: .166666672
        value: {x: 1.11662865, y: .895552874, z: 1}
        inSlope: {x: 0, y: 0, z: 0}
        outSlope: {x: 0, y: 0, z: 0}
        tangentMode: 0
      - time: .333333343
        value: {x: 1, y: 1, z: 1}
        inSlope: {x: .349886119, y: -.313341558, z: 0}
        outSlope: {x: .349886119, y: -.313341558, z: 0}
        tangentMode: 0
      - time: .416666657
        value: {x: 1.11662865, y: .895552874, z: 1}
        inSlope: {x: .466514796, y: -.417788714, z: 0}
        outSlope: {x: .466514796, y: -.417788714, z: 0}
        tangentMode: 0
      - time: .666666687
        value: {x: 1, y: 1, z: 1}
        inSlope: {x: -.233257264, y: .208894223, z: 0}
        outSlope: {x: -.233257264, y: .208894223, z: 0}
        tangentMode: 0
      - time: 1
        value: {x: 1, y: 1, z: 1}
        inSlope: {x: 0, y: 0, z: 0}
        outSlope: {x: 0, y: 0, z: 0}
        tangentMode: 0
      m_PreInfinity: 2
      m_PostInfinity: 2
    path: 6
  - curve:
      serializedVersion: 2
      m_Curve:
      - time: 0
        value: {x: 1, y: 1, z: 1}
        inSlope: {x: .699771881, y: -.626682758, z: 0}
        outSlope: {x: .699771881, y: -.626682758, z: 0}
        tangentMode: 0
      - time: .166666672
        value: {x: 1.11662865, y: .895552874, z: 1}
        inSlope: {x: 0, y: 0, z: 0}
        outSlope: {x: 0, y: 0, z: 0}
        tangentMode: 0
      - time: .333333343
        value: {x: 1, y: 1, z: 1}
        inSlope: {x: .349886119, y: -.313341558, z: 0}
        outSlope: {x: .349886119, y: -.313341558, z: 0}
        tangentMode: 0
      - time: .416666657
        value: {x: 1.11662865, y: .895552874, z: 1}
        inSlope: {x: .466514796, y: -.417788714, z: 0}
        outSlope: {x: .466514796, y: -.417788714, z: 0}
        tangentMode: 0
      - time: .666666687
        value: {x: 1, y: 1, z: 1}
        inSlope: {x: -.233257264, y: .208894223, z: 0}
        outSlope: {x: -.233257264, y: .208894223, z: 0}
        tangentMode: 0
      - time: 1
        value: {x: 1, y: 1, z: 1}
        inSlope: {x: 0, y: 0, z: 0}
        outSlope: {x: 0, y: 0, z: 0}
        tangentMode: 0
      m_PreInfinity: 2
      m_PostInfinity: 2
    path: 2
  - curve:
      serializedVersion: 2
      m_Curve:
      - time: 0
        value: {x: 1, y: 1, z: 1}
        inSlope: {x: .699771881, y: -.626682758, z: 0}
        outSlope: {x: .699771881, y: -.626682758, z: 0}
        tangentMode: 0
      - time: .166666672
        value: {x: 1.11662865, y: .895552874, z: 1}
        inSlope: {x: 0, y: 0, z: 0}
        outSlope: {x: 0, y: 0, z: 0}
        tangentMode: 0
      - time: .333333343
        value: {x: 1, y: 1, z: 1}
        inSlope: {x: .349886119, y: -.313341558, z: 0}
        outSlope: {x: .349886119, y: -.313341558, z: 0}
        tangentMode: 0
      - time: .416666657
        value: {x: 1.11662865, y: .895552874, z: 1}
        inSlope: {x: .466514796, y: -.417788714, z: 0}
        outSlope: {x: .466514796, y: -.417788714, z: 0}
        tangentMode: 0
      - time: .666666687
        value: {x: 1, y: 1, z: 1}
        inSlope: {x: -.233257264, y: .208894223, z: 0}
        outSlope: {x: -.233257264, y: .208894223, z: 0}
        tangentMode: 0
      - time: 1
        value: {x: 1, y: 1, z: 1}
        inSlope: {x: 0, y: 0, z: 0}
        outSlope: {x: 0, y: 0, z: 0}
        tangentMode: 0
      m_PreInfinity: 2
      m_PostInfinity: 2
    path: 1
  - curve:
      serializedVersion: 2
      m_Curve:
      - time: 0
        value: {x: 1, y: 1, z: 1}
        inSlope: {x: .699771881, y: -.626682758, z: 0}
        outSlope: {x: .699771881, y: -.626682758, z: 0}
        tangentMode: 0
      - time: .166666672
        value: {x: 1.11662865, y: .895552874, z: 1}
        inSlope: {x: 0, y: 0, z: 0}
        outSlope: {x: 0, y: 0, z: 0}
        tangentMode: 0
      - time: .333333343
        value: {x: 1, y: 1, z: 1}
        inSlope: {x: .349886119, y: -.313341558, z: 0}
        outSlope: {x: .349886119, y: -.313341558, z: 0}
        tangentMode: 0
      - time: .416666657
        value: {x: 1.11662865, y: .895552874, z: 1}
        inSlope: {x: .466514796, y: -.417788714, z: 0}
        outSlope: {x: .466514796, y: -.417788714, z: 0}
        tangentMode: 0
      - time: .666666687
        value: {x: 1, y: 1, z: 1}
        inSlope: {x: -.233257264, y: .208894223, z: 0}
        outSlope: {x: -.233257264, y: .208894223, z: 0}
        tangentMode: 0
      - time: 1
        value: {x: 1, y: 1, z: 1}
        inSlope: {x: 0, y: 0, z: 0}
        outSlope: {x: 0, y: 0, z: 0}
        tangentMode: 0
      m_PreInfinity: 2
      m_PostInfinity: 2
    path: 7
  - curve:
      serializedVersion: 2
      m_Curve:
      - time: 0
        value: {x: 1, y: 1, z: 1}
        inSlope: {x: .699771881, y: -.626682758, z: 0}
        outSlope: {x: .699771881, y: -.626682758, z: 0}
        tangentMode: 0
      - time: .166666672
        value: {x: 1.11662865, y: .895552874, z: 1}
        inSlope: {x: 0, y: 0, z: 0}
        outSlope: {x: 0, y: 0, z: 0}
        tangentMode: 0
      - time: .333333343
        value: {x: 1, y: 1, z: 1}
        inSlope: {x: .349886119, y: -.313341558, z: 0}
        outSlope: {x: .349886119, y: -.313341558, z: 0}
        tangentMode: 0
      - time: .416666657
        value: {x: 1.11662865, y: .895552874, z: 1}
        inSlope: {x: .466514796, y: -.417788714, z: 0}
        outSlope: {x: .466514796, y: -.417788714, z: 0}
        tangentMode: 0
      - time: .666666687
        value: {x: 1, y: 1, z: 1}
        inSlope: {x: -.233257264, y: .208894223, z: 0}
        outSlope: {x: -.233257264, y: .208894223, z: 0}
        tangentMode: 0
      - time: 1
        value: {x: 1, y: 1, z: 1}
        inSlope: {x: 0, y: 0, z: 0}
        outSlope: {x: 0, y: 0, z: 0}
        tangentMode: 0
      m_PreInfinity: 2
      m_PostInfinity: 2
    path: 3
  - curve:
      serializedVersion: 2
      m_Curve:
      - time: 0
        value: {x: 1, y: 1, z: 1}
        inSlope: {x: .699771881, y: -.626682758, z: 0}
        outSlope: {x: .699771881, y: -.626682758, z: 0}
        tangentMode: 0
      - time: .166666672
        value: {x: 1.11662865, y: .895552874, z: 1}
        inSlope: {x: 0, y: 0, z: 0}
        outSlope: {x: 0, y: 0, z: 0}
        tangentMode: 0
      - time: .333333343
        value: {x: 1, y: 1, z: 1}
        inSlope: {x: .349886119, y: -.313341558, z: 0}
        outSlope: {x: .349886119, y: -.313341558, z: 0}
        tangentMode: 0
      - time: .416666657
        value: {x: 1.11662865, y: .895552874, z: 1}
        inSlope: {x: .466514796, y: -.417788714, z: 0}
        outSlope: {x: .466514796, y: -.417788714, z: 0}
        tangentMode: 0
      - time: .666666687
        value: {x: 1, y: 1, z: 1}
        inSlope: {x: -.233257264, y: .208894223, z: 0}
        outSlope: {x: -.233257264, y: .208894223, z: 0}
        tangentMode: 0
      - time: 1
        value: {x: 1, y: 1, z: 1}
        inSlope: {x: 0, y: 0, z: 0}
        outSlope: {x: 0, y: 0, z: 0}
        tangentMode: 0
      m_PreInfinity: 2
      m_PostInfinity: 2
    path: 4
  - curve:
      serializedVersion: 2
      m_Curve:
      - time: 0
        value: {x: 1, y: 1, z: 1}
        inSlope: {x: .699771881, y: -.626682758, z: 0}
        outSlope: {x: .699771881, y: -.626682758, z: 0}
        tangentMode: 0
      - time: .166666672
        value: {x: 1.11662865, y: .895552874, z: 1}
        inSlope: {x: 0, y: 0, z: 0}
        outSlope: {x: 0, y: 0, z: 0}
        tangentMode: 0
      - time: .333333343
        value: {x: 1, y: 1, z: 1}
        inSlope: {x: .349886119, y: -.313341558, z: 0}
        outSlope: {x: .349886119, y: -.313341558, z: 0}
        tangentMode: 0
      - time: .416666657
        value: {x: 1.11662865, y: .895552874, z: 1}
        inSlope: {x: .466514796, y: -.417788714, z: 0}
        outSlope: {x: .466514796, y: -.417788714, z: 0}
        tangentMode: 0
      - time: .666666687
        value: {x: 1, y: 1, z: 1}
        inSlope: {x: -.233257264, y: .208894223, z: 0}
        outSlope: {x: -.233257264, y: .208894223, z: 0}
        tangentMode: 0
      - time: 1
        value: {x: 1, y: 1, z: 1}
        inSlope: {x: 0, y: 0, z: 0}
        outSlope: {x: 0, y: 0, z: 0}
        tangentMode: 0
      m_PreInfinity: 2
      m_PostInfinity: 2
    path: 5
  - curve:
      serializedVersion: 2
      m_Curve:
      - time: 0
        value: {x: 1, y: 1, z: 1}
        inSlope: {x: 0, y: -.895112872, z: 0}
        outSlope: {x: 0, y: -.895112872, z: 0}
        tangentMode: 0
      - time: .166666672
        value: {x: 1, y: .850814521, z: 1}
        inSlope: {x: 0, y: 0, z: 0}
        outSlope: {x: 0, y: 0, z: 0}
        tangentMode: 0
      - time: .333333343
        value: {x: 1, y: 1, z: 1}
        inSlope: {x: 0, y: -.447556674, z: 0}
        outSlope: {x: 0, y: -.447556674, z: 0}
        tangentMode: 0
      - time: .416666657
        value: {x: 1, y: .850814521, z: 1}
        inSlope: {x: 0, y: -.596742153, z: 0}
        outSlope: {x: 0, y: -.596742153, z: 0}
        tangentMode: 0
      - time: .666666687
        value: {x: 1, y: 1, z: 1}
        inSlope: {x: 0, y: .298370928, z: 0}
        outSlope: {x: 0, y: .298370928, z: 0}
        tangentMode: 0
      - time: 1
        value: {x: 1, y: 1, z: 1}
        inSlope: {x: 0, y: 0, z: 0}
        outSlope: {x: 0, y: 0, z: 0}
        tangentMode: 0
      m_PreInfinity: 2
      m_PostInfinity: 2
    path: teethT
  - curve:
      serializedVersion: 2
      m_Curve:
      - time: 0
        value: {x: 1, y: 1, z: 1}
        inSlope: {x: 0, y: -.912668467, z: 0}
        outSlope: {x: 0, y: -.912668467, z: 0}
        tangentMode: 0
      - time: .166666672
        value: {x: 1, y: .847888589, z: 1}
        inSlope: {x: 0, y: 0, z: 0}
        outSlope: {x: 0, y: 0, z: 0}
        tangentMode: 0
      - time: .333333343
        value: {x: 1, y: 1, z: 1}
        inSlope: {x: 0, y: -.456334472, z: 0}
        outSlope: {x: 0, y: -.456334472, z: 0}
        tangentMode: 0
      - time: .416666657
        value: {x: 1, y: .847888589, z: 1}
        inSlope: {x: 0, y: -.608445883, z: 0}
        outSlope: {x: 0, y: -.608445883, z: 0}
        tangentMode: 0
      - time: .666666687
        value: {x: 1, y: 1, z: 1}
        inSlope: {x: 0, y: .304222792, z: 0}
        outSlope: {x: 0, y: .304222792, z: 0}
        tangentMode: 0
      - time: 1
        value: {x: 1, y: 1, z: 1}
        inSlope: {x: 0, y: 0, z: 0}
        outSlope: {x: 0, y: 0, z: 0}
        tangentMode: 0
      m_PreInfinity: 2
      m_PostInfinity: 2
    path: teethB
  - curve:
      serializedVersion: 2
      m_Curve:
      - time: 0
        value: {x: 1, y: 1, z: 1}
        inSlope: {x: -.200000048, y: -.200000048, z: 0}
        outSlope: {x: -.200000048, y: -.200000048, z: 0}
        tangentMode: 0
      - time: .5
        value: {x: .899999976, y: .899999976, z: 1}
        inSlope: {x: 0, y: 0, z: 0}
        outSlope: {x: 0, y: 0, z: 0}
        tangentMode: 0
      - time: 1
        value: {x: 1, y: 1, z: 1}
        inSlope: {x: .200000048, y: .200000048, z: 0}
        outSlope: {x: .200000048, y: .200000048, z: 0}
        tangentMode: 0
      m_PreInfinity: 2
      m_PostInfinity: 2
    path: xL
  - curve:
      serializedVersion: 2
      m_Curve:
      - time: 0
        value: {x: 1, y: 1, z: 1}
        inSlope: {x: -.200000048, y: -.200000048, z: 0}
        outSlope: {x: -.200000048, y: -.200000048, z: 0}
        tangentMode: 0
      - time: .5
        value: {x: .899999976, y: .899999976, z: 1}
        inSlope: {x: 0, y: 0, z: 0}
        outSlope: {x: 0, y: 0, z: 0}
        tangentMode: 0
      - time: 1
        value: {x: 1, y: 1, z: 1}
        inSlope: {x: .200000048, y: .200000048, z: 0}
        outSlope: {x: .200000048, y: .200000048, z: 0}
        tangentMode: 0
      m_PreInfinity: 2
      m_PostInfinity: 2
    path: xR
  m_FloatCurves: []
  m_PPtrCurves:
  - curve:
    - time: 0
      value: {fileID: 21300000, guid: 642d59129d6fef34a9271039f7503b8e, type: 3}
    attribute: m_Sprite
    path: xL
    classID: 212
    script: {fileID: 0}
  - curve:
    - time: 0
      value: {fileID: 21300000, guid: f28a3f8d345aed54bafbc161b6dc4148, type: 3}
    attribute: m_Sprite
    path: xL/xLs
    classID: 212
    script: {fileID: 0}
  - curve:
    - time: 0
      value: {fileID: 21300002, guid: 642d59129d6fef34a9271039f7503b8e, type: 3}
    attribute: m_Sprite
    path: xR
    classID: 212
    script: {fileID: 0}
  - curve:
    - time: 0
      value: {fileID: 21300002, guid: f28a3f8d345aed54bafbc161b6dc4148, type: 3}
    attribute: m_Sprite
    path: xR/xRs
    classID: 212
    script: {fileID: 0}
  m_SampleRate: 60
  m_WrapMode: 0
  m_Bounds:
    m_Center: {x: 0, y: 0, z: 0}
    m_Extent: {x: 0, y: 0, z: 0}
  m_ClipBindingConstant:
    genericBindings:
    - path: 4001473974
      attribute: 1
      script: {fileID: 0}
      classID: 4
      customType: 0
      isPPtrCurve: 0
    - path: 441782503
      attribute: 1
      script: {fileID: 0}
      classID: 4
      customType: 0
      isPPtrCurve: 0
    - path: 498629140
      attribute: 1
      script: {fileID: 0}
      classID: 4
      customType: 0
      isPPtrCurve: 0
    - path: 450215437
      attribute: 1
      script: {fileID: 0}
      classID: 4
      customType: 0
      isPPtrCurve: 0
    - path: 1790921346
      attribute: 1
      script: {fileID: 0}
      classID: 4
      customType: 0
      isPPtrCurve: 0
    - path: 2212294583
      attribute: 1
      script: {fileID: 0}
      classID: 4
      customType: 0
      isPPtrCurve: 0
    - path: 1842515611
      attribute: 1
      script: {fileID: 0}
      classID: 4
      customType: 0
      isPPtrCurve: 0
    - path: 4088798008
      attribute: 1
      script: {fileID: 0}
      classID: 4
      customType: 0
      isPPtrCurve: 0
    - path: 2226203566
      attribute: 1
      script: {fileID: 0}
      classID: 4
      customType: 0
      isPPtrCurve: 0
    - path: 498629140
      attribute: 3
      script: {fileID: 0}
      classID: 4
      customType: 0
      isPPtrCurve: 0
    - path: 450215437
      attribute: 3
      script: {fileID: 0}
      classID: 4
      customType: 0
      isPPtrCurve: 0
    - path: 2212294583
      attribute: 3
      script: {fileID: 0}
      classID: 4
      customType: 0
      isPPtrCurve: 0
    - path: 1790921346
      attribute: 3
      script: {fileID: 0}
      classID: 4
      customType: 0
      isPPtrCurve: 0
    - path: 1842515611
      attribute: 3
      script: {fileID: 0}
      classID: 4
      customType: 0
      isPPtrCurve: 0
    - path: 4088798008
      attribute: 3
      script: {fileID: 0}
      classID: 4
      customType: 0
      isPPtrCurve: 0
    - path: 2226203566
      attribute: 3
      script: {fileID: 0}
      classID: 4
      customType: 0
      isPPtrCurve: 0
    - path: 4001473974
      attribute: 3
      script: {fileID: 0}
      classID: 4
      customType: 0
      isPPtrCurve: 0
    - path: 441782503
      attribute: 3
      script: {fileID: 0}
      classID: 4
      customType: 0
      isPPtrCurve: 0
    - path: 3646287034
      attribute: 3
      script: {fileID: 0}
      classID: 4
      customType: 0
      isPPtrCurve: 0
    - path: 593154521
      attribute: 3
      script: {fileID: 0}
      classID: 4
      customType: 0
      isPPtrCurve: 0
    - path: 3646287034
      attribute: 0
      script: {fileID: 0}
      classID: 212
      customType: 23
      isPPtrCurve: 1
    - path: 4240653640
      attribute: 0
      script: {fileID: 0}
      classID: 212
      customType: 23
      isPPtrCurve: 1
    - path: 593154521
      attribute: 0
      script: {fileID: 0}
      classID: 212
      customType: 23
      isPPtrCurve: 1
    - path: 4149357428
      attribute: 0
      script: {fileID: 0}
      classID: 212
      customType: 23
      isPPtrCurve: 1
    pptrCurveMapping:
    - {fileID: 21300000, guid: 642d59129d6fef34a9271039f7503b8e, type: 3}
    - {fileID: 21300000, guid: f28a3f8d345aed54bafbc161b6dc4148, type: 3}
    - {fileID: 21300002, guid: 642d59129d6fef34a9271039f7503b8e, type: 3}
    - {fileID: 21300002, guid: f28a3f8d345aed54bafbc161b6dc4148, type: 3}
  m_AnimationClipSettings:
    serializedVersion: 2
    m_StartTime: 0
    m_StopTime: 1
    m_OrientationOffsetY: 0
    m_Level: 0
    m_CycleOffset: 0
    m_LoopTime: 1
    m_LoopBlend: 0
    m_LoopBlendOrientation: 0
    m_LoopBlendPositionY: 0
    m_LoopBlendPositionXZ: 0
    m_KeepOriginalOrientation: 0
    m_KeepOriginalPositionY: 1
    m_KeepOriginalPositionXZ: 0
    m_HeightFromFeet: 0
    m_Mirror: 0
  m_EditorCurves:
  - curve:
      serializedVersion: 2
      m_Curve:
      - time: 0
        value: 1
        inSlope: .699771881
        outSlope: .699771881
        tangentMode: 10
      - time: .166666672
        value: 1.11662865
        inSlope: 0
        outSlope: 0
        tangentMode: 10
      - time: .333333343
        value: 1
        inSlope: .349886119
        outSlope: .349886119
        tangentMode: 10
      - time: .416666657
        value: 1.11662865
        inSlope: .466514796
        outSlope: .466514796
        tangentMode: 10
      - time: .666666687
        value: 1
        inSlope: -.233257264
        outSlope: -.233257264
        tangentMode: 10
      - time: 1
        value: 1
        inSlope: 0
        outSlope: 0
        tangentMode: 10
      m_PreInfinity: 2
      m_PostInfinity: 2
    attribute: m_LocalScale.x
    path: 6
    classID: 4
    script: {fileID: 0}
  - curve:
      serializedVersion: 2
      m_Curve:
      - time: 0
        value: 1
        inSlope: -.626682758
        outSlope: -.626682758
        tangentMode: 10
      - time: .166666672
        value: .895552874
        inSlope: 0
        outSlope: 0
        tangentMode: 10
      - time: .333333343
        value: 1
        inSlope: -.313341558
        outSlope: -.313341558
        tangentMode: 10
      - time: .416666657
        value: .895552874
        inSlope: -.417788714
        outSlope: -.417788714
        tangentMode: 10
      - time: .666666687
        value: 1
        inSlope: .208894223
        outSlope: .208894223
        tangentMode: 10
      - time: 1
        value: 1
        inSlope: 0
        outSlope: 0
        tangentMode: 10
      m_PreInfinity: 2
      m_PostInfinity: 2
    attribute: m_LocalScale.y
    path: 6
    classID: 4
    script: {fileID: 0}
  - curve:
      serializedVersion: 2
      m_Curve:
      - time: 0
        value: 1
        inSlope: 0
        outSlope: 0
        tangentMode: 10
      - time: .166666672
        value: 1
        inSlope: 0
        outSlope: 0
        tangentMode: 10
      - time: .333333343
        value: 1
        inSlope: 0
        outSlope: 0
        tangentMode: 10
      - time: .416666657
        value: 1
        inSlope: 0
        outSlope: 0
        tangentMode: 10
      - time: .666666687
        value: 1
        inSlope: 0
        outSlope: 0
        tangentMode: 10
      - time: 1
        value: 1
        inSlope: 0
        outSlope: 0
        tangentMode: 10
      m_PreInfinity: 2
      m_PostInfinity: 2
    attribute: m_LocalScale.z
    path: 6
    classID: 4
    script: {fileID: 0}
  - curve:
      serializedVersion: 2
      m_Curve:
      - time: 0
        value: 1
        inSlope: .699771881
        outSlope: .699771881
        tangentMode: 10
      - time: .166666672
        value: 1.11662865
        inSlope: 0
        outSlope: 0
        tangentMode: 10
      - time: .333333343
        value: 1
        inSlope: .349886119
        outSlope: .349886119
        tangentMode: 10
      - time: .416666657
        value: 1.11662865
        inSlope: .466514796
        outSlope: .466514796
        tangentMode: 10
      - time: .666666687
        value: 1
        inSlope: -.233257264
        outSlope: -.233257264
        tangentMode: 10
      - time: 1
        value: 1
        inSlope: 0
        outSlope: 0
        tangentMode: 10
      m_PreInfinity: 2
      m_PostInfinity: 2
    attribute: m_LocalScale.x
    path: 2
    classID: 4
    script: {fileID: 0}
  - curve:
      serializedVersion: 2
      m_Curve:
      - time: 0
        value: 1
        inSlope: -.626682758
        outSlope: -.626682758
        tangentMode: 10
      - time: .166666672
        value: .895552874
        inSlope: 0
        outSlope: 0
        tangentMode: 10
      - time: .333333343
        value: 1
        inSlope: -.313341558
        outSlope: -.313341558
        tangentMode: 10
      - time: .416666657
        value: .895552874
        inSlope: -.417788714
        outSlope: -.417788714
        tangentMode: 10
      - time: .666666687
        value: 1
        inSlope: .208894223
        outSlope: .208894223
        tangentMode: 10
      - time: 1
        value: 1
        inSlope: 0
        outSlope: 0
        tangentMode: 10
      m_PreInfinity: 2
      m_PostInfinity: 2
    attribute: m_LocalScale.y
    path: 2
    classID: 4
    script: {fileID: 0}
  - curve:
      serializedVersion: 2
      m_Curve:
      - time: 0
        value: 1
        inSlope: 0
        outSlope: 0
        tangentMode: 10
      - time: .166666672
        value: 1
        inSlope: 0
        outSlope: 0
        tangentMode: 10
      - time: .333333343
        value: 1
        inSlope: 0
        outSlope: 0
        tangentMode: 10
      - time: .416666657
        value: 1
        inSlope: 0
        outSlope: 0
        tangentMode: 10
      - time: .666666687
        value: 1
        inSlope: 0
        outSlope: 0
        tangentMode: 10
      - time: 1
        value: 1
        inSlope: 0
        outSlope: 0
        tangentMode: 10
      m_PreInfinity: 2
      m_PostInfinity: 2
    attribute: m_LocalScale.z
    path: 2
    classID: 4
    script: {fileID: 0}
  - curve:
      serializedVersion: 2
      m_Curve:
      - time: 0
        value: 1
        inSlope: .699771881
        outSlope: .699771881
        tangentMode: 10
      - time: .166666672
        value: 1.11662865
        inSlope: 0
        outSlope: 0
        tangentMode: 10
      - time: .333333343
        value: 1
        inSlope: .349886119
        outSlope: .349886119
        tangentMode: 10
      - time: .416666657
        value: 1.11662865
        inSlope: .466514796
        outSlope: .466514796
        tangentMode: 10
      - time: .666666687
        value: 1
        inSlope: -.233257264
        outSlope: -.233257264
        tangentMode: 10
      - time: 1
        value: 1
        inSlope: 0
        outSlope: 0
        tangentMode: 10
      m_PreInfinity: 2
      m_PostInfinity: 2
    attribute: m_LocalScale.x
    path: 1
    classID: 4
    script: {fileID: 0}
  - curve:
      serializedVersion: 2
      m_Curve:
      - time: 0
        value: 1
        inSlope: -.626682758
        outSlope: -.626682758
        tangentMode: 10
      - time: .166666672
        value: .895552874
        inSlope: 0
        outSlope: 0
        tangentMode: 10
      - time: .333333343
        value: 1
        inSlope: -.313341558
        outSlope: -.313341558
        tangentMode: 10
      - time: .416666657
        value: .895552874
        inSlope: -.417788714
        outSlope: -.417788714
        tangentMode: 10
      - time: .666666687
        value: 1
        inSlope: .208894223
        outSlope: .208894223
        tangentMode: 10
      - time: 1
        value: 1
        inSlope: 0
        outSlope: 0
        tangentMode: 10
      m_PreInfinity: 2
      m_PostInfinity: 2
    attribute: m_LocalScale.y
    path: 1
    classID: 4
    script: {fileID: 0}
  - curve:
      serializedVersion: 2
      m_Curve:
      - time: 0
        value: 1
        inSlope: 0
        outSlope: 0
        tangentMode: 10
      - time: .166666672
        value: 1
        inSlope: 0
        outSlope: 0
        tangentMode: 10
      - time: .333333343
        value: 1
        inSlope: 0
        outSlope: 0
        tangentMode: 10
      - time: .416666657
        value: 1
        inSlope: 0
        outSlope: 0
        tangentMode: 10
      - time: .666666687
        value: 1
        inSlope: 0
        outSlope: 0
        tangentMode: 10
      - time: 1
        value: 1
        inSlope: 0
        outSlope: 0
        tangentMode: 10
      m_PreInfinity: 2
      m_PostInfinity: 2
    attribute: m_LocalScale.z
    path: 1
    classID: 4
    script: {fileID: 0}
  - curve:
      serializedVersion: 2
      m_Curve:
      - time: 0
        value: 1
        inSlope: .699771881
        outSlope: .699771881
        tangentMode: 10
      - time: .166666672
        value: 1.11662865
        inSlope: 0
        outSlope: 0
        tangentMode: 10
      - time: .333333343
        value: 1
        inSlope: .349886119
        outSlope: .349886119
        tangentMode: 10
      - time: .416666657
        value: 1.11662865
        inSlope: .466514796
        outSlope: .466514796
        tangentMode: 10
      - time: .666666687
        value: 1
        inSlope: -.233257264
        outSlope: -.233257264
        tangentMode: 10
      - time: 1
        value: 1
        inSlope: 0
        outSlope: 0
        tangentMode: 10
      m_PreInfinity: 2
      m_PostInfinity: 2
    attribute: m_LocalScale.x
    path: 7
    classID: 4
    script: {fileID: 0}
  - curve:
      serializedVersion: 2
      m_Curve:
      - time: 0
        value: 1
        inSlope: -.626682758
        outSlope: -.626682758
        tangentMode: 10
      - time: .166666672
        value: .895552874
        inSlope: 0
        outSlope: 0
        tangentMode: 10
      - time: .333333343
        value: 1
        inSlope: -.313341558
        outSlope: -.313341558
        tangentMode: 10
      - time: .416666657
        value: .895552874
        inSlope: -.417788714
        outSlope: -.417788714
        tangentMode: 10
      - time: .666666687
        value: 1
        inSlope: .208894223
        outSlope: .208894223
        tangentMode: 10
      - time: 1
        value: 1
        inSlope: 0
        outSlope: 0
        tangentMode: 10
      m_PreInfinity: 2
      m_PostInfinity: 2
    attribute: m_LocalScale.y
    path: 7
    classID: 4
    script: {fileID: 0}
  - curve:
      serializedVersion: 2
      m_Curve:
      - time: 0
        value: 1
        inSlope: 0
        outSlope: 0
        tangentMode: 10
      - time: .166666672
        value: 1
        inSlope: 0
        outSlope: 0
        tangentMode: 10
      - time: .333333343
        value: 1
        inSlope: 0
        outSlope: 0
        tangentMode: 10
      - time: .416666657
        value: 1
        inSlope: 0
        outSlope: 0
        tangentMode: 10
      - time: .666666687
        value: 1
        inSlope: 0
        outSlope: 0
        tangentMode: 10
      - time: 1
        value: 1
        inSlope: 0
        outSlope: 0
        tangentMode: 10
      m_PreInfinity: 2
      m_PostInfinity: 2
    attribute: m_LocalScale.z
    path: 7
    classID: 4
    script: {fileID: 0}
  - curve:
      serializedVersion: 2
      m_Curve:
      - time: 0
        value: 1
        inSlope: .699771881
        outSlope: .699771881
        tangentMode: 10
      - time: .166666672
        value: 1.11662865
        inSlope: 0
        outSlope: 0
        tangentMode: 10
      - time: .333333343
        value: 1
        inSlope: .349886119
        outSlope: .349886119
        tangentMode: 10
      - time: .416666657
        value: 1.11662865
        inSlope: .466514796
        outSlope: .466514796
        tangentMode: 10
      - time: .666666687
        value: 1
        inSlope: -.233257264
        outSlope: -.233257264
        tangentMode: 10
      - time: 1
        value: 1
        inSlope: 0
        outSlope: 0
        tangentMode: 10
      m_PreInfinity: 2
      m_PostInfinity: 2
    attribute: m_LocalScale.x
    path: 3
    classID: 4
    script: {fileID: 0}
  - curve:
      serializedVersion: 2
      m_Curve:
      - time: 0
        value: 1
        inSlope: -.626682758
        outSlope: -.626682758
        tangentMode: 10
      - time: .166666672
        value: .895552874
        inSlope: 0
        outSlope: 0
        tangentMode: 10
      - time: .333333343
        value: 1
        inSlope: -.313341558
        outSlope: -.313341558
        tangentMode: 10
      - time: .416666657
        value: .895552874
        inSlope: -.417788714
        outSlope: -.417788714
        tangentMode: 10
      - time: .666666687
        value: 1
        inSlope: .208894223
        outSlope: .208894223
        tangentMode: 10
      - time: 1
        value: 1
        inSlope: 0
        outSlope: 0
        tangentMode: 10
      m_PreInfinity: 2
      m_PostInfinity: 2
    attribute: m_LocalScale.y
    path: 3
    classID: 4
    script: {fileID: 0}
  - curve:
      serializedVersion: 2
      m_Curve:
      - time: 0
        value: 1
        inSlope: 0
        outSlope: 0
        tangentMode: 10
      - time: .166666672
        value: 1
        inSlope: 0
        outSlope: 0
        tangentMode: 10
      - time: .333333343
        value: 1
        inSlope: 0
        outSlope: 0
        tangentMode: 10
      - time: .416666657
        value: 1
        inSlope: 0
        outSlope: 0
        tangentMode: 10
      - time: .666666687
        value: 1
        inSlope: 0
        outSlope: 0
        tangentMode: 10
      - time: 1
        value: 1
        inSlope: 0
        outSlope: 0
        tangentMode: 10
      m_PreInfinity: 2
      m_PostInfinity: 2
    attribute: m_LocalScale.z
    path: 3
    classID: 4
    script: {fileID: 0}
  - curve:
      serializedVersion: 2
      m_Curve:
      - time: 0
        value: 1
        inSlope: .699771881
        outSlope: .699771881
        tangentMode: 10
      - time: .166666672
        value: 1.11662865
        inSlope: 0
        outSlope: 0
        tangentMode: 10
      - time: .333333343
        value: 1
        inSlope: .349886119
        outSlope: .349886119
        tangentMode: 10
      - time: .416666657
        value: 1.11662865
        inSlope: .466514796
        outSlope: .466514796
        tangentMode: 10
      - time: .666666687
        value: 1
        inSlope: -.233257264
        outSlope: -.233257264
        tangentMode: 10
      - time: 1
        value: 1
        inSlope: 0
        outSlope: 0
        tangentMode: 10
      m_PreInfinity: 2
      m_PostInfinity: 2
    attribute: m_LocalScale.x
    path: 4
    classID: 4
    script: {fileID: 0}
  - curve:
      serializedVersion: 2
      m_Curve:
      - time: 0
        value: 1
        inSlope: -.626682758
        outSlope: -.626682758
        tangentMode: 10
      - time: .166666672
        value: .895552874
        inSlope: 0
        outSlope: 0
        tangentMode: 10
      - time: .333333343
        value: 1
        inSlope: -.313341558
        outSlope: -.313341558
        tangentMode: 10
      - time: .416666657
        value: .895552874
        inSlope: -.417788714
        outSlope: -.417788714
        tangentMode: 10
      - time: .666666687
        value: 1
        inSlope: .208894223
        outSlope: .208894223
        tangentMode: 10
      - time: 1
        value: 1
        inSlope: 0
        outSlope: 0
        tangentMode: 10
      m_PreInfinity: 2
      m_PostInfinity: 2
    attribute: m_LocalScale.y
    path: 4
    classID: 4
    script: {fileID: 0}
  - curve:
      serializedVersion: 2
      m_Curve:
      - time: 0
        value: 1
        inSlope: 0
        outSlope: 0
        tangentMode: 10
      - time: .166666672
        value: 1
        inSlope: 0
        outSlope: 0
        tangentMode: 10
      - time: .333333343
        value: 1
        inSlope: 0
        outSlope: 0
        tangentMode: 10
      - time: .416666657
        value: 1
        inSlope: 0
        outSlope: 0
        tangentMode: 10
      - time: .666666687
        value: 1
        inSlope: 0
        outSlope: 0
        tangentMode: 10
      - time: 1
        value: 1
        inSlope: 0
        outSlope: 0
        tangentMode: 10
      m_PreInfinity: 2
      m_PostInfinity: 2
    attribute: m_LocalScale.z
    path: 4
    classID: 4
    script: {fileID: 0}
  - curve:
      serializedVersion: 2
      m_Curve:
      - time: 0
        value: 1
        inSlope: .699771881
        outSlope: .699771881
        tangentMode: 10
      - time: .166666672
        value: 1.11662865
        inSlope: 0
        outSlope: 0
        tangentMode: 10
      - time: .333333343
        value: 1
        inSlope: .349886119
        outSlope: .349886119
        tangentMode: 10
      - time: .416666657
        value: 1.11662865
        inSlope: .466514796
        outSlope: .466514796
        tangentMode: 10
      - time: .666666687
        value: 1
        inSlope: -.233257264
        outSlope: -.233257264
        tangentMode: 10
      - time: 1
        value: 1
        inSlope: 0
        outSlope: 0
        tangentMode: 10
      m_PreInfinity: 2
      m_PostInfinity: 2
    attribute: m_LocalScale.x
    path: 5
    classID: 4
    script: {fileID: 0}
  - curve:
      serializedVersion: 2
      m_Curve:
      - time: 0
        value: 1
        inSlope: -.626682758
        outSlope: -.626682758
        tangentMode: 10
      - time: .166666672
        value: .895552874
        inSlope: 0
        outSlope: 0
        tangentMode: 10
      - time: .333333343
        value: 1
        inSlope: -.313341558
        outSlope: -.313341558
        tangentMode: 10
      - time: .416666657
        value: .895552874
        inSlope: -.417788714
        outSlope: -.417788714
        tangentMode: 10
      - time: .666666687
        value: 1
        inSlope: .208894223
        outSlope: .208894223
        tangentMode: 10
      - time: 1
        value: 1
        inSlope: 0
        outSlope: 0
        tangentMode: 10
      m_PreInfinity: 2
      m_PostInfinity: 2
    attribute: m_LocalScale.y
    path: 5
    classID: 4
    script: {fileID: 0}
  - curve:
      serializedVersion: 2
      m_Curve:
      - time: 0
        value: 1
        inSlope: 0
        outSlope: 0
        tangentMode: 10
      - time: .166666672
        value: 1
        inSlope: 0
        outSlope: 0
        tangentMode: 10
      - time: .333333343
        value: 1
        inSlope: 0
        outSlope: 0
        tangentMode: 10
      - time: .416666657
        value: 1
        inSlope: 0
        outSlope: 0
        tangentMode: 10
      - time: .666666687
        value: 1
        inSlope: 0
        outSlope: 0
        tangentMode: 10
      - time: 1
        value: 1
        inSlope: 0
        outSlope: 0
        tangentMode: 10
      m_PreInfinity: 2
      m_PostInfinity: 2
    attribute: m_LocalScale.z
    path: 5
    classID: 4
    script: {fileID: 0}
  - curve:
      serializedVersion: 2
      m_Curve:
      - time: 0
        value: .150000095
        inSlope: -.180000588
        outSlope: -.180000588
        tangentMode: 10
      - time: .166666672
        value: .119999997
        inSlope: 0
        outSlope: 0
        tangentMode: 10
      - time: .333333343
        value: .150000095
        inSlope: -.0900003389
        outSlope: -.0900003389
        tangentMode: 10
      - time: .416666657
        value: .119999997
        inSlope: -.120000444
        outSlope: -.120000444
        tangentMode: 10
      - time: .666666687
        value: .150000095
        inSlope: .0600001886
        outSlope: .0600001886
        tangentMode: 10
      - time: 1
        value: .150000095
        inSlope: 0
        outSlope: 0
        tangentMode: 10
      m_PreInfinity: 2
      m_PostInfinity: 2
    attribute: m_LocalPosition.x
    path: teethT
    classID: 4
    script: {fileID: 0}
  - curve:
      serializedVersion: 2
      m_Curve:
      - time: 0
        value: .25
        inSlope: -1.31999993
        outSlope: -1.31999993
        tangentMode: 10
      - time: .166666672
        value: .0299999993
        inSlope: 0
        outSlope: 0
        tangentMode: 10
      - time: .333333343
        value: .25
        inSlope: -.660000324
        outSlope: -.660000324
        tangentMode: 10
      - time: .416666657
        value: .0299999993
        inSlope: -.880000353
        outSlope: -.880000353
        tangentMode: 10
      - time: .666666687
        value: .25
        inSlope: .439999938
        outSlope: .439999938
        tangentMode: 10
      - time: 1
        value: .25
        inSlope: 0
        outSlope: 0
        tangentMode: 10
      m_PreInfinity: 2
      m_PostInfinity: 2
    attribute: m_LocalPosition.y
    path: teethT
    classID: 4
    script: {fileID: 0}
  - curve:
      serializedVersion: 2
      m_Curve:
      - time: 0
        value: 0
        inSlope: 0
        outSlope: 0
        tangentMode: 10
      - time: .166666672
        value: 0
        inSlope: 0
        outSlope: 0
        tangentMode: 10
      - time: .333333343
        value: 0
        inSlope: 0
        outSlope: 0
        tangentMode: 10
      - time: .416666657
        value: 0
        inSlope: 0
        outSlope: 0
        tangentMode: 10
      - time: .666666687
        value: 0
        inSlope: 0
        outSlope: 0
        tangentMode: 10
      - time: 1
        value: 0
        inSlope: 0
        outSlope: 0
        tangentMode: 10
      m_PreInfinity: 2
      m_PostInfinity: 2
    attribute: m_LocalPosition.z
    path: teethT
    classID: 4
    script: {fileID: 0}
  - curve:
      serializedVersion: 2
      m_Curve:
      - time: 0
        value: 1
        inSlope: 0
        outSlope: 0
        tangentMode: 10
      - time: .166666672
        value: 1
        inSlope: 0
        outSlope: 0
        tangentMode: 10
      - time: .333333343
        value: 1
        inSlope: 0
        outSlope: 0
        tangentMode: 10
      - time: .416666657
        value: 1
        inSlope: 0
        outSlope: 0
        tangentMode: 10
      - time: .666666687
        value: 1
        inSlope: 0
        outSlope: 0
        tangentMode: 10
      - time: 1
        value: 1
        inSlope: 0
        outSlope: 0
        tangentMode: 10
      m_PreInfinity: 2
      m_PostInfinity: 2
    attribute: m_LocalScale.x
    path: teethT
    classID: 4
    script: {fileID: 0}
  - curve:
      serializedVersion: 2
      m_Curve:
      - time: 0
        value: 1
        inSlope: -.895112872
        outSlope: -.895112872
        tangentMode: 10
      - time: .166666672
        value: .850814521
        inSlope: 0
        outSlope: 0
        tangentMode: 10
      - time: .333333343
        value: 1
        inSlope: -.447556674
        outSlope: -.447556674
        tangentMode: 10
      - time: .416666657
        value: .850814521
        inSlope: -.596742153
        outSlope: -.596742153
        tangentMode: 10
      - time: .666666687
        value: 1
        inSlope: .298370928
        outSlope: .298370928
        tangentMode: 10
      - time: 1
        value: 1
        inSlope: 0
        outSlope: 0
        tangentMode: 10
      m_PreInfinity: 2
      m_PostInfinity: 2
    attribute: m_LocalScale.y
    path: teethT
    classID: 4
    script: {fileID: 0}
  - curve:
      serializedVersion: 2
      m_Curve:
      - time: 0
        value: 1
        inSlope: 0
        outSlope: 0
        tangentMode: 10
      - time: .166666672
        value: 1
        inSlope: 0
        outSlope: 0
        tangentMode: 10
      - time: .333333343
        value: 1
        inSlope: 0
        outSlope: 0
        tangentMode: 10
      - time: .416666657
        value: 1
        inSlope: 0
        outSlope: 0
        tangentMode: 10
      - time: .666666687
        value: 1
        inSlope: 0
        outSlope: 0
        tangentMode: 10
      - time: 1
        value: 1
        inSlope: 0
        outSlope: 0
        tangentMode: 10
      m_PreInfinity: 2
      m_PostInfinity: 2
    attribute: m_LocalScale.z
    path: teethT
    classID: 4
    script: {fileID: 0}
  - curve:
      serializedVersion: 2
      m_Curve:
      - time: 0
        value: -.0899996758
        inSlope: .179998055
        outSlope: .179998055
        tangentMode: 10
      - time: .166666672
        value: -.0599999987
        inSlope: 0
        outSlope: 0
        tangentMode: 10
      - time: .333333343
        value: -.0899996758
        inSlope: .0899990723
        outSlope: .0899990723
        tangentMode: 10
      - time: .416666657
        value: -.0599999987
        inSlope: .119998753
        outSlope: .119998753
        tangentMode: 10
      - time: .666666687
        value: -.0899996758
        inSlope: -.0599993467
        outSlope: -.0599993467
        tangentMode: 10
      - time: 1
        value: -.0899996758
        inSlope: 0
        outSlope: 0
        tangentMode: 10
      m_PreInfinity: 2
      m_PostInfinity: 2
    attribute: m_LocalPosition.x
    path: teethB
    classID: 4
    script: {fileID: 0}
  - curve:
      serializedVersion: 2
      m_Curve:
      - time: 0
        value: -1.79000008
        inSlope: 1.98000026
        outSlope: 1.98000026
        tangentMode: 10
      - time: .166666672
        value: -1.46000004
        inSlope: 0
        outSlope: 0
        tangentMode: 10
      - time: .333333343
        value: -1.79000008
        inSlope: .990000606
        outSlope: .990000606
        tangentMode: 10
      - time: .416666657
        value: -1.46000004
        inSlope: 1.32000065
        outSlope: 1.32000065
        tangentMode: 10
      - time: .666666687
        value: -1.79000008
        inSlope: -.660000026
        outSlope: -.660000026
        tangentMode: 10
      - time: 1
        value: -1.79000008
        inSlope: 0
        outSlope: 0
        tangentMode: 10
      m_PreInfinity: 2
      m_PostInfinity: 2
    attribute: m_LocalPosition.y
    path: teethB
    classID: 4
    script: {fileID: 0}
  - curve:
      serializedVersion: 2
      m_Curve:
      - time: 0
        value: 0
        inSlope: 0
        outSlope: 0
        tangentMode: 10
      - time: .166666672
        value: 0
        inSlope: 0
        outSlope: 0
        tangentMode: 10
      - time: .333333343
        value: 0
        inSlope: 0
        outSlope: 0
        tangentMode: 10
      - time: .416666657
        value: 0
        inSlope: 0
        outSlope: 0
        tangentMode: 10
      - time: .666666687
        value: 0
        inSlope: 0
        outSlope: 0
        tangentMode: 10
      - time: 1
        value: 0
        inSlope: 0
        outSlope: 0
        tangentMode: 10
      m_PreInfinity: 2
      m_PostInfinity: 2
    attribute: m_LocalPosition.z
    path: teethB
    classID: 4
    script: {fileID: 0}
  - curve:
      serializedVersion: 2
      m_Curve:
      - time: 0
        value: 1
        inSlope: 0
        outSlope: 0
        tangentMode: 10
      - time: .166666672
        value: 1
        inSlope: 0
        outSlope: 0
        tangentMode: 10
      - time: .333333343
        value: 1
        inSlope: 0
        outSlope: 0
        tangentMode: 10
      - time: .416666657
        value: 1
        inSlope: 0
        outSlope: 0
        tangentMode: 10
      - time: .666666687
        value: 1
        inSlope: 0
        outSlope: 0
        tangentMode: 10
      - time: 1
        value: 1
        inSlope: 0
        outSlope: 0
        tangentMode: 10
      m_PreInfinity: 2
      m_PostInfinity: 2
    attribute: m_LocalScale.x
    path: teethB
    classID: 4
    script: {fileID: 0}
  - curve:
      serializedVersion: 2
      m_Curve:
      - time: 0
        value: 1
        inSlope: -.912668467
        outSlope: -.912668467
        tangentMode: 10
      - time: .166666672
        value: .847888589
        inSlope: 0
        outSlope: 0
        tangentMode: 10
      - time: .333333343
        value: 1
        inSlope: -.456334472
        outSlope: -.456334472
        tangentMode: 10
      - time: .416666657
        value: .847888589
        inSlope: -.608445883
        outSlope: -.608445883
        tangentMode: 10
      - time: .666666687
        value: 1
        inSlope: .304222792
        outSlope: .304222792
        tangentMode: 10
      - time: 1
        value: 1
        inSlope: 0
        outSlope: 0
        tangentMode: 10
      m_PreInfinity: 2
      m_PostInfinity: 2
    attribute: m_LocalScale.y
    path: teethB
    classID: 4
    script: {fileID: 0}
  - curve:
      serializedVersion: 2
      m_Curve:
      - time: 0
        value: 1
        inSlope: 0
        outSlope: 0
        tangentMode: 10
      - time: .166666672
        value: 1
        inSlope: 0
        outSlope: 0
        tangentMode: 10
      - time: .333333343
        value: 1
        inSlope: 0
        outSlope: 0
        tangentMode: 10
      - time: .416666657
        value: 1
        inSlope: 0
        outSlope: 0
        tangentMode: 10
      - time: .666666687
        value: 1
        inSlope: 0
        outSlope: 0
        tangentMode: 10
      - time: 1
        value: 1
        inSlope: 0
        outSlope: 0
        tangentMode: 10
      m_PreInfinity: 2
      m_PostInfinity: 2
    attribute: m_LocalScale.z
    path: teethB
    classID: 4
    script: {fileID: 0}
  - curve:
      serializedVersion: 2
      m_Curve:
      - time: 0
        value: 2.46400023
        inSlope: 1.77599859
        outSlope: 1.77599859
        tangentMode: 10
      - time: .166666672
        value: 2.75999999
        inSlope: 0
        outSlope: 0
        tangentMode: 10
      - time: .333333343
        value: 2.46400023
        inSlope: .887999773
        outSlope: .887999773
        tangentMode: 10
      - time: .416666657
        value: 2.75999999
        inSlope: 1.18399954
        outSlope: 1.18399954
        tangentMode: 10
      - time: .666666687
        value: 2.46400023
        inSlope: -.591999471
        outSlope: -.591999471
        tangentMode: 10
      - time: 1
        value: 2.46400023
        inSlope: 0
        outSlope: 0
        tangentMode: 10
      m_PreInfinity: 2
      m_PostInfinity: 2
    attribute: m_LocalPosition.x
    path: 6
    classID: 4
    script: {fileID: 0}
  - curve:
      serializedVersion: 2
      m_Curve:
      - time: 0
        value: -1.53200006
        inSlope: -.347999811
        outSlope: -.347999811
        tangentMode: 10
      - time: .166666672
        value: -1.59000003
        inSlope: 0
        outSlope: 0
        tangentMode: 10
      - time: .333333343
        value: -1.53200006
        inSlope: -.173999995
        outSlope: -.173999995
        tangentMode: 10
      - time: .416666657
        value: -1.59000003
        inSlope: -.231999978
        outSlope: -.231999978
        tangentMode: 10
      - time: .666666687
        value: -1.53200006
        inSlope: .115999922
        outSlope: .115999922
        tangentMode: 10
      - time: 1
        value: -1.53200006
        inSlope: 0
        outSlope: 0
        tangentMode: 10
      m_PreInfinity: 2
      m_PostInfinity: 2
    attribute: m_LocalPosition.y
    path: 6
    classID: 4
    script: {fileID: 0}
  - curve:
      serializedVersion: 2
      m_Curve:
      - time: 0
        value: 0
        inSlope: 0
        outSlope: 0
        tangentMode: 10
      - time: .166666672
        value: 0
        inSlope: 0
        outSlope: 0
        tangentMode: 10
      - time: .333333343
        value: 0
        inSlope: 0
        outSlope: 0
        tangentMode: 10
      - time: .416666657
        value: 0
        inSlope: 0
        outSlope: 0
        tangentMode: 10
      - time: .666666687
        value: 0
        inSlope: 0
        outSlope: 0
        tangentMode: 10
      - time: 1
        value: 0
        inSlope: 0
        outSlope: 0
        tangentMode: 10
      m_PreInfinity: 2
      m_PostInfinity: 2
    attribute: m_LocalPosition.z
    path: 6
    classID: 4
    script: {fileID: 0}
  - curve:
      serializedVersion: 2
      m_Curve:
      - time: 0
        value: -1.9749999
        inSlope: -1.35000086
        outSlope: -1.35000086
        tangentMode: 10
      - time: .166666672
        value: -2.20000005
        inSlope: 0
        outSlope: 0
        tangentMode: 10
      - time: .333333343
        value: -1.9749999
        inSlope: -.675000787
        outSlope: -.675000787
        tangentMode: 10
      - time: .416666657
        value: -2.20000005
        inSlope: -.900000989
        outSlope: -.900000989
        tangentMode: 10
      - time: .666666687
        value: -1.9749999
        inSlope: .450000226
        outSlope: .450000226
        tangentMode: 10
      - time: 1
        value: -1.9749999
        inSlope: 0
        outSlope: 0
        tangentMode: 10
      m_PreInfinity: 2
      m_PostInfinity: 2
    attribute: m_LocalPosition.x
    path: 2
    classID: 4
    script: {fileID: 0}
  - curve:
      serializedVersion: 2
      m_Curve:
      - time: 0
        value: -1.40100002
        inSlope: -.473999977
        outSlope: -.473999977
        tangentMode: 10
      - time: .166666672
        value: -1.48000002
        inSlope: 0
        outSlope: 0
        tangentMode: 10
      - time: .333333343
        value: -1.40100002
        inSlope: -.237000108
        outSlope: -.237000108
        tangentMode: 10
      - time: .416666657
        value: -1.48000002
        inSlope: -.316000104
        outSlope: -.316000104
        tangentMode: 10
      - time: .666666687
        value: -1.40100002
        inSlope: .157999977
        outSlope: .157999977
        tangentMode: 10
      - time: 1
        value: -1.40100002
        inSlope: 0
        outSlope: 0
        tangentMode: 10
      m_PreInfinity: 2
      m_PostInfinity: 2
    attribute: m_LocalPosition.y
    path: 2
    classID: 4
    script: {fileID: 0}
  - curve:
      serializedVersion: 2
      m_Curve:
      - time: 0
        value: 0
        inSlope: 0
        outSlope: 0
        tangentMode: 10
      - time: .166666672
        value: 0
        inSlope: 0
        outSlope: 0
        tangentMode: 10
      - time: .333333343
        value: 0
        inSlope: 0
        outSlope: 0
        tangentMode: 10
      - time: .416666657
        value: 0
        inSlope: 0
        outSlope: 0
        tangentMode: 10
      - time: .666666687
        value: 0
        inSlope: 0
        outSlope: 0
        tangentMode: 10
      - time: 1
        value: 0
        inSlope: 0
        outSlope: 0
        tangentMode: 10
      m_PreInfinity: 2
      m_PostInfinity: 2
    attribute: m_LocalPosition.z
    path: 2
    classID: 4
    script: {fileID: 0}
  - curve:
      serializedVersion: 2
      m_Curve:
      - time: 0
        value: 2.86100054
        inSlope: 2.03399706
        outSlope: 2.03399706
        tangentMode: 10
      - time: .166666672
        value: 3.20000005
        inSlope: 0
        outSlope: 0
        tangentMode: 10
      - time: .333333343
        value: 2.86100054
        inSlope: 1.01699901
        outSlope: 1.01699901
        tangentMode: 10
      - time: .416666657
        value: 3.20000005
        inSlope: 1.35599852
        outSlope: 1.35599852
        tangentMode: 10
      - time: .666666687
        value: 2.86100054
        inSlope: -.67799896
        outSlope: -.67799896
        tangentMode: 10
      - time: 1
        value: 2.86100054
        inSlope: 0
        outSlope: 0
        tangentMode: 10
      m_PreInfinity: 2
      m_PostInfinity: 2
    attribute: m_LocalPosition.x
    path: 7
    classID: 4
    script: {fileID: 0}
  - curve:
      serializedVersion: 2
      m_Curve:
      - time: 0
        value: -1.85600007
        inSlope: -.143999577
        outSlope: -.143999577
        tangentMode: 10
      - time: .166666672
        value: -1.88
        inSlope: 0
        outSlope: 0
        tangentMode: 10
      - time: .333333343
        value: -1.85600007
        inSlope: -.0719998181
        outSlope: -.0719998181
        tangentMode: 10
      - time: .416666657
        value: -1.88
        inSlope: -.095999755
        outSlope: -.095999755
        tangentMode: 10
      - time: .666666687
        value: -1.85600007
        inSlope: .0479998514
        outSlope: .0479998514
        tangentMode: 10
      - time: 1
        value: -1.85600007
        inSlope: 0
        outSlope: 0
        tangentMode: 10
      m_PreInfinity: 2
      m_PostInfinity: 2
    attribute: m_LocalPosition.y
    path: 7
    classID: 4
    script: {fileID: 0}
  - curve:
      serializedVersion: 2
      m_Curve:
      - time: 0
        value: 0
        inSlope: 0
        outSlope: 0
        tangentMode: 10
      - time: .166666672
        value: 0
        inSlope: 0
        outSlope: 0
        tangentMode: 10
      - time: .333333343
        value: 0
        inSlope: 0
        outSlope: 0
        tangentMode: 10
      - time: .416666657
        value: 0
        inSlope: 0
        outSlope: 0
        tangentMode: 10
      - time: .666666687
        value: 0
        inSlope: 0
        outSlope: 0
        tangentMode: 10
      - time: 1
        value: 0
        inSlope: 0
        outSlope: 0
        tangentMode: 10
      m_PreInfinity: 2
      m_PostInfinity: 2
    attribute: m_LocalPosition.z
    path: 7
    classID: 4
    script: {fileID: 0}
  - curve:
      serializedVersion: 2
      m_Curve:
      - time: 0
        value: -3.23899984
        inSlope: -2.22600031
        outSlope: -2.22600031
        tangentMode: 10
      - time: .166666672
        value: -3.6099999
        inSlope: 0
        outSlope: 0
        tangentMode: 10
      - time: .333333343
        value: -3.23899984
        inSlope: -1.11300063
        outSlope: -1.11300063
        tangentMode: 10
      - time: .416666657
        value: -3.6099999
        inSlope: -1.48400068
        outSlope: -1.48400068
        tangentMode: 10
      - time: .666666687
        value: -3.23899984
        inSlope: .742000043
        outSlope: .742000043
        tangentMode: 10
      - time: 1
        value: -3.23899984
        inSlope: 0
        outSlope: 0
        tangentMode: 10
      m_PreInfinity: 2
      m_PostInfinity: 2
    attribute: m_LocalPosition.x
    path: 1
    classID: 4
    script: {fileID: 0}
  - curve:
      serializedVersion: 2
      m_Curve:
      - time: 0
        value: -1.31900001
        inSlope: -.485999823
        outSlope: -.485999823
        tangentMode: 10
      - time: .166666672
        value: -1.39999998
        inSlope: 0
        outSlope: 0
        tangentMode: 10
      - time: .333333343
        value: -1.31900001
        inSlope: -.243000031
        outSlope: -.243000031
        tangentMode: 10
      - time: .416666657
        value: -1.39999998
        inSlope: -.324000001
        outSlope: -.324000001
        tangentMode: 10
      - time: .666666687
        value: -1.31900001
        inSlope: .161999926
        outSlope: .161999926
        tangentMode: 10
      - time: 1
        value: -1.31900001
        inSlope: 0
        outSlope: 0
        tangentMode: 10
      m_PreInfinity: 2
      m_PostInfinity: 2
    attribute: m_LocalPosition.y
    path: 1
    classID: 4
    script: {fileID: 0}
  - curve:
      serializedVersion: 2
      m_Curve:
      - time: 0
        value: 0
        inSlope: 0
        outSlope: 0
        tangentMode: 10
      - time: .166666672
        value: 0
        inSlope: 0
        outSlope: 0
        tangentMode: 10
      - time: .333333343
        value: 0
        inSlope: 0
        outSlope: 0
        tangentMode: 10
      - time: .416666657
        value: 0
        inSlope: 0
        outSlope: 0
        tangentMode: 10
      - time: .666666687
        value: 0
        inSlope: 0
        outSlope: 0
        tangentMode: 10
      - time: 1
        value: 0
        inSlope: 0
        outSlope: 0
        tangentMode: 10
      m_PreInfinity: 2
      m_PostInfinity: 2
    attribute: m_LocalPosition.z
    path: 1
    classID: 4
    script: {fileID: 0}
  - curve:
      serializedVersion: 2
      m_Curve:
      - time: 0
        value: -.821000099
        inSlope: -.533999562
        outSlope: -.533999562
        tangentMode: 10
      - time: .166666672
        value: -.910000026
        inSlope: 0
        outSlope: 0
        tangentMode: 10
      - time: .333333343
        value: -.821000099
        inSlope: -.2669999
        outSlope: -.2669999
        tangentMode: 10
      - time: .416666657
        value: -.910000026
        inSlope: -.355999827
        outSlope: -.355999827
        tangentMode: 10
      - time: .666666687
        value: -.821000099
        inSlope: .177999839
        outSlope: .177999839
        tangentMode: 10
      - time: 1
        value: -.821000099
        inSlope: 0
        outSlope: 0
        tangentMode: 10
      m_PreInfinity: 2
      m_PostInfinity: 2
    attribute: m_LocalPosition.x
    path: 3
    classID: 4
    script: {fileID: 0}
  - curve:
      serializedVersion: 2
      m_Curve:
      - time: 0
        value: -1.43000007
        inSlope: -.419999599
        outSlope: -.419999599
        tangentMode: 10
      - time: .166666672
        value: -1.5
        inSlope: 0
        outSlope: 0
        tangentMode: 10
      - time: .333333343
        value: -1.43000007
        inSlope: -.209999889
        outSlope: -.209999889
        tangentMode: 10
      - time: .416666657
        value: -1.5
        inSlope: -.279999852
        outSlope: -.279999852
        tangentMode: 10
      - time: .666666687
        value: -1.43000007
        inSlope: .139999852
        outSlope: .139999852
        tangentMode: 10
      - time: 1
        value: -1.43000007
        inSlope: 0
        outSlope: 0
        tangentMode: 10
      m_PreInfinity: 2
      m_PostInfinity: 2
    attribute: m_LocalPosition.y
    path: 3
    classID: 4
    script: {fileID: 0}
  - curve:
      serializedVersion: 2
      m_Curve:
      - time: 0
        value: 0
        inSlope: 0
        outSlope: 0
        tangentMode: 10
      - time: .166666672
        value: 0
        inSlope: 0
        outSlope: 0
        tangentMode: 10
      - time: .333333343
        value: 0
        inSlope: 0
        outSlope: 0
        tangentMode: 10
      - time: .416666657
        value: 0
        inSlope: 0
        outSlope: 0
        tangentMode: 10
      - time: .666666687
        value: 0
        inSlope: 0
        outSlope: 0
        tangentMode: 10
      - time: 1
        value: 0
        inSlope: 0
        outSlope: 0
        tangentMode: 10
      m_PreInfinity: 2
      m_PostInfinity: 2
    attribute: m_LocalPosition.z
    path: 3
    classID: 4
    script: {fileID: 0}
  - curve:
      serializedVersion: 2
      m_Curve:
      - time: 0
        value: .309000015
        inSlope: .245999873
        outSlope: .245999873
        tangentMode: 10
      - time: .166666672
        value: .349999994
        inSlope: 0
        outSlope: 0
        tangentMode: 10
      - time: .333333343
        value: .309000015
        inSlope: .122999996
        outSlope: .122999996
        tangentMode: 10
      - time: .416666657
        value: .349999994
        inSlope: .163999975
        outSlope: .163999975
        tangentMode: 10
      - time: .666666687
        value: .309000015
        inSlope: -.0819999501
        outSlope: -.0819999501
        tangentMode: 10
      - time: 1
        value: .309000015
        inSlope: 0
        outSlope: 0
        tangentMode: 10
      m_PreInfinity: 2
      m_PostInfinity: 2
    attribute: m_LocalPosition.x
    path: 4
    classID: 4
    script: {fileID: 0}
  - curve:
      serializedVersion: 2
      m_Curve:
      - time: 0
        value: -1.36600006
        inSlope: -.444000006
        outSlope: -.444000006
        tangentMode: 10
      - time: .166666672
        value: -1.44000006
        inSlope: 0
        outSlope: 0
        tangentMode: 10
      - time: .333333343
        value: -1.36600006
        inSlope: -.222000122
        outSlope: -.222000122
        tangentMode: 10
      - time: .416666657
        value: -1.44000006
        inSlope: -.296000123
        outSlope: -.296000123
        tangentMode: 10
      - time: .666666687
        value: -1.36600006
        inSlope: .147999987
        outSlope: .147999987
        tangentMode: 10
      - time: 1
        value: -1.36600006
        inSlope: 0
        outSlope: 0
        tangentMode: 10
      m_PreInfinity: 2
      m_PostInfinity: 2
    attribute: m_LocalPosition.y
    path: 4
    classID: 4
    script: {fileID: 0}
  - curve:
      serializedVersion: 2
      m_Curve:
      - time: 0
        value: 0
        inSlope: 0
        outSlope: 0
        tangentMode: 10
      - time: .166666672
        value: 0
        inSlope: 0
        outSlope: 0
        tangentMode: 10
      - time: .333333343
        value: 0
        inSlope: 0
        outSlope: 0
        tangentMode: 10
      - time: .416666657
        value: 0
        inSlope: 0
        outSlope: 0
        tangentMode: 10
      - time: .666666687
        value: 0
        inSlope: 0
        outSlope: 0
        tangentMode: 10
      - time: 1
        value: 0
        inSlope: 0
        outSlope: 0
        tangentMode: 10
      m_PreInfinity: 2
      m_PostInfinity: 2
    attribute: m_LocalPosition.z
    path: 4
    classID: 4
    script: {fileID: 0}
  - curve:
      serializedVersion: 2
      m_Curve:
      - time: 0
        value: 1.50200033
        inSlope: 1.12799835
        outSlope: 1.12799835
        tangentMode: 10
      - time: .166666672
        value: 1.69000006
        inSlope: 0
        outSlope: 0
        tangentMode: 10
      - time: .333333343
        value: 1.50200033
        inSlope: .563999414
        outSlope: .563999414
        tangentMode: 10
      - time: .416666657
        value: 1.69000006
        inSlope: .751999199
        outSlope: .751999199
        tangentMode: 10
      - time: .666666687
        value: 1.50200033
        inSlope: -.375999391
        outSlope: -.375999391
        tangentMode: 10
      - time: 1
        value: 1.50200033
        inSlope: 0
        outSlope: 0
        tangentMode: 10
      m_PreInfinity: 2
      m_PostInfinity: 2
    attribute: m_LocalPosition.x
    path: 5
    classID: 4
    script: {fileID: 0}
  - curve:
      serializedVersion: 2
      m_Curve:
      - time: 0
        value: -1.48500013
        inSlope: -.389998913
        outSlope: -.389998913
        tangentMode: 10
      - time: .166666672
        value: -1.54999995
        inSlope: 0
        outSlope: 0
        tangentMode: 10
      - time: .333333343
        value: -1.48500013
        inSlope: -.194999546
        outSlope: -.194999546
        tangentMode: 10
      - time: .416666657
        value: -1.54999995
        inSlope: -.259999394
        outSlope: -.259999394
        tangentMode: 10
      - time: .666666687
        value: -1.48500013
        inSlope: .129999623
        outSlope: .129999623
        tangentMode: 10
      - time: 1
        value: -1.48500013
        inSlope: 0
        outSlope: 0
        tangentMode: 10
      m_PreInfinity: 2
      m_PostInfinity: 2
    attribute: m_LocalPosition.y
    path: 5
    classID: 4
    script: {fileID: 0}
  - curve:
      serializedVersion: 2
      m_Curve:
      - time: 0
        value: 0
        inSlope: 0
        outSlope: 0
        tangentMode: 10
      - time: .166666672
        value: 0
        inSlope: 0
        outSlope: 0
        tangentMode: 10
      - time: .333333343
        value: 0
        inSlope: 0
        outSlope: 0
        tangentMode: 10
      - time: .416666657
        value: 0
        inSlope: 0
        outSlope: 0
        tangentMode: 10
      - time: .666666687
        value: 0
        inSlope: 0
        outSlope: 0
        tangentMode: 10
      - time: 1
        value: 0
        inSlope: 0
        outSlope: 0
        tangentMode: 10
      m_PreInfinity: 2
      m_PostInfinity: 2
    attribute: m_LocalPosition.z
    path: 5
    classID: 4
    script: {fileID: 0}
  - curve:
      serializedVersion: 2
      m_Curve:
      - time: 0
        value: 1
        inSlope: -.200000048
        outSlope: -.200000048
        tangentMode: 10
      - time: .5
        value: .899999976
        inSlope: 0
        outSlope: 0
        tangentMode: 10
      - time: 1
        value: 1
        inSlope: .200000048
        outSlope: .200000048
        tangentMode: 10
      m_PreInfinity: 2
      m_PostInfinity: 2
    attribute: m_LocalScale.x
    path: xL
    classID: 4
    script: {fileID: 0}
  - curve:
      serializedVersion: 2
      m_Curve:
      - time: 0
        value: 1
        inSlope: -.200000048
        outSlope: -.200000048
        tangentMode: 10
      - time: .5
        value: .899999976
        inSlope: 0
        outSlope: 0
        tangentMode: 10
      - time: 1
        value: 1
        inSlope: .200000048
        outSlope: .200000048
        tangentMode: 10
      m_PreInfinity: 2
      m_PostInfinity: 2
    attribute: m_LocalScale.y
    path: xL
    classID: 4
    script: {fileID: 0}
  - curve:
      serializedVersion: 2
      m_Curve:
      - time: 0
        value: 1
        inSlope: 0
        outSlope: 0
        tangentMode: 10
      - time: .5
        value: 1
        inSlope: 0
        outSlope: 0
        tangentMode: 10
      - time: 1
        value: 1
        inSlope: 0
        outSlope: 0
        tangentMode: 10
      m_PreInfinity: 2
      m_PostInfinity: 2
    attribute: m_LocalScale.z
    path: xL
    classID: 4
    script: {fileID: 0}
  - curve:
      serializedVersion: 2
      m_Curve:
      - time: 0
        value: 1
        inSlope: -.200000048
        outSlope: -.200000048
        tangentMode: 10
      - time: .5
        value: .899999976
        inSlope: 0
        outSlope: 0
        tangentMode: 10
      - time: 1
        value: 1
        inSlope: .200000048
        outSlope: .200000048
        tangentMode: 10
      m_PreInfinity: 2
      m_PostInfinity: 2
    attribute: m_LocalScale.x
    path: xR
    classID: 4
    script: {fileID: 0}
  - curve:
      serializedVersion: 2
      m_Curve:
      - time: 0
        value: 1
        inSlope: -.200000048
        outSlope: -.200000048
        tangentMode: 10
      - time: .5
        value: .899999976
        inSlope: 0
        outSlope: 0
        tangentMode: 10
      - time: 1
        value: 1
        inSlope: .200000048
        outSlope: .200000048
        tangentMode: 10
      m_PreInfinity: 2
      m_PostInfinity: 2
    attribute: m_LocalScale.y
    path: xR
    classID: 4
    script: {fileID: 0}
  - curve:
      serializedVersion: 2
      m_Curve:
      - time: 0
        value: 1
        inSlope: 0
        outSlope: 0
        tangentMode: 10
      - time: .5
        value: 1
        inSlope: 0
        outSlope: 0
        tangentMode: 10
      - time: 1
        value: 1
        inSlope: 0
        outSlope: 0
        tangentMode: 10
      m_PreInfinity: 2
      m_PostInfinity: 2
    attribute: m_LocalScale.z
    path: xR
    classID: 4
    script: {fileID: 0}
  m_EulerEditorCurves: []
  m_HasGenericRootTransform: 0
  m_HasMotionFloatCurves: 0
  m_GenerateMotionCurves: 0
  m_Events: []
