%YAML 1.1
%TAG !u! tag:unity3d.com,2011:
--- !u!74 &7400000
AnimationClip:
  m_ObjectHideFlags: 0
  m_PrefabParentObject: {fileID: 0}
  m_PrefabInternal: {fileID: 0}
  m_Name: girl talk
  serializedVersion: 6
  m_Legacy: 0
  m_Compressed: 0
  m_UseHighQualityCurve: 1
  m_RotationCurves:
  - curve:
      serializedVersion: 2
      m_Curve:
      - time: 0
        value: {x: 0, y: 0, z: -.00226421794, w: .999997437}
        inSlope: {x: 0, y: 0, z: -.130112365, w: -.000436305971}
        outSlope: {x: 0, y: 0, z: -.130112365, w: -.000436305971}
        tangentMode: 0
      - time: .0166666675
        value: {x: 0, y: 0, z: -.00443275739, w: .999990165}
        inSlope: {x: 0, y: 0, z: -.130111724, w: -.00057756895}
        outSlope: {x: 0, y: 0, z: -.130111724, w: -.00057756895}
        tangentMode: 0
      - time: .0333333351
        value: {x: 0, y: 0, z: -.00660127588, w: .999978185}
        inSlope: {x: 0, y: 0, z: -.130110145, w: -.000858306768}
        outSlope: {x: 0, y: 0, z: -.130110145, w: -.000858306768}
        tangentMode: 0
      - time: .0500000045
        value: {x: 0, y: 0, z: -.0087697627, w: .999961555}
        inSlope: {x: 0, y: 0, z: -.130107999, w: -.0011408329}
        outSlope: {x: 0, y: 0, z: -.130107999, w: -.0011408329}
        tangentMode: 0
      - time: .0666666701
        value: {x: 0, y: 0, z: -.0109382095, w: .999940157}
        inSlope: {x: 0, y: 0, z: -.130105257, w: -.00142335903}
        outSlope: {x: 0, y: 0, z: -.130105257, w: -.00142335903}
        tangentMode: 0
      - time: .0833333358
        value: {x: 0, y: 0, z: -.0131066041, w: .99991411}
        inSlope: {x: 0, y: 0, z: -.130101845, w: -.00170409691}
        outSlope: {x: 0, y: 0, z: -.130101845, w: -.00170409691}
        tangentMode: 0
      - time: .100000001
        value: {x: 0, y: 0, z: -.0152749373, w: .999883354}
        inSlope: {x: 0, y: 0, z: -.130097836, w: -.00198841118}
        outSlope: {x: 0, y: 0, z: -.130097836, w: -.00198841118}
        tangentMode: 0
      - time: .116666667
        value: {x: 0, y: 0, z: -.0174431987, w: .999847829}
        inSlope: {x: 0, y: 0, z: -.130093187, w: -.0022709365}
        outSlope: {x: 0, y: 0, z: -.130093187, w: -.0022709365}
        tangentMode: 0
      - time: .13333334
        value: {x: 0, y: 0, z: -.0196113773, w: .999807656}
        inSlope: {x: 0, y: 0, z: -.130087957, w: -.00255167438}
        outSlope: {x: 0, y: 0, z: -.130087957, w: -.00255167438}
        tangentMode: 0
      - time: .150000006
        value: {x: 0, y: 0, z: -.0217794646, w: .999762774}
        inSlope: {x: 0, y: 0, z: -.130082175, w: -.00283241295}
        outSlope: {x: 0, y: 0, z: -.130082175, w: -.00283241295}
        tangentMode: 0
      - time: .166666672
        value: {x: 0, y: 0, z: -.0239474494, w: .999713242}
        inSlope: {x: 0, y: 0, z: -.130075753, w: -.00311493897}
        outSlope: {x: 0, y: 0, z: -.130075753, w: -.00311493897}
        tangentMode: 0
      - time: .183333337
        value: {x: 0, y: 0, z: -.0261153225, w: .999658942}
        inSlope: {x: 0, y: 0, z: -.13006866, w: -.00339925312}
        outSlope: {x: 0, y: 0, z: -.13006866, w: -.00339925312}
        tangentMode: 0
      - time: .200000003
        value: {x: 0, y: 0, z: -.0282830708, w: .999599934}
        inSlope: {x: 0, y: 0, z: -.130060941, w: -.003679991}
        outSlope: {x: 0, y: 0, z: -.130060941, w: -.003679991}
        tangentMode: 0
      - time: .216666669
        value: {x: 0, y: 0, z: -.0304506868, w: .999536276}
        inSlope: {x: 0, y: 0, z: -.13005273, w: -.00396072911}
        outSlope: {x: 0, y: 0, z: -.13005273, w: -.00396072911}
        tangentMode: 0
      - time: .233333334
        value: {x: 0, y: 0, z: -.0326181613, w: .999467909}
        inSlope: {x: 0, y: 0, z: -.13004379, w: -.00424504327}
        outSlope: {x: 0, y: 0, z: -.13004379, w: -.00424504327}
        tangentMode: 0
      - time: .25
        value: {x: 0, y: 0, z: -.0347854793, w: .999394774}
        inSlope: {x: 0, y: 0, z: -.130034238, w: -.00452756695}
        outSlope: {x: 0, y: 0, z: -.130034238, w: -.00452756695}
        tangentMode: 0
      - time: .266666681
        value: {x: 0, y: 0, z: -.0369526371, w: .99931699}
        inSlope: {x: 0, y: 0, z: -.130024105, w: -.00480651483}
        outSlope: {x: 0, y: 0, z: -.130024105, w: -.00480651483}
        tangentMode: 0
      - time: .283333361
        value: {x: 0, y: 0, z: -.0391196199, w: .999234557}
        inSlope: {x: 0, y: 0, z: -.130013376, w: -.00508904038}
        outSlope: {x: 0, y: 0, z: -.130013376, w: -.00508904038}
        tangentMode: 0
      - time: .300000042
        value: {x: 0, y: 0, z: -.0412864201, w: .999147356}
        inSlope: {x: 0, y: 0, z: -.130002096, w: -.00537335407}
        outSlope: {x: 0, y: 0, z: -.130002096, w: -.00537335407}
        tangentMode: 0
      - time: .316666722
        value: {x: 0, y: 0, z: -.0434530266, w: .999055445}
        inSlope: {x: 0, y: 0, z: -.129990131, w: -.00565409195}
        outSlope: {x: 0, y: 0, z: -.129990131, w: -.00565409195}
        tangentMode: 0
      - time: .333333403
        value: {x: 0, y: 0, z: -.0456194282, w: .998958886}
        inSlope: {x: 0, y: 0, z: -.129977614, w: -.00593482982}
        outSlope: {x: 0, y: 0, z: -.129977614, w: -.00593482982}
        tangentMode: 0
      - time: .350000083
        value: {x: 0, y: 0, z: -.0477856174, w: .998857617}
        inSlope: {x: 0, y: 0, z: -.129964441, w: -.00621735537}
        outSlope: {x: 0, y: 0, z: -.129964441, w: -.00621735537}
        tangentMode: 0
      - time: .366666764
        value: {x: 0, y: 0, z: -.0499515794, w: .99875164}
        inSlope: {x: 0, y: 0, z: -.129950583, w: -.00649988092}
        outSlope: {x: 0, y: 0, z: -.129950583, w: -.00649988092}
        tangentMode: 0
      - time: .383333445
        value: {x: 0, y: 0, z: -.0521173067, w: .998640954}
        inSlope: {x: 0, y: 0, z: -.129936159, w: -.0067806188}
        outSlope: {x: 0, y: 0, z: -.129936159, w: -.0067806188}
        tangentMode: 0
      - time: .400000125
        value: {x: 0, y: 0, z: -.0542827882, w: .99852562}
        inSlope: {x: 0, y: 0, z: -.129921183, w: -.00706314482}
        outSlope: {x: 0, y: 0, z: -.129921183, w: -.00706314482}
        tangentMode: 0
      - time: .416666806
        value: {x: 0, y: 0, z: -.0564480163, w: .998405516}
        inSlope: {x: 0, y: 0, z: -.129905537, w: -.00734567037}
        outSlope: {x: 0, y: 0, z: -.129905537, w: -.00734567037}
        tangentMode: 0
      - time: .433333486
        value: {x: 0, y: 0, z: -.0586129762, w: .998280764}
        inSlope: {x: 0, y: 0, z: -.129889339, w: -.00762640778}
        outSlope: {x: 0, y: 0, z: -.129889339, w: -.00762640778}
        tangentMode: 0
      - time: .450000167
        value: {x: 0, y: 0, z: -.0607776642, w: .998151302}
        inSlope: {x: 0, y: 0, z: -.129872561, w: -.00790714566}
        outSlope: {x: 0, y: 0, z: -.129872561, w: -.00790714566}
        tangentMode: 0
      - time: .466666847
        value: {x: 0, y: 0, z: -.0629420653, w: .998017192}
        inSlope: {x: 0, y: 0, z: -.129855022, w: -.00818967167}
        outSlope: {x: 0, y: 0, z: -.129855022, w: -.00818967167}
        tangentMode: 0
      - time: .483333528
        value: {x: 0, y: 0, z: -.0651061684, w: .997878313}
        inSlope: {x: 0, y: 0, z: -.129836798, w: -.00847220514}
        outSlope: {x: 0, y: 0, z: -.129836798, w: -.00847220514}
        tangentMode: 0
      - time: .500000179
        value: {x: 0, y: 0, z: -.0672699586, w: .997734785}
        inSlope: {x: 0, y: 0, z: -.129818365, w: -.00875116233}
        outSlope: {x: 0, y: 0, z: -.129818365, w: -.00875116233}
        tangentMode: 0
      - time: .51666683
        value: {x: 0, y: 0, z: -.0694334432, w: .997586608}
        inSlope: {x: 0, y: 0, z: -.129798919, w: -.00903368834}
        outSlope: {x: 0, y: 0, z: -.129798919, w: -.00903368834}
        tangentMode: 0
      - time: .53333348
        value: {x: 0, y: 0, z: -.0715965852, w: .997433662}
        inSlope: {x: 0, y: 0, z: -.129779026, w: -.00931621529}
        outSlope: {x: 0, y: 0, z: -.129779026, w: -.00931621529}
        tangentMode: 0
      - time: .550000131
        value: {x: 0, y: 0, z: -.0737594068, w: .997276068}
        inSlope: {x: 0, y: 0, z: -.129758686, w: -.00959695317}
        outSlope: {x: 0, y: 0, z: -.129758686, w: -.00959695317}
        tangentMode: 0
      - time: .566666782
        value: {x: 0, y: 0, z: -.0759218708, w: .997113764}
        inSlope: {x: 0, y: 0, z: -.129737452, w: -.00987769105}
        outSlope: {x: 0, y: 0, z: -.129737452, w: -.00987769105}
        tangentMode: 0
      - time: .583333433
        value: {x: 0, y: 0, z: -.0780839846, w: .996946812}
        inSlope: {x: 0, y: 0, z: -.12971577, w: -.0101602171}
        outSlope: {x: 0, y: 0, z: -.12971577, w: -.0101602171}
        tangentMode: 0
      - time: .600000083
        value: {x: 0, y: 0, z: -.0802457258, w: .996775091}
        inSlope: {x: 0, y: 0, z: -.129693419, w: -.0104409559}
        outSlope: {x: 0, y: 0, z: -.129693419, w: -.0104409559}
        tangentMode: 0
      - time: .616666734
        value: {x: 0, y: 0, z: -.0824070945, w: .99659878}
        inSlope: {x: 0, y: 0, z: -.129670396, w: -.0107216937}
        outSlope: {x: 0, y: 0, z: -.129670396, w: -.0107216937}
        tangentMode: 0
      - time: .633333385
        value: {x: 0, y: 0, z: -.0845680684, w: .996417701}
        inSlope: {x: 0, y: 0, z: -.129646927, w: -.0110042198}
        outSlope: {x: 0, y: 0, z: -.129646927, w: -.0110042198}
        tangentMode: 0
      - time: .650000036
        value: {x: 0, y: 0, z: -.0867286548, w: .996231973}
        inSlope: {x: 0, y: 0, z: -.129622787, w: -.0112849586}
        outSlope: {x: 0, y: 0, z: -.129622787, w: -.0112849586}
        tangentMode: 0
      - time: .666666687
        value: {x: 0, y: 0, z: -.088888824, w: .996041536}
        inSlope: {x: 0, y: 0, z: -.129597977, w: -.0115656964}
        outSlope: {x: 0, y: 0, z: -.129597977, w: -.0115656964}
        tangentMode: 0
      - time: .683333337
        value: {x: 0, y: 0, z: -.0910485834, w: .99584645}
        inSlope: {x: 0, y: 0, z: -.129572719, w: -.0118464343}
        outSlope: {x: 0, y: 0, z: -.129572719, w: -.0118464343}
        tangentMode: 0
      - time: .699999988
        value: {x: 0, y: 0, z: -.0932079107, w: .995646656}
        inSlope: {x: 0, y: 0, z: -.129546568, w: -.0121271722}
        outSlope: {x: 0, y: 0, z: -.129546568, w: -.0121271722}
        tangentMode: 0
      - time: .716666639
        value: {x: 0, y: 0, z: -.0953667983, w: .995442212}
        inSlope: {x: 0, y: 0, z: -.129519746, w: -.012407911}
        outSlope: {x: 0, y: 0, z: -.129519746, w: -.012407911}
        tangentMode: 0
      - time: .73333329
        value: {x: 0, y: 0, z: -.0975252315, w: .995233059}
        inSlope: {x: 0, y: 0, z: -.129492924, w: -.012690437}
        outSlope: {x: 0, y: 0, z: -.129492924, w: -.012690437}
        tangentMode: 0
      - time: .74999994
        value: {x: 0, y: 0, z: -.0996832252, w: .995019197}
        inSlope: {x: 0, y: 0, z: -.129464984, w: -.0129693868}
        outSlope: {x: 0, y: 0, z: -.129464984, w: -.0129693868}
        tangentMode: 0
      - time: .766666591
        value: {x: 0, y: 0, z: -.101840727, w: .994800746}
        inSlope: {x: 0, y: 0, z: -.129436374, w: -.0132501256}
        outSlope: {x: 0, y: 0, z: -.129436374, w: -.0132501256}
        tangentMode: 0
      - time: .783333242
        value: {x: 0, y: 0, z: -.103997767, w: .994577527}
        inSlope: {x: 0, y: 0, z: -.12940754, w: -.0135326516}
        outSlope: {x: 0, y: 0, z: -.12940754, w: -.0135326516}
        tangentMode: 0
      - time: .799999893
        value: {x: 0, y: 0, z: -.106154308, w: .994349658}
        inSlope: {x: 0, y: 0, z: -.129377812, w: -.0138116013}
        outSlope: {x: 0, y: 0, z: -.129377812, w: -.0138116013}
        tangentMode: 0
      - time: .816666543
        value: {x: 0, y: 0, z: -.108310357, w: .994117141}
        inSlope: {x: 0, y: 0, z: -.129347414, w: -.0140923392}
        outSlope: {x: 0, y: 0, z: -.129347414, w: -.0140923392}
        tangentMode: 0
      - time: .833333194
        value: {x: 0, y: 0, z: -.110465884, w: .993879914}
        inSlope: {x: 0, y: 0, z: -.129316792, w: -.014373078}
        outSlope: {x: 0, y: 0, z: -.129316792, w: -.014373078}
        tangentMode: 0
      - time: .849999845
        value: {x: 0, y: 0, z: -.112620912, w: .993638039}
        inSlope: {x: 0, y: 0, z: -.129285276, w: -.0146538159}
        outSlope: {x: 0, y: 0, z: -.129285276, w: -.0146538159}
        tangentMode: 0
      - time: .866666496
        value: {x: 0, y: 0, z: -.114775389, w: .993391454}
        inSlope: {x: 0, y: 0, z: -.129253313, w: -.0149345538}
        outSlope: {x: 0, y: 0, z: -.129253313, w: -.0149345538}
        tangentMode: 0
      - time: .883333147
        value: {x: 0, y: 0, z: -.116929352, w: .993140221}
        inSlope: {x: 0, y: 0, z: -.129220679, w: -.0152135044}
        outSlope: {x: 0, y: 0, z: -.129220679, w: -.0152135044}
        tangentMode: 0
      - time: .899999797
        value: {x: 0, y: 0, z: -.119082741, w: .992884338}
        inSlope: {x: 0, y: 0, z: -.129186928, w: -.0154942423}
        outSlope: {x: 0, y: 0, z: -.129186928, w: -.0154942423}
        tangentMode: 0
      - time: .916666448
        value: {x: 0, y: 0, z: -.121235579, w: .992623746}
        inSlope: {x: 0, y: 0, z: -.129153177, w: -.0157749802}
        outSlope: {x: 0, y: 0, z: -.129153177, w: -.0157749802}
        tangentMode: 0
      - time: .933333099
        value: {x: 0, y: 0, z: -.123387843, w: .992358506}
        inSlope: {x: 0, y: 0, z: -.129118532, w: -.0160539299}
        outSlope: {x: 0, y: 0, z: -.129118532, w: -.0160539299}
        tangentMode: 0
      - time: .94999975
        value: {x: 0, y: 0, z: -.125539526, w: .992088616}
        inSlope: {x: 0, y: 0, z: -.129083663, w: -.0163346678}
        outSlope: {x: 0, y: 0, z: -.129083663, w: -.0163346678}
        tangentMode: 0
      - time: .9666664
        value: {x: 0, y: 0, z: -.127690628, w: .991814017}
        inSlope: {x: 0, y: 0, z: -.1290479, w: -.0166136175}
        outSlope: {x: 0, y: 0, z: -.1290479, w: -.0166136175}
        tangentMode: 0
      - time: .983333051
        value: {x: 0, y: 0, z: -.129841119, w: .991534829}
        inSlope: {x: 0, y: 0, z: -.129011691, w: -.0168925691}
        outSlope: {x: 0, y: 0, z: -.129011691, w: -.0168925691}
        tangentMode: 0
      - time: .999999702
        value: {x: 0, y: 0, z: -.131991014, w: .991250932}
        inSlope: {x: 0, y: 0, z: -.128975242, w: -.0171750635}
        outSlope: {x: 0, y: 0, z: -.128975242, w: -.0171750635}
        tangentMode: 0
      - time: 1.01666641
        value: {x: 0, y: 0, z: -.134140298, w: .990962327}
        inSlope: {x: 0, y: 0, z: -.128936797, w: -.0174540132}
        outSlope: {x: 0, y: 0, z: -.128936797, w: -.0174540132}
        tangentMode: 0
      - time: 1.03333306
        value: {x: 0, y: 0, z: -.136288911, w: .990669131}
        inSlope: {x: 0, y: 0, z: -.128899038, w: -.0177329946}
        outSlope: {x: 0, y: 0, z: -.128899038, w: -.0177329946}
        tangentMode: 0
      - time: 1.04999971
        value: {x: 0, y: 0, z: -.138436928, w: .990371227}
        inSlope: {x: 0, y: 0, z: -.128860593, w: -.0180119444}
        outSlope: {x: 0, y: 0, z: -.128860593, w: -.0180119444}
        tangentMode: 0
      - time: 1.06666636
        value: {x: 0, y: 0, z: -.14058426, w: .990068734}
        inSlope: {x: 0, y: 0, z: -.12882036, w: -.0182908941}
        outSlope: {x: 0, y: 0, z: -.12882036, w: -.0182908941}
        tangentMode: 0
      - time: 1.08333302
        value: {x: 0, y: 0, z: -.142730936, w: .989761531}
        inSlope: {x: 0, y: 0, z: -.128780574, w: -.0185716338}
        outSlope: {x: 0, y: 0, z: -.128780574, w: -.0185716338}
        tangentMode: 0
      - time: 1.09999967
        value: {x: 0, y: 0, z: -.144876942, w: .98944968}
        inSlope: {x: 0, y: 0, z: -.12874034, w: -.0188505836}
        outSlope: {x: 0, y: 0, z: -.12874034, w: -.0188505836}
        tangentMode: 0
      - time: 1.11666632
        value: {x: 0, y: 0, z: -.147022277, w: .989133179}
        inSlope: {x: 0, y: 0, z: -.128699213, w: -.0191295333}
        outSlope: {x: 0, y: 0, z: -.128699213, w: -.0191295333}
        tangentMode: 0
      - time: 1.13333297
        value: {x: 0, y: 0, z: -.149166912, w: .988812029}
        inSlope: {x: 0, y: 0, z: -.128657192, w: -.0194084831}
        outSlope: {x: 0, y: 0, z: -.128657192, w: -.0194084831}
        tangentMode: 0
      - time: 1.14999962
        value: {x: 0, y: 0, z: -.151310846, w: .98848623}
        inSlope: {x: 0, y: 0, z: -.128615171, w: -.0196874328}
        outSlope: {x: 0, y: 0, z: -.128615171, w: -.0196874328}
        tangentMode: 0
      - time: 1.16666627
        value: {x: 0, y: 0, z: -.15345408, w: .988155782}
        inSlope: {x: 0, y: 0, z: -.128571808, w: -.0199663825}
        outSlope: {x: 0, y: 0, z: -.128571808, w: -.0199663825}
        tangentMode: 0
      - time: 1.18333292
        value: {x: 0, y: 0, z: -.155596569, w: .987820685}
        inSlope: {x: 0, y: 0, z: -.128528446, w: -.0202453323}
        outSlope: {x: 0, y: 0, z: -.128528446, w: -.0202453323}
        tangentMode: 0
      - time: 1.19999957
        value: {x: 0, y: 0, z: -.157738358, w: .987480938}
        inSlope: {x: 0, y: 0, z: -.128484637, w: -.020524282}
        outSlope: {x: 0, y: 0, z: -.128484637, w: -.020524282}
        tangentMode: 0
      - time: 1.21666622
        value: {x: 0, y: 0, z: -.159879386, w: .987136543}
        inSlope: {x: 0, y: 0, z: -.128438592, w: -.0208014455}
        outSlope: {x: 0, y: 0, z: -.128438592, w: -.0208014455}
        tangentMode: 0
      - time: 1.23333287
        value: {x: 0, y: 0, z: -.16201964, w: .986787558}
        inSlope: {x: 0, y: 0, z: -.128393397, w: -.0210800916}
        outSlope: {x: 0, y: 0, z: -.128393397, w: -.0210800916}
        tangentMode: 0
      - time: 1.25
        value: {x: 0, y: 0, z: -.164159223, w: .986433864}
        inSlope: {x: 0, y: 0, z: -.128371447, w: -.021221051}
        outSlope: {x: 0, y: 0, z: -.128371447, w: -.021221051}
        tangentMode: 0
      m_PreInfinity: 2
      m_PostInfinity: 2
    path: body/armL
  m_CompressedRotationCurves: []
  m_PositionCurves:
  - curve:
      serializedVersion: 2
      m_Curve:
      - time: 0
        value: {x: -.276000142, y: .766999841, z: 0}
        inSlope: {x: -.28399986, y: -.00699985027, z: 0}
        outSlope: {x: -.28399986, y: -.00699985027, z: 0}
        tangentMode: 0
      - time: 1
        value: {x: -.560000002, y: .75999999, z: 0}
        inSlope: {x: 0, y: 0, z: 0}
        outSlope: {x: 0, y: 0, z: 0}
        tangentMode: 0
      m_PreInfinity: 2
      m_PostInfinity: 2
    path: body/head/pupilL
  - curve:
      serializedVersion: 2
      m_Curve:
      - time: 0
        value: {x: .681999981, y: .791999936, z: 0}
        inSlope: {x: -.281999975, y: -.00199991465, z: 0}
        outSlope: {x: -.281999975, y: -.00199991465, z: 0}
        tangentMode: 0
      - time: 1
        value: {x: .400000006, y: .790000021, z: 0}
        inSlope: {x: 0, y: 0, z: 0}
        outSlope: {x: 0, y: 0, z: 0}
        tangentMode: 0
      m_PreInfinity: 2
      m_PostInfinity: 2
    path: body/head/pupilR
  - curve:
      serializedVersion: 2
      m_Curve:
      - time: 0
        value: {x: .162255168, y: 1.71534669, z: 0}
        inSlope: {x: -.913530946, y: .987919807, z: 0}
        outSlope: {x: -.913530946, y: .987919807, z: 0}
        tangentMode: 0
      - time: .166666672
        value: {x: .00999999978, y: 1.88, z: 0}
        inSlope: {x: -.936765492, y: .313960075, z: 0}
        outSlope: {x: -.936765492, y: .313960075, z: 0}
        tangentMode: 0
      - time: .333333343
        value: {x: -.150000006, y: 1.82000005, z: 0}
        inSlope: {x: -.480000019, y: -.179999828, z: 0}
        outSlope: {x: -.480000019, y: -.179999828, z: 0}
        tangentMode: 0
      - time: .5
        value: {x: -.150000006, y: 1.82000005, z: 0}
        inSlope: {x: 0, y: 0, z: 0}
        outSlope: {x: 0, y: 0, z: 0}
        tangentMode: 0
      - time: .75
        value: {x: -.150000006, y: 1.82000005, z: 0}
        inSlope: {x: 0, y: 0, z: 0}
        outSlope: {x: 0, y: 0, z: 0}
        tangentMode: 0
      m_PreInfinity: 2
      m_PostInfinity: 2
    path: body
  m_ScaleCurves:
  - curve:
      serializedVersion: 2
      m_Curve:
      - time: 0
        value: {x: 1, y: 1, z: 1}
        inSlope: {x: -.136159822, y: -.136159822, z: -.136159822}
        outSlope: {x: -.136159822, y: -.136159822, z: -.136159822}
        tangentMode: 0
      - time: 1.16666663
        value: {x: .841146886, y: .841146886, z: .841146886}
        inSlope: {x: .408479184, y: .408479184, z: .408479184}
        outSlope: {x: .408479184, y: .408479184, z: .408479184}
        tangentMode: 0
      - time: 1.33333337
        value: {x: 1, y: 1, z: 1}
        inSlope: {x: -3.57627869e-07, y: -3.57627869e-07, z: -3.57627869e-07}
        outSlope: {x: -3.57627869e-07, y: -3.57627869e-07, z: -3.57627869e-07}
        tangentMode: 0
      - time: 1.5
        value: {x: .841146886, y: .841146886, z: .841146886}
        inSlope: {x: -3.57627869e-07, y: -3.57627869e-07, z: -3.57627869e-07}
        outSlope: {x: -3.57627869e-07, y: -3.57627869e-07, z: -3.57627869e-07}
        tangentMode: 0
      - time: 1.66666675
        value: {x: 1, y: 1, z: 1}
        inSlope: {x: .476559103, y: .476559103, z: .476559103}
        outSlope: {x: .476559103, y: .476559103, z: .476559103}
        tangentMode: 0
      - time: 2
        value: {x: 1, y: 1, z: 1}
        inSlope: {x: 0, y: 0, z: 0}
        outSlope: {x: 0, y: 0, z: 0}
        tangentMode: 0
      m_PreInfinity: 2
      m_PostInfinity: 2
    path: body/head/mouth
  m_FloatCurves: []
  m_PPtrCurves: []
  m_SampleRate: 60
  m_WrapMode: 0
  m_Bounds:
    m_Center: {x: 0, y: 0, z: 0}
    m_Extent: {x: 0, y: 0, z: 0}
  m_ClipBindingConstant:
    genericBindings:
    - path: 3720840927
      attribute: 1
      script: {fileID: 0}
      classID: 4
      customType: 0
      isPPtrCurve: 0
    - path: 667466684
      attribute: 1
      script: {fileID: 0}
      classID: 4
      customType: 0
      isPPtrCurve: 0
    - path: 3685223346
      attribute: 1
      script: {fileID: 0}
      classID: 4
      customType: 0
      isPPtrCurve: 0
    - path: 4140087224
      attribute: 2
      script: {fileID: 0}
      classID: 4
      customType: 0
      isPPtrCurve: 0
    - path: 2626611235
      attribute: 3
      script: {fileID: 0}
      classID: 4
      customType: 0
      isPPtrCurve: 0
    pptrCurveMapping: []
  m_AnimationClipSettings:
    serializedVersion: 2
    m_StartTime: 0
    m_StopTime: 2
    m_OrientationOffsetY: 0
    m_Level: 0
    m_CycleOffset: 0
    m_LoopTime: 1
    m_LoopBlend: 0
    m_LoopBlendOrientation: 0
    m_LoopBlendPositionY: 0
    m_LoopBlendPositionXZ: 0
    m_KeepOriginalOrientation: 0
    m_KeepOriginalPositionY: 1
    m_KeepOriginalPositionXZ: 0
    m_HeightFromFeet: 0
    m_Mirror: 0
  m_EditorCurves:
  - curve:
      serializedVersion: 2
      m_Curve:
      - time: 0
        value: -.276000142
        inSlope: -.28399986
        outSlope: -.28399986
        tangentMode: 10
      - time: 1
        value: -.560000002
        inSlope: 0
        outSlope: 0
        tangentMode: 0
      m_PreInfinity: 2
      m_PostInfinity: 2
    attribute: m_LocalPosition.x
    path: body/head/pupilL
    classID: 4
    script: {fileID: 0}
  - curve:
      serializedVersion: 2
      m_Curve:
      - time: 0
        value: .766999841
        inSlope: -.00699985027
        outSlope: -.00699985027
        tangentMode: 10
      - time: 1
        value: .75999999
        inSlope: 0
        outSlope: 0
        tangentMode: 0
      m_PreInfinity: 2
      m_PostInfinity: 2
    attribute: m_LocalPosition.y
    path: body/head/pupilL
    classID: 4
    script: {fileID: 0}
  - curve:
      serializedVersion: 2
      m_Curve:
      - time: 0
        value: 0
        inSlope: 0
        outSlope: 0
        tangentMode: 10
      - time: 1
        value: 0
        inSlope: 0
        outSlope: 0
        tangentMode: 0
      m_PreInfinity: 2
      m_PostInfinity: 2
    attribute: m_LocalPosition.z
    path: body/head/pupilL
    classID: 4
    script: {fileID: 0}
  - curve:
      serializedVersion: 2
      m_Curve:
      - time: 0
        value: .681999981
        inSlope: -.281999975
        outSlope: -.281999975
        tangentMode: 10
      - time: 1
        value: .400000006
        inSlope: 0
        outSlope: 0
        tangentMode: 0
      m_PreInfinity: 2
      m_PostInfinity: 2
    attribute: m_LocalPosition.x
    path: body/head/pupilR
    classID: 4
    script: {fileID: 0}
  - curve:
      serializedVersion: 2
      m_Curve:
      - time: 0
        value: .791999936
        inSlope: -.00199991465
        outSlope: -.00199991465
        tangentMode: 10
      - time: 1
        value: .790000021
        inSlope: 0
        outSlope: 0
        tangentMode: 0
      m_PreInfinity: 2
      m_PostInfinity: 2
    attribute: m_LocalPosition.y
    path: body/head/pupilR
    classID: 4
    script: {fileID: 0}
  - curve:
      serializedVersion: 2
      m_Curve:
      - time: 0
        value: 0
        inSlope: 0
        outSlope: 0
        tangentMode: 10
      - time: 1
        value: 0
        inSlope: 0
        outSlope: 0
        tangentMode: 0
      m_PreInfinity: 2
      m_PostInfinity: 2
    attribute: m_LocalPosition.z
    path: body/head/pupilR
    classID: 4
    script: {fileID: 0}
  - curve:
      serializedVersion: 2
      m_Curve:
      - time: 0
        value: 1
        inSlope: -.136159822
        outSlope: -.136159822
        tangentMode: 10
      - time: 1.16666663
        value: .841146886
        inSlope: .408479184
        outSlope: .408479184
        tangentMode: 10
      - time: 1.33333337
        value: 1
        inSlope: -3.57627869e-07
        outSlope: -3.57627869e-07
        tangentMode: 10
      - time: 1.5
        value: .841146886
        inSlope: -3.57627869e-07
        outSlope: -3.57627869e-07
        tangentMode: 10
      - time: 1.66666675
        value: 1
        inSlope: .476559103
        outSlope: .476559103
        tangentMode: 10
      - time: 2
        value: 1
        inSlope: 0
        outSlope: 0
        tangentMode: 10
      m_PreInfinity: 2
      m_PostInfinity: 2
    attribute: m_LocalScale.x
    path: body/head/mouth
    classID: 4
    script: {fileID: 0}
  - curve:
      serializedVersion: 2
      m_Curve:
      - time: 0
        value: 1
        inSlope: -.136159822
        outSlope: -.136159822
        tangentMode: 10
      - time: 1.16666663
        value: .841146886
        inSlope: .408479184
        outSlope: .408479184
        tangentMode: 10
      - time: 1.33333337
        value: 1
        inSlope: -3.57627869e-07
        outSlope: -3.57627869e-07
        tangentMode: 10
      - time: 1.5
        value: .841146886
        inSlope: -3.57627869e-07
        outSlope: -3.57627869e-07
        tangentMode: 10
      - time: 1.66666675
        value: 1
        inSlope: .476559103
        outSlope: .476559103
        tangentMode: 10
      - time: 2
        value: 1
        inSlope: 0
        outSlope: 0
        tangentMode: 10
      m_PreInfinity: 2
      m_PostInfinity: 2
    attribute: m_LocalScale.y
    path: body/head/mouth
    classID: 4
    script: {fileID: 0}
  - curve:
      serializedVersion: 2
      m_Curve:
      - time: 0
        value: 1
        inSlope: -.136159822
        outSlope: -.136159822
        tangentMode: 10
      - time: 1.16666663
        value: .841146886
        inSlope: .408479184
        outSlope: .408479184
        tangentMode: 10
      - time: 1.33333337
        value: 1
        inSlope: -3.57627869e-07
        outSlope: -3.57627869e-07
        tangentMode: 10
      - time: 1.5
        value: .841146886
        inSlope: -3.57627869e-07
        outSlope: -3.57627869e-07
        tangentMode: 10
      - time: 1.66666675
        value: 1
        inSlope: .476559103
        outSlope: .476559103
        tangentMode: 10
      - time: 2
        value: 1
        inSlope: 0
        outSlope: 0
        tangentMode: 10
      m_PreInfinity: 2
      m_PostInfinity: 2
    attribute: m_LocalScale.z
    path: body/head/mouth
    classID: 4
    script: {fileID: 0}
  - curve:
      serializedVersion: 2
      m_Curve:
      - time: 0
        value: 0
        inSlope: 0
        outSlope: 0
        tangentMode: 0
      - time: .0166666675
        value: 0
        inSlope: 0
        outSlope: 0
        tangentMode: 0
      - time: .0333333351
        value: 0
        inSlope: 0
        outSlope: 0
        tangentMode: 0
      - time: .0500000045
        value: 0
        inSlope: 0
        outSlope: 0
        tangentMode: 0
      - time: .0666666701
        value: 0
        inSlope: 0
        outSlope: 0
        tangentMode: 0
      - time: .0833333358
        value: 0
        inSlope: 0
        outSlope: 0
        tangentMode: 0
      - time: .100000001
        value: 0
        inSlope: 0
        outSlope: 0
        tangentMode: 0
      - time: .116666667
        value: 0
        inSlope: 0
        outSlope: 0
        tangentMode: 0
      - time: .13333334
        value: 0
        inSlope: 0
        outSlope: 0
        tangentMode: 0
      - time: .150000006
        value: 0
        inSlope: 0
        outSlope: 0
        tangentMode: 0
      - time: .166666672
        value: 0
        inSlope: 0
        outSlope: 0
        tangentMode: 0
      - time: .183333337
        value: 0
        inSlope: 0
        outSlope: 0
        tangentMode: 0
      - time: .200000003
        value: 0
        inSlope: 0
        outSlope: 0
        tangentMode: 0
      - time: .216666669
        value: 0
        inSlope: 0
        outSlope: 0
        tangentMode: 0
      - time: .233333334
        value: 0
        inSlope: 0
        outSlope: 0
        tangentMode: 0
      - time: .25
        value: 0
        inSlope: 0
        outSlope: 0
        tangentMode: 0
      - time: .266666681
        value: 0
        inSlope: 0
        outSlope: 0
        tangentMode: 0
      - time: .283333361
        value: 0
        inSlope: 0
        outSlope: 0
        tangentMode: 0
      - time: .300000042
        value: 0
        inSlope: 0
        outSlope: 0
        tangentMode: 0
      - time: .316666722
        value: 0
        inSlope: 0
        outSlope: 0
        tangentMode: 0
      - time: .333333403
        value: 0
        inSlope: 0
        outSlope: 0
        tangentMode: 0
      - time: .350000083
        value: 0
        inSlope: 0
        outSlope: 0
        tangentMode: 0
      - time: .366666764
        value: 0
        inSlope: 0
        outSlope: 0
        tangentMode: 0
      - time: .383333445
        value: 0
        inSlope: 0
        outSlope: 0
        tangentMode: 0
      - time: .400000125
        value: 0
        inSlope: 0
        outSlope: 0
        tangentMode: 0
      - time: .416666806
        value: 0
        inSlope: 0
        outSlope: 0
        tangentMode: 0
      - time: .433333486
        value: 0
        inSlope: 0
        outSlope: 0
        tangentMode: 0
      - time: .450000167
        value: 0
        inSlope: 0
        outSlope: 0
        tangentMode: 0
      - time: .466666847
        value: 0
        inSlope: 0
        outSlope: 0
        tangentMode: 0
      - time: .483333528
        value: 0
        inSlope: 0
        outSlope: 0
        tangentMode: 0
      - time: .500000179
        value: 0
        inSlope: 0
        outSlope: 0
        tangentMode: 0
      - time: .51666683
        value: 0
        inSlope: 0
        outSlope: 0
        tangentMode: 0
      - time: .53333348
        value: 0
        inSlope: 0
        outSlope: 0
        tangentMode: 0
      - time: .550000131
        value: 0
        inSlope: 0
        outSlope: 0
        tangentMode: 0
      - time: .566666782
        value: 0
        inSlope: 0
        outSlope: 0
        tangentMode: 0
      - time: .583333433
        value: 0
        inSlope: 0
        outSlope: 0
        tangentMode: 0
      - time: .600000083
        value: 0
        inSlope: 0
        outSlope: 0
        tangentMode: 0
      - time: .616666734
        value: 0
        inSlope: 0
        outSlope: 0
        tangentMode: 0
      - time: .633333385
        value: 0
        inSlope: 0
        outSlope: 0
        tangentMode: 0
      - time: .650000036
        value: 0
        inSlope: 0
        outSlope: 0
        tangentMode: 0
      - time: .666666687
        value: 0
        inSlope: 0
        outSlope: 0
        tangentMode: 0
      - time: .683333337
        value: 0
        inSlope: 0
        outSlope: 0
        tangentMode: 0
      - time: .699999988
        value: 0
        inSlope: 0
        outSlope: 0
        tangentMode: 0
      - time: .716666639
        value: 0
        inSlope: 0
        outSlope: 0
        tangentMode: 0
      - time: .73333329
        value: 0
        inSlope: 0
        outSlope: 0
        tangentMode: 0
      - time: .74999994
        value: 0
        inSlope: 0
        outSlope: 0
        tangentMode: 0
      - time: .766666591
        value: 0
        inSlope: 0
        outSlope: 0
        tangentMode: 0
      - time: .783333242
        value: 0
        inSlope: 0
        outSlope: 0
        tangentMode: 0
      - time: .799999893
        value: 0
        inSlope: 0
        outSlope: 0
        tangentMode: 0
      - time: .816666543
        value: 0
        inSlope: 0
        outSlope: 0
        tangentMode: 0
      - time: .833333194
        value: 0
        inSlope: 0
        outSlope: 0
        tangentMode: 0
      - time: .849999845
        value: 0
        inSlope: 0
        outSlope: 0
        tangentMode: 0
      - time: .866666496
        value: 0
        inSlope: 0
        outSlope: 0
        tangentMode: 0
      - time: .883333147
        value: 0
        inSlope: 0
        outSlope: 0
        tangentMode: 0
      - time: .899999797
        value: 0
        inSlope: 0
        outSlope: 0
        tangentMode: 0
      - time: .916666448
        value: 0
        inSlope: 0
        outSlope: 0
        tangentMode: 0
      - time: .933333099
        value: 0
        inSlope: 0
        outSlope: 0
        tangentMode: 0
      - time: .94999975
        value: 0
        inSlope: 0
        outSlope: 0
        tangentMode: 0
      - time: .9666664
        value: 0
        inSlope: 0
        outSlope: 0
        tangentMode: 0
      - time: .983333051
        value: 0
        inSlope: 0
        outSlope: 0
        tangentMode: 0
      - time: .999999702
        value: 0
        inSlope: 0
        outSlope: 0
        tangentMode: 0
      - time: 1.01666641
        value: 0
        inSlope: 0
        outSlope: 0
        tangentMode: 0
      - time: 1.03333306
        value: 0
        inSlope: 0
        outSlope: 0
        tangentMode: 0
      - time: 1.04999971
        value: 0
        inSlope: 0
        outSlope: 0
        tangentMode: 0
      - time: 1.06666636
        value: 0
        inSlope: 0
        outSlope: 0
        tangentMode: 0
      - time: 1.08333302
        value: 0
        inSlope: 0
        outSlope: 0
        tangentMode: 0
      - time: 1.09999967
        value: 0
        inSlope: 0
        outSlope: 0
        tangentMode: 0
      - time: 1.11666632
        value: 0
        inSlope: 0
        outSlope: 0
        tangentMode: 0
      - time: 1.13333297
        value: 0
        inSlope: 0
        outSlope: 0
        tangentMode: 0
      - time: 1.14999962
        value: 0
        inSlope: 0
        outSlope: 0
        tangentMode: 0
      - time: 1.16666627
        value: 0
        inSlope: 0
        outSlope: 0
        tangentMode: 0
      - time: 1.18333292
        value: 0
        inSlope: 0
        outSlope: 0
        tangentMode: 0
      - time: 1.19999957
        value: 0
        inSlope: 0
        outSlope: 0
        tangentMode: 0
      - time: 1.21666622
        value: 0
        inSlope: 0
        outSlope: 0
        tangentMode: 0
      - time: 1.23333287
        value: 0
        inSlope: 0
        outSlope: 0
        tangentMode: 0
      - time: 1.25
        value: 0
        inSlope: 0
        outSlope: 0
        tangentMode: 0
      m_PreInfinity: 2
      m_PostInfinity: 2
    attribute: m_LocalRotation.x
    path: body/armL
    classID: 4
    script: {fileID: 0}
  - curve:
      serializedVersion: 2
      m_Curve:
      - time: 0
        value: 0
        inSlope: 0
        outSlope: 0
        tangentMode: 0
      - time: .0166666675
        value: 0
        inSlope: 0
        outSlope: 0
        tangentMode: 0
      - time: .0333333351
        value: 0
        inSlope: 0
        outSlope: 0
        tangentMode: 0
      - time: .0500000045
        value: 0
        inSlope: 0
        outSlope: 0
        tangentMode: 0
      - time: .0666666701
        value: 0
        inSlope: 0
        outSlope: 0
        tangentMode: 0
      - time: .0833333358
        value: 0
        inSlope: 0
        outSlope: 0
        tangentMode: 0
      - time: .100000001
        value: 0
        inSlope: 0
        outSlope: 0
        tangentMode: 0
      - time: .116666667
        value: 0
        inSlope: 0
        outSlope: 0
        tangentMode: 0
      - time: .13333334
        value: 0
        inSlope: 0
        outSlope: 0
        tangentMode: 0
      - time: .150000006
        value: 0
        inSlope: 0
        outSlope: 0
        tangentMode: 0
      - time: .166666672
        value: 0
        inSlope: 0
        outSlope: 0
        tangentMode: 0
      - time: .183333337
        value: 0
        inSlope: 0
        outSlope: 0
        tangentMode: 0
      - time: .200000003
        value: 0
        inSlope: 0
        outSlope: 0
        tangentMode: 0
      - time: .216666669
        value: 0
        inSlope: 0
        outSlope: 0
        tangentMode: 0
      - time: .233333334
        value: 0
        inSlope: 0
        outSlope: 0
        tangentMode: 0
      - time: .25
        value: 0
        inSlope: 0
        outSlope: 0
        tangentMode: 0
      - time: .266666681
        value: 0
        inSlope: 0
        outSlope: 0
        tangentMode: 0
      - time: .283333361
        value: 0
        inSlope: 0
        outSlope: 0
        tangentMode: 0
      - time: .300000042
        value: 0
        inSlope: 0
        outSlope: 0
        tangentMode: 0
      - time: .316666722
        value: 0
        inSlope: 0
        outSlope: 0
        tangentMode: 0
      - time: .333333403
        value: 0
        inSlope: 0
        outSlope: 0
        tangentMode: 0
      - time: .350000083
        value: 0
        inSlope: 0
        outSlope: 0
        tangentMode: 0
      - time: .366666764
        value: 0
        inSlope: 0
        outSlope: 0
        tangentMode: 0
      - time: .383333445
        value: 0
        inSlope: 0
        outSlope: 0
        tangentMode: 0
      - time: .400000125
        value: 0
        inSlope: 0
        outSlope: 0
        tangentMode: 0
      - time: .416666806
        value: 0
        inSlope: 0
        outSlope: 0
        tangentMode: 0
      - time: .433333486
        value: 0
        inSlope: 0
        outSlope: 0
        tangentMode: 0
      - time: .450000167
        value: 0
        inSlope: 0
        outSlope: 0
        tangentMode: 0
      - time: .466666847
        value: 0
        inSlope: 0
        outSlope: 0
        tangentMode: 0
      - time: .483333528
        value: 0
        inSlope: 0
        outSlope: 0
        tangentMode: 0
      - time: .500000179
        value: 0
        inSlope: 0
        outSlope: 0
        tangentMode: 0
      - time: .51666683
        value: 0
        inSlope: 0
        outSlope: 0
        tangentMode: 0
      - time: .53333348
        value: 0
        inSlope: 0
        outSlope: 0
        tangentMode: 0
      - time: .550000131
        value: 0
        inSlope: 0
        outSlope: 0
        tangentMode: 0
      - time: .566666782
        value: 0
        inSlope: 0
        outSlope: 0
        tangentMode: 0
      - time: .583333433
        value: 0
        inSlope: 0
        outSlope: 0
        tangentMode: 0
      - time: .600000083
        value: 0
        inSlope: 0
        outSlope: 0
        tangentMode: 0
      - time: .616666734
        value: 0
        inSlope: 0
        outSlope: 0
        tangentMode: 0
      - time: .633333385
        value: 0
        inSlope: 0
        outSlope: 0
        tangentMode: 0
      - time: .650000036
        value: 0
        inSlope: 0
        outSlope: 0
        tangentMode: 0
      - time: .666666687
        value: 0
        inSlope: 0
        outSlope: 0
        tangentMode: 0
      - time: .683333337
        value: 0
        inSlope: 0
        outSlope: 0
        tangentMode: 0
      - time: .699999988
        value: 0
        inSlope: 0
        outSlope: 0
        tangentMode: 0
      - time: .716666639
        value: 0
        inSlope: 0
        outSlope: 0
        tangentMode: 0
      - time: .73333329
        value: 0
        inSlope: 0
        outSlope: 0
        tangentMode: 0
      - time: .74999994
        value: 0
        inSlope: 0
        outSlope: 0
        tangentMode: 0
      - time: .766666591
        value: 0
        inSlope: 0
        outSlope: 0
        tangentMode: 0
      - time: .783333242
        value: 0
        inSlope: 0
        outSlope: 0
        tangentMode: 0
      - time: .799999893
        value: 0
        inSlope: 0
        outSlope: 0
        tangentMode: 0
      - time: .816666543
        value: 0
        inSlope: 0
        outSlope: 0
        tangentMode: 0
      - time: .833333194
        value: 0
        inSlope: 0
        outSlope: 0
        tangentMode: 0
      - time: .849999845
        value: 0
        inSlope: 0
        outSlope: 0
        tangentMode: 0
      - time: .866666496
        value: 0
        inSlope: 0
        outSlope: 0
        tangentMode: 0
      - time: .883333147
        value: 0
        inSlope: 0
        outSlope: 0
        tangentMode: 0
      - time: .899999797
        value: 0
        inSlope: 0
        outSlope: 0
        tangentMode: 0
      - time: .916666448
        value: 0
        inSlope: 0
        outSlope: 0
        tangentMode: 0
      - time: .933333099
        value: 0
        inSlope: 0
        outSlope: 0
        tangentMode: 0
      - time: .94999975
        value: 0
        inSlope: 0
        outSlope: 0
        tangentMode: 0
      - time: .9666664
        value: 0
        inSlope: 0
        outSlope: 0
        tangentMode: 0
      - time: .983333051
        value: 0
        inSlope: 0
        outSlope: 0
        tangentMode: 0
      - time: .999999702
        value: 0
        inSlope: 0
        outSlope: 0
        tangentMode: 0
      - time: 1.01666641
        value: 0
        inSlope: 0
        outSlope: 0
        tangentMode: 0
      - time: 1.03333306
        value: 0
        inSlope: 0
        outSlope: 0
        tangentMode: 0
      - time: 1.04999971
        value: 0
        inSlope: 0
        outSlope: 0
        tangentMode: 0
      - time: 1.06666636
        value: 0
        inSlope: 0
        outSlope: 0
        tangentMode: 0
      - time: 1.08333302
        value: 0
        inSlope: 0
        outSlope: 0
        tangentMode: 0
      - time: 1.09999967
        value: 0
        inSlope: 0
        outSlope: 0
        tangentMode: 0
      - time: 1.11666632
        value: 0
        inSlope: 0
        outSlope: 0
        tangentMode: 0
      - time: 1.13333297
        value: 0
        inSlope: 0
        outSlope: 0
        tangentMode: 0
      - time: 1.14999962
        value: 0
        inSlope: 0
        outSlope: 0
        tangentMode: 0
      - time: 1.16666627
        value: 0
        inSlope: 0
        outSlope: 0
        tangentMode: 0
      - time: 1.18333292
        value: 0
        inSlope: 0
        outSlope: 0
        tangentMode: 0
      - time: 1.19999957
        value: 0
        inSlope: 0
        outSlope: 0
        tangentMode: 0
      - time: 1.21666622
        value: 0
        inSlope: 0
        outSlope: 0
        tangentMode: 0
      - time: 1.23333287
        value: 0
        inSlope: 0
        outSlope: 0
        tangentMode: 0
      - time: 1.25
        value: 0
        inSlope: 0
        outSlope: 0
        tangentMode: 0
      m_PreInfinity: 2
      m_PostInfinity: 2
    attribute: m_LocalRotation.y
    path: body/armL
    classID: 4
    script: {fileID: 0}
  - curve:
      serializedVersion: 2
      m_Curve:
      - time: 0
        value: -.00226421794
        inSlope: -.130112365
        outSlope: -.130112365
        tangentMode: 0
      - time: .0166666675
        value: -.00443275739
        inSlope: -.130111724
        outSlope: -.130111724
        tangentMode: 0
      - time: .0333333351
        value: -.00660127588
        inSlope: -.130110145
        outSlope: -.130110145
        tangentMode: 0
      - time: .0500000045
        value: -.0087697627
        inSlope: -.130107999
        outSlope: -.130107999
        tangentMode: 0
      - time: .0666666701
        value: -.0109382095
        inSlope: -.130105257
        outSlope: -.130105257
        tangentMode: 0
      - time: .0833333358
        value: -.0131066041
        inSlope: -.130101845
        outSlope: -.130101845
        tangentMode: 0
      - time: .100000001
        value: -.0152749373
        inSlope: -.130097836
        outSlope: -.130097836
        tangentMode: 0
      - time: .116666667
        value: -.0174431987
        inSlope: -.130093187
        outSlope: -.130093187
        tangentMode: 0
      - time: .13333334
        value: -.0196113773
        inSlope: -.130087957
        outSlope: -.130087957
        tangentMode: 0
      - time: .150000006
        value: -.0217794646
        inSlope: -.130082175
        outSlope: -.130082175
        tangentMode: 0
      - time: .166666672
        value: -.0239474494
        inSlope: -.130075753
        outSlope: -.130075753
        tangentMode: 0
      - time: .183333337
        value: -.0261153225
        inSlope: -.13006866
        outSlope: -.13006866
        tangentMode: 0
      - time: .200000003
        value: -.0282830708
        inSlope: -.130060941
        outSlope: -.130060941
        tangentMode: 0
      - time: .216666669
        value: -.0304506868
        inSlope: -.13005273
        outSlope: -.13005273
        tangentMode: 0
      - time: .233333334
        value: -.0326181613
        inSlope: -.13004379
        outSlope: -.13004379
        tangentMode: 0
      - time: .25
        value: -.0347854793
        inSlope: -.130034238
        outSlope: -.130034238
        tangentMode: 0
      - time: .266666681
        value: -.0369526371
        inSlope: -.130024105
        outSlope: -.130024105
        tangentMode: 0
      - time: .283333361
        value: -.0391196199
        inSlope: -.130013376
        outSlope: -.130013376
        tangentMode: 0
      - time: .300000042
        value: -.0412864201
        inSlope: -.130002096
        outSlope: -.130002096
        tangentMode: 0
      - time: .316666722
        value: -.0434530266
        inSlope: -.129990131
        outSlope: -.129990131
        tangentMode: 0
      - time: .333333403
        value: -.0456194282
        inSlope: -.129977614
        outSlope: -.129977614
        tangentMode: 0
      - time: .350000083
        value: -.0477856174
        inSlope: -.129964441
        outSlope: -.129964441
        tangentMode: 0
      - time: .366666764
        value: -.0499515794
        inSlope: -.129950583
        outSlope: -.129950583
        tangentMode: 0
      - time: .383333445
        value: -.0521173067
        inSlope: -.129936159
        outSlope: -.129936159
        tangentMode: 0
      - time: .400000125
        value: -.0542827882
        inSlope: -.129921183
        outSlope: -.129921183
        tangentMode: 0
      - time: .416666806
        value: -.0564480163
        inSlope: -.129905537
        outSlope: -.129905537
        tangentMode: 0
      - time: .433333486
        value: -.0586129762
        inSlope: -.129889339
        outSlope: -.129889339
        tangentMode: 0
      - time: .450000167
        value: -.0607776642
        inSlope: -.129872561
        outSlope: -.129872561
        tangentMode: 0
      - time: .466666847
        value: -.0629420653
        inSlope: -.129855022
        outSlope: -.129855022
        tangentMode: 0
      - time: .483333528
        value: -.0651061684
        inSlope: -.129836798
        outSlope: -.129836798
        tangentMode: 0
      - time: .500000179
        value: -.0672699586
        inSlope: -.129818365
        outSlope: -.129818365
        tangentMode: 0
      - time: .51666683
        value: -.0694334432
        inSlope: -.129798919
        outSlope: -.129798919
        tangentMode: 0
      - time: .53333348
        value: -.0715965852
        inSlope: -.129779026
        outSlope: -.129779026
        tangentMode: 0
      - time: .550000131
        value: -.0737594068
        inSlope: -.129758686
        outSlope: -.129758686
        tangentMode: 0
      - time: .566666782
        value: -.0759218708
        inSlope: -.129737452
        outSlope: -.129737452
        tangentMode: 0
      - time: .583333433
        value: -.0780839846
        inSlope: -.12971577
        outSlope: -.12971577
        tangentMode: 0
      - time: .600000083
        value: -.0802457258
        inSlope: -.129693419
        outSlope: -.129693419
        tangentMode: 0
      - time: .616666734
        value: -.0824070945
        inSlope: -.129670396
        outSlope: -.129670396
        tangentMode: 0
      - time: .633333385
        value: -.0845680684
        inSlope: -.129646927
        outSlope: -.129646927
        tangentMode: 0
      - time: .650000036
        value: -.0867286548
        inSlope: -.129622787
        outSlope: -.129622787
        tangentMode: 0
      - time: .666666687
        value: -.088888824
        inSlope: -.129597977
        outSlope: -.129597977
        tangentMode: 0
      - time: .683333337
        value: -.0910485834
        inSlope: -.129572719
        outSlope: -.129572719
        tangentMode: 0
      - time: .699999988
        value: -.0932079107
        inSlope: -.129546568
        outSlope: -.129546568
        tangentMode: 0
      - time: .716666639
        value: -.0953667983
        inSlope: -.129519746
        outSlope: -.129519746
        tangentMode: 0
      - time: .73333329
        value: -.0975252315
        inSlope: -.129492924
        outSlope: -.129492924
        tangentMode: 0
      - time: .74999994
        value: -.0996832252
        inSlope: -.129464984
        outSlope: -.129464984
        tangentMode: 0
      - time: .766666591
        value: -.101840727
        inSlope: -.129436374
        outSlope: -.129436374
        tangentMode: 0
      - time: .783333242
        value: -.103997767
        inSlope: -.12940754
        outSlope: -.12940754
        tangentMode: 0
      - time: .799999893
        value: -.106154308
        inSlope: -.129377812
        outSlope: -.129377812
        tangentMode: 0
      - time: .816666543
        value: -.108310357
        inSlope: -.129347414
        outSlope: -.129347414
        tangentMode: 0
      - time: .833333194
        value: -.110465884
        inSlope: -.129316792
        outSlope: -.129316792
        tangentMode: 0
      - time: .849999845
        value: -.112620912
        inSlope: -.129285276
        outSlope: -.129285276
        tangentMode: 0
      - time: .866666496
        value: -.114775389
        inSlope: -.129253313
        outSlope: -.129253313
        tangentMode: 0
      - time: .883333147
        value: -.116929352
        inSlope: -.129220679
        outSlope: -.129220679
        tangentMode: 0
      - time: .899999797
        value: -.119082741
        inSlope: -.129186928
        outSlope: -.129186928
        tangentMode: 0
      - time: .916666448
        value: -.121235579
        inSlope: -.129153177
        outSlope: -.129153177
        tangentMode: 0
      - time: .933333099
        value: -.123387843
        inSlope: -.129118532
        outSlope: -.129118532
        tangentMode: 0
      - time: .94999975
        value: -.125539526
        inSlope: -.129083663
        outSlope: -.129083663
        tangentMode: 0
      - time: .9666664
        value: -.127690628
        inSlope: -.1290479
        outSlope: -.1290479
        tangentMode: 0
      - time: .983333051
        value: -.129841119
        inSlope: -.129011691
        outSlope: -.129011691
        tangentMode: 0
      - time: .999999702
        value: -.131991014
        inSlope: -.128975242
        outSlope: -.128975242
        tangentMode: 0
      - time: 1.01666641
        value: -.134140298
        inSlope: -.128936797
        outSlope: -.128936797
        tangentMode: 0
      - time: 1.03333306
        value: -.136288911
        inSlope: -.128899038
        outSlope: -.128899038
        tangentMode: 0
      - time: 1.04999971
        value: -.138436928
        inSlope: -.128860593
        outSlope: -.128860593
        tangentMode: 0
      - time: 1.06666636
        value: -.14058426
        inSlope: -.12882036
        outSlope: -.12882036
        tangentMode: 0
      - time: 1.08333302
        value: -.142730936
        inSlope: -.128780574
        outSlope: -.128780574
        tangentMode: 0
      - time: 1.09999967
        value: -.144876942
        inSlope: -.12874034
        outSlope: -.12874034
        tangentMode: 0
      - time: 1.11666632
        value: -.147022277
        inSlope: -.128699213
        outSlope: -.128699213
        tangentMode: 0
      - time: 1.13333297
        value: -.149166912
        inSlope: -.128657192
        outSlope: -.128657192
        tangentMode: 0
      - time: 1.14999962
        value: -.151310846
        inSlope: -.128615171
        outSlope: -.128615171
        tangentMode: 0
      - time: 1.16666627
        value: -.15345408
        inSlope: -.128571808
        outSlope: -.128571808
        tangentMode: 0
      - time: 1.18333292
        value: -.155596569
        inSlope: -.128528446
        outSlope: -.128528446
        tangentMode: 0
      - time: 1.19999957
        value: -.157738358
        inSlope: -.128484637
        outSlope: -.128484637
        tangentMode: 0
      - time: 1.21666622
        value: -.159879386
        inSlope: -.128438592
        outSlope: -.128438592
        tangentMode: 0
      - time: 1.23333287
        value: -.16201964
        inSlope: -.128393397
        outSlope: -.128393397
        tangentMode: 0
      - time: 1.25
        value: -.164159223
        inSlope: -.128371447
        outSlope: -.128371447
        tangentMode: 0
      m_PreInfinity: 2
      m_PostInfinity: 2
    attribute: m_LocalRotation.z
    path: body/armL
    classID: 4
    script: {fileID: 0}
  - curve:
      serializedVersion: 2
      m_Curve:
      - time: 0
        value: .999997437
        inSlope: -.000436305971
        outSlope: -.000436305971
        tangentMode: 0
      - time: .0166666675
        value: .999990165
        inSlope: -.00057756895
        outSlope: -.00057756895
        tangentMode: 0
      - time: .0333333351
        value: .999978185
        inSlope: -.000858306768
        outSlope: -.000858306768
        tangentMode: 0
      - time: .0500000045
        value: .999961555
        inSlope: -.0011408329
        outSlope: -.0011408329
        tangentMode: 0
      - time: .0666666701
        value: .999940157
        inSlope: -.00142335903
        outSlope: -.00142335903
        tangentMode: 0
      - time: .0833333358
        value: .99991411
        inSlope: -.00170409691
        outSlope: -.00170409691
        tangentMode: 0
      - time: .100000001
        value: .999883354
        inSlope: -.00198841118
        outSlope: -.00198841118
        tangentMode: 0
      - time: .116666667
        value: .999847829
        inSlope: -.0022709365
        outSlope: -.0022709365
        tangentMode: 0
      - time: .13333334
        value: .999807656
        inSlope: -.00255167438
        outSlope: -.00255167438
        tangentMode: 0
      - time: .150000006
        value: .999762774
        inSlope: -.00283241295
        outSlope: -.00283241295
        tangentMode: 0
      - time: .166666672
        value: .999713242
        inSlope: -.00311493897
        outSlope: -.00311493897
        tangentMode: 0
      - time: .183333337
        value: .999658942
        inSlope: -.00339925312
        outSlope: -.00339925312
        tangentMode: 0
      - time: .200000003
        value: .999599934
        inSlope: -.003679991
        outSlope: -.003679991
        tangentMode: 0
      - time: .216666669
        value: .999536276
        inSlope: -.00396072911
        outSlope: -.00396072911
        tangentMode: 0
      - time: .233333334
        value: .999467909
        inSlope: -.00424504327
        outSlope: -.00424504327
        tangentMode: 0
      - time: .25
        value: .999394774
        inSlope: -.00452756695
        outSlope: -.00452756695
        tangentMode: 0
      - time: .266666681
        value: .99931699
        inSlope: -.00480651483
        outSlope: -.00480651483
        tangentMode: 0
      - time: .283333361
        value: .999234557
        inSlope: -.00508904038
        outSlope: -.00508904038
        tangentMode: 0
      - time: .300000042
        value: .999147356
        inSlope: -.00537335407
        outSlope: -.00537335407
        tangentMode: 0
      - time: .316666722
        value: .999055445
        inSlope: -.00565409195
        outSlope: -.00565409195
        tangentMode: 0
      - time: .333333403
        value: .998958886
        inSlope: -.00593482982
        outSlope: -.00593482982
        tangentMode: 0
      - time: .350000083
        value: .998857617
        inSlope: -.00621735537
        outSlope: -.00621735537
        tangentMode: 0
      - time: .366666764
        value: .99875164
        inSlope: -.00649988092
        outSlope: -.00649988092
        tangentMode: 0
      - time: .383333445
        value: .998640954
        inSlope: -.0067806188
        outSlope: -.0067806188
        tangentMode: 0
      - time: .400000125
        value: .99852562
        inSlope: -.00706314482
        outSlope: -.00706314482
        tangentMode: 0
      - time: .416666806
        value: .998405516
        inSlope: -.00734567037
        outSlope: -.00734567037
        tangentMode: 0
      - time: .433333486
        value: .998280764
        inSlope: -.00762640778
        outSlope: -.00762640778
        tangentMode: 0
      - time: .450000167
        value: .998151302
        inSlope: -.00790714566
        outSlope: -.00790714566
        tangentMode: 0
      - time: .466666847
        value: .998017192
        inSlope: -.00818967167
        outSlope: -.00818967167
        tangentMode: 0
      - time: .483333528
        value: .997878313
        inSlope: -.00847220514
        outSlope: -.00847220514
        tangentMode: 0
      - time: .500000179
        value: .997734785
        inSlope: -.00875116233
        outSlope: -.00875116233
        tangentMode: 0
      - time: .51666683
        value: .997586608
        inSlope: -.00903368834
        outSlope: -.00903368834
        tangentMode: 0
      - time: .53333348
        value: .997433662
        inSlope: -.00931621529
        outSlope: -.00931621529
        tangentMode: 0
      - time: .550000131
        value: .997276068
        inSlope: -.00959695317
        outSlope: -.00959695317
        tangentMode: 0
      - time: .566666782
        value: .997113764
        inSlope: -.00987769105
        outSlope: -.00987769105
        tangentMode: 0
      - time: .583333433
        value: .996946812
        inSlope: -.0101602171
        outSlope: -.0101602171
        tangentMode: 0
      - time: .600000083
        value: .996775091
        inSlope: -.0104409559
        outSlope: -.0104409559
        tangentMode: 0
      - time: .616666734
        value: .99659878
        inSlope: -.0107216937
        outSlope: -.0107216937
        tangentMode: 0
      - time: .633333385
        value: .996417701
        inSlope: -.0110042198
        outSlope: -.0110042198
        tangentMode: 0
      - time: .650000036
        value: .996231973
        inSlope: -.0112849586
        outSlope: -.0112849586
        tangentMode: 0
      - time: .666666687
        value: .996041536
        inSlope: -.0115656964
        outSlope: -.0115656964
        tangentMode: 0
      - time: .683333337
        value: .99584645
        inSlope: -.0118464343
        outSlope: -.0118464343
        tangentMode: 0
      - time: .699999988
        value: .995646656
        inSlope: -.0121271722
        outSlope: -.0121271722
        tangentMode: 0
      - time: .716666639
        value: .995442212
        inSlope: -.012407911
        outSlope: -.012407911
        tangentMode: 0
      - time: .73333329
        value: .995233059
        inSlope: -.012690437
        outSlope: -.012690437
        tangentMode: 0
      - time: .74999994
        value: .995019197
        inSlope: -.0129693868
        outSlope: -.0129693868
        tangentMode: 0
      - time: .766666591
        value: .994800746
        inSlope: -.0132501256
        outSlope: -.0132501256
        tangentMode: 0
      - time: .783333242
        value: .994577527
        inSlope: -.0135326516
        outSlope: -.0135326516
        tangentMode: 0
      - time: .799999893
        value: .994349658
        inSlope: -.0138116013
        outSlope: -.0138116013
        tangentMode: 0
      - time: .816666543
        value: .994117141
        inSlope: -.0140923392
        outSlope: -.0140923392
        tangentMode: 0
      - time: .833333194
        value: .993879914
        inSlope: -.014373078
        outSlope: -.014373078
        tangentMode: 0
      - time: .849999845
        value: .993638039
        inSlope: -.0146538159
        outSlope: -.0146538159
        tangentMode: 0
      - time: .866666496
        value: .993391454
        inSlope: -.0149345538
        outSlope: -.0149345538
        tangentMode: 0
      - time: .883333147
        value: .993140221
        inSlope: -.0152135044
        outSlope: -.0152135044
        tangentMode: 0
      - time: .899999797
        value: .992884338
        inSlope: -.0154942423
        outSlope: -.0154942423
        tangentMode: 0
      - time: .916666448
        value: .992623746
        inSlope: -.0157749802
        outSlope: -.0157749802
        tangentMode: 0
      - time: .933333099
        value: .992358506
        inSlope: -.0160539299
        outSlope: -.0160539299
        tangentMode: 0
      - time: .94999975
        value: .992088616
        inSlope: -.0163346678
        outSlope: -.0163346678
        tangentMode: 0
      - time: .9666664
        value: .991814017
        inSlope: -.0166136175
        outSlope: -.0166136175
        tangentMode: 0
      - time: .983333051
        value: .991534829
        inSlope: -.0168925691
        outSlope: -.0168925691
        tangentMode: 0
      - time: .999999702
        value: .991250932
        inSlope: -.0171750635
        outSlope: -.0171750635
        tangentMode: 0
      - time: 1.01666641
        value: .990962327
        inSlope: -.0174540132
        outSlope: -.0174540132
        tangentMode: 0
      - time: 1.03333306
        value: .990669131
        inSlope: -.0177329946
        outSlope: -.0177329946
        tangentMode: 0
      - time: 1.04999971
        value: .990371227
        inSlope: -.0180119444
        outSlope: -.0180119444
        tangentMode: 0
      - time: 1.06666636
        value: .990068734
        inSlope: -.0182908941
        outSlope: -.0182908941
        tangentMode: 0
      - time: 1.08333302
        value: .989761531
        inSlope: -.0185716338
        outSlope: -.0185716338
        tangentMode: 0
      - time: 1.09999967
        value: .98944968
        inSlope: -.0188505836
        outSlope: -.0188505836
        tangentMode: 0
      - time: 1.11666632
        value: .989133179
        inSlope: -.0191295333
        outSlope: -.0191295333
        tangentMode: 0
      - time: 1.13333297
        value: .988812029
        inSlope: -.0194084831
        outSlope: -.0194084831
        tangentMode: 0
      - time: 1.14999962
        value: .98848623
        inSlope: -.0196874328
        outSlope: -.0196874328
        tangentMode: 0
      - time: 1.16666627
        value: .988155782
        inSlope: -.0199663825
        outSlope: -.0199663825
        tangentMode: 0
      - time: 1.18333292
        value: .987820685
        inSlope: -.0202453323
        outSlope: -.0202453323
        tangentMode: 0
      - time: 1.19999957
        value: .987480938
        inSlope: -.020524282
        outSlope: -.020524282
        tangentMode: 0
      - time: 1.21666622
        value: .987136543
        inSlope: -.0208014455
        outSlope: -.0208014455
        tangentMode: 0
      - time: 1.23333287
        value: .986787558
        inSlope: -.0210800916
        outSlope: -.0210800916
        tangentMode: 0
      - time: 1.25
        value: .986433864
        inSlope: -.021221051
        outSlope: -.021221051
        tangentMode: 0
      m_PreInfinity: 2
      m_PostInfinity: 2
    attribute: m_LocalRotation.w
    path: body/armL
    classID: 4
    script: {fileID: 0}
  - curve:
      serializedVersion: 2
      m_Curve:
      - time: 0
        value: .162255168
        inSlope: -.913530946
        outSlope: -.913530946
        tangentMode: 10
      - time: .166666672
        value: .00999999978
        inSlope: -.936765492
        outSlope: -.936765492
        tangentMode: 10
      - time: .333333343
        value: -.150000006
        inSlope: -.480000019
        outSlope: -.480000019
        tangentMode: 10
      - time: .5
        value: -.150000006
        inSlope: 0
        outSlope: 0
        tangentMode: 10
      - time: .75
        value: -.150000006
        inSlope: 0
        outSlope: 0
        tangentMode: 10
      m_PreInfinity: 2
      m_PostInfinity: 2
    attribute: m_LocalPosition.x
    path: body
    classID: 4
    script: {fileID: 0}
  - curve:
      serializedVersion: 2
      m_Curve:
      - time: 0
        value: 1.71534669
        inSlope: .987919807
        outSlope: .987919807
        tangentMode: 10
      - time: .166666672
        value: 1.88
        inSlope: .313960075
        outSlope: .313960075
        tangentMode: 10
      - time: .333333343
        value: 1.82000005
        inSlope: -.179999828
        outSlope: -.179999828
        tangentMode: 10
      - time: .5
        value: 1.82000005
        inSlope: 0
        outSlope: 0
        tangentMode: 10
      - time: .75
        value: 1.82000005
        inSlope: 0
        outSlope: 0
        tangentMode: 10
      m_PreInfinity: 2
      m_PostInfinity: 2
    attribute: m_LocalPosition.y
    path: body
    classID: 4
    script: {fileID: 0}
  - curve:
      serializedVersion: 2
      m_Curve:
      - time: 0
        value: 0
        inSlope: 0
        outSlope: 0
        tangentMode: 10
      - time: .166666672
        value: 0
        inSlope: 0
        outSlope: 0
        tangentMode: 10
      - time: .333333343
        value: 0
        inSlope: 0
        outSlope: 0
        tangentMode: 10
      - time: .5
        value: 0
        inSlope: 0
        outSlope: 0
        tangentMode: 10
      - time: .75
        value: 0
        inSlope: 0
        outSlope: 0
        tangentMode: 10
      m_PreInfinity: 2
      m_PostInfinity: 2
    attribute: m_LocalPosition.z
    path: body
    classID: 4
    script: {fileID: 0}
  m_EulerEditorCurves:
  - curve:
      serializedVersion: 2
      m_Curve:
      - time: 0
        value: 0
        inSlope: 0
        outSlope: 0
        tangentMode: 10
      - time: 1.25
        value: 0
        inSlope: 0
        outSlope: 0
        tangentMode: 10
      m_PreInfinity: 2
      m_PostInfinity: 2
    attribute: localEulerAnglesBaked.x
    path: body/armL
    classID: 4
    script: {fileID: 0}
  - curve:
      serializedVersion: 2
      m_Curve:
      - time: 0
        value: 0
        inSlope: 0
        outSlope: 0
        tangentMode: 10
      - time: 1.25
        value: 0
        inSlope: 0
        outSlope: 0
        tangentMode: 10
      m_PreInfinity: 2
      m_PostInfinity: 2
    attribute: localEulerAnglesBaked.y
    path: body/armL
    classID: 4
    script: {fileID: 0}
  - curve:
      serializedVersion: 2
      m_Curve:
      - time: 0
        value: -.259460449
        inSlope: -14.9098635
        outSlope: -14.9098635
        tangentMode: 10
      - time: 1.25
        value: -18.8967896
        inSlope: -14.9098635
        outSlope: -14.9098635
        tangentMode: 10
      m_PreInfinity: 2
      m_PostInfinity: 2
    attribute: localEulerAnglesBaked.z
    path: body/armL
    classID: 4
    script: {fileID: 0}
  m_HasGenericRootTransform: 0
  m_HasMotionFloatCurves: 0
  m_GenerateMotionCurves: 0
  m_Events: []
