%YAML 1.1
%TAG !u! tag:unity3d.com,2011:
--- !u!74 &7400000
AnimationClip:
  m_ObjectHideFlags: 0
  m_PrefabParentObject: {fileID: 0}
  m_PrefabInternal: {fileID: 0}
  m_Name: mom idle
  serializedVersion: 6
  m_Legacy: 0
  m_Compressed: 0
  m_UseHighQualityCurve: 1
  m_RotationCurves:
  - curve:
      serializedVersion: 2
      m_Curve:
      - time: 0
        value: {x: 0, y: 0, z: -.0048703705, w: .999988139}
        inSlope: {x: 0, y: 0, z: -.00167537469, w: -7.15255692e-06}
        outSlope: {x: 0, y: 0, z: -.00167537469, w: -7.15255692e-06}
        tangentMode: 0
      - time: .0166666675
        value: {x: 0, y: 0, z: -.00489829341, w: .999988019}
        inSlope: {x: 0, y: 0, z: -.00331315654, w: -1.60932523e-05}
        outSlope: {x: 0, y: 0, z: -.00331315654, w: -1.60932523e-05}
        tangentMode: 0
      - time: .0333333351
        value: {x: 0, y: 0, z: -.00498080906, w: .999987602}
        inSlope: {x: 0, y: 0, z: -.00653219782, w: -3.39746439e-05}
        outSlope: {x: 0, y: 0, z: -.00653219782, w: -3.39746439e-05}
        tangentMode: 0
      - time: .0500000045
        value: {x: 0, y: 0, z: -.00511603337, w: .999986887}
        inSlope: {x: 0, y: 0, z: -.00963826664, w: -5.00679016e-05}
        outSlope: {x: 0, y: 0, z: -.00963826664, w: -5.00679016e-05}
        tangentMode: 0
      - time: .0666666701
        value: {x: 0, y: 0, z: -.00530208461, w: .999985933}
        inSlope: {x: 0, y: 0, z: -.0126314033, w: -6.6161163e-05}
        outSlope: {x: 0, y: 0, z: -.0126314033, w: -6.6161163e-05}
        tangentMode: 0
      - time: .0833333358
        value: {x: 0, y: 0, z: -.00553708011, w: .999984682}
        inSlope: {x: 0, y: 0, z: -.0155115519, w: -8.58306958e-05}
        outSlope: {x: 0, y: 0, z: -.0155115519, w: -8.58306958e-05}
        tangentMode: 0
      - time: .100000001
        value: {x: 0, y: 0, z: -.00581913628, w: .999983072}
        inSlope: {x: 0, y: 0, z: -.0182787664, w: -.000107288368}
        outSlope: {x: 0, y: 0, z: -.0182787664, w: -.000107288368}
        tangentMode: 0
      - time: .116666667
        value: {x: 0, y: 0, z: -.0061463723, w: .999981105}
        inSlope: {x: 0, y: 0, z: -.0209330171, w: -.000128746004}
        outSlope: {x: 0, y: 0, z: -.0209330171, w: -.000128746004}
        tangentMode: 0
      - time: .13333334
        value: {x: 0, y: 0, z: -.00651690364, w: .999978781}
        inSlope: {x: 0, y: 0, z: -.0234742705, w: -.000153779954}
        outSlope: {x: 0, y: 0, z: -.0234742705, w: -.000153779954}
        tangentMode: 0
      - time: .150000006
        value: {x: 0, y: 0, z: -.0069288481, w: .999975979}
        inSlope: {x: 0, y: 0, z: -.0259025842, w: -.000180602088}
        outSlope: {x: 0, y: 0, z: -.0259025842, w: -.000180602088}
        tangentMode: 0
      - time: .166666672
        value: {x: 0, y: 0, z: -.00738032302, w: .999972761}
        inSlope: {x: 0, y: 0, z: -.0282179303, w: -.000207424178}
        outSlope: {x: 0, y: 0, z: -.0282179303, w: -.000207424178}
        tangentMode: 0
      - time: .183333337
        value: {x: 0, y: 0, z: -.00786944572, w: .999969065}
        inSlope: {x: 0, y: 0, z: -.0304202344, w: -.000239610701}
        outSlope: {x: 0, y: 0, z: -.0304202344, w: -.000239610701}
        tangentMode: 0
      - time: .200000003
        value: {x: 0, y: 0, z: -.00839433074, w: .999964774}
        inSlope: {x: 0, y: 0, z: -.0325095803, w: -.000273585349}
        outSlope: {x: 0, y: 0, z: -.0325095803, w: -.000273585349}
        tangentMode: 0
      - time: .216666669
        value: {x: 0, y: 0, z: -.00895309821, w: .999959946}
        inSlope: {x: 0, y: 0, z: -.0344859734, w: -.000309348135}
        outSlope: {x: 0, y: 0, z: -.0344859734, w: -.000309348135}
        tangentMode: 0
      - time: .233333334
        value: {x: 0, y: 0, z: -.00954386313, w: .999954462}
        inSlope: {x: 0, y: 0, z: -.0363494121, w: -.000348687201}
        outSlope: {x: 0, y: 0, z: -.0363494121, w: -.000348687201}
        tangentMode: 0
      - time: .25
        value: {x: 0, y: 0, z: -.0101647452, w: .999948323}
        inSlope: {x: 0, y: 0, z: -.0380998999, w: -.000388026063}
        outSlope: {x: 0, y: 0, z: -.0380998999, w: -.000388026063}
        tangentMode: 0
      - time: .266666681
        value: {x: 0, y: 0, z: -.0108138602, w: .999941528}
        inSlope: {x: 0, y: 0, z: -.0397372842, w: -.000429153093}
        outSlope: {x: 0, y: 0, z: -.0397372842, w: -.000429153093}
        tangentMode: 0
      - time: .283333361
        value: {x: 0, y: 0, z: -.0114893224, w: .999934018}
        inSlope: {x: 0, y: 0, z: -.0412616171, w: -.000473856519}
        outSlope: {x: 0, y: 0, z: -.0412616171, w: -.000473856519}
        tangentMode: 0
      - time: .300000042
        value: {x: 0, y: 0, z: -.0121892486, w: .999925733}
        inSlope: {x: 0, y: 0, z: -.0426730737, w: -.000522136223}
        outSlope: {x: 0, y: 0, z: -.0426730737, w: -.000522136223}
        tangentMode: 0
      - time: .316666722
        value: {x: 0, y: 0, z: -.0129117593, w: .999916613}
        inSlope: {x: 0, y: 0, z: -.0439715683, w: -.000568627845}
        outSlope: {x: 0, y: 0, z: -.0439715683, w: -.000568627845}
        tangentMode: 0
      - time: .333333403
        value: {x: 0, y: 0, z: -.0136549687, w: .999906778}
        inSlope: {x: 0, y: 0, z: -.0451569632, w: -.000616907608}
        outSlope: {x: 0, y: 0, z: -.0451569632, w: -.000616907608}
        tangentMode: 0
      - time: .350000083
        value: {x: 0, y: 0, z: -.0144169927, w: .999896049}
        inSlope: {x: 0, y: 0, z: -.0462293439, w: -.000666975393}
        outSlope: {x: 0, y: 0, z: -.0462293439, w: -.000666975393}
        tangentMode: 0
      - time: .366666764
        value: {x: 0, y: 0, z: -.0151959481, w: .999884546}
        inSlope: {x: 0, y: 0, z: -.0471887887, w: -.000717043295}
        outSlope: {x: 0, y: 0, z: -.0471887887, w: -.000717043295}
        tangentMode: 0
      - time: .383333445
        value: {x: 0, y: 0, z: -.0159899537, w: .999872148}
        inSlope: {x: 0, y: 0, z: -.0480353311, w: -.000768899277}
        outSlope: {x: 0, y: 0, z: -.0480353311, w: -.000768899277}
        tangentMode: 0
      - time: .400000125
        value: {x: 0, y: 0, z: -.0167971272, w: .999858916}
        inSlope: {x: 0, y: 0, z: -.0487687215, w: -.000818967121}
        outSlope: {x: 0, y: 0, z: -.0487687215, w: -.000818967121}
        tangentMode: 0
      - time: .416666806
        value: {x: 0, y: 0, z: -.0176155791, w: .999844849}
        inSlope: {x: 0, y: 0, z: -.0493890941, w: -.000870823162}
        outSlope: {x: 0, y: 0, z: -.0493890941, w: -.000870823162}
        tangentMode: 0
      - time: .433333486
        value: {x: 0, y: 0, z: -.0184434317, w: .999829888}
        inSlope: {x: 0, y: 0, z: -.0498965904, w: -.000920890947}
        outSlope: {x: 0, y: 0, z: -.0498965904, w: -.000920890947}
        tangentMode: 0
      - time: .450000167
        value: {x: 0, y: 0, z: -.0192788001, w: .999814153}
        inSlope: {x: 0, y: 0, z: -.0502909869, w: -.000969170709}
        outSlope: {x: 0, y: 0, z: -.0502909869, w: -.000969170709}
        tangentMode: 0
      - time: .466666847
        value: {x: 0, y: 0, z: -.0201197993, w: .999797583}
        inSlope: {x: 0, y: 0, z: -.0505724512, w: -.00101745047}
        outSlope: {x: 0, y: 0, z: -.0505724512, w: -.00101745047}
        tangentMode: 0
      - time: .483333528
        value: {x: 0, y: 0, z: -.0209645499, w: .999780238}
        inSlope: {x: 0, y: 0, z: -.050741028, w: -.00106394303}
        outSlope: {x: 0, y: 0, z: -.050741028, w: -.00106394303}
        tangentMode: 0
      - time: .500000179
        value: {x: 0, y: 0, z: -.0218111668, w: .999762118}
        inSlope: {x: 0, y: 0, z: -.0507966727, w: -.00110864744}
        outSlope: {x: 0, y: 0, z: -.0507966727, w: -.00110864744}
        tangentMode: 0
      - time: .51666683
        value: {x: 0, y: 0, z: -.0226577707, w: .999743283}
        inSlope: {x: 0, y: 0, z: -.0507392287, w: -.00114977476}
        outSlope: {x: 0, y: 0, z: -.0507392287, w: -.00114977476}
        tangentMode: 0
      - time: .53333348
        value: {x: 0, y: 0, z: -.0235024728, w: .999723792}
        inSlope: {x: 0, y: 0, z: -.0505687408, w: -.00118911383}
        outSlope: {x: 0, y: 0, z: -.0505687408, w: -.00118911383}
        tangentMode: 0
      - time: .550000131
        value: {x: 0, y: 0, z: -.0243433937, w: .999703646}
        inSlope: {x: 0, y: 0, z: -.0502854325, w: -.00122487661}
        outSlope: {x: 0, y: 0, z: -.0502854325, w: -.00122487661}
        tangentMode: 0
      - time: .566666782
        value: {x: 0, y: 0, z: -.0251786523, w: .999682963}
        inSlope: {x: 0, y: 0, z: -.0498893037, w: -.00125527498}
        outSlope: {x: 0, y: 0, z: -.0498893037, w: -.00125527498}
        tangentMode: 0
      - time: .583333433
        value: {x: 0, y: 0, z: -.0260063689, w: .999661803}
        inSlope: {x: 0, y: 0, z: -.0493801311, w: -.00128388521}
        outSlope: {x: 0, y: 0, z: -.0493801311, w: -.00128388521}
        tangentMode: 0
      - time: .600000083
        value: {x: 0, y: 0, z: -.026824655, w: .999640167}
        inSlope: {x: 0, y: 0, z: -.0487580821, w: -.00130891928}
        outSlope: {x: 0, y: 0, z: -.0487580821, w: -.00130891928}
        tangentMode: 0
      - time: .616666734
        value: {x: 0, y: 0, z: -.0276316367, w: .999618173}
        inSlope: {x: 0, y: 0, z: -.0480230413, w: -.00132680067}
        outSlope: {x: 0, y: 0, z: -.0480230413, w: -.00132680067}
        tangentMode: 0
      - time: .633333385
        value: {x: 0, y: 0, z: -.0284254216, w: .99959594}
        inSlope: {x: 0, y: 0, z: -.047175128, w: -.00134110579}
        outSlope: {x: 0, y: 0, z: -.047175128, w: -.00134110579}
        tangentMode: 0
      - time: .650000036
        value: {x: 0, y: 0, z: -.0292041395, w: .999573469}
        inSlope: {x: 0, y: 0, z: -.0462145619, w: -.00135004648}
        outSlope: {x: 0, y: 0, z: -.0462145619, w: -.00135004648}
        tangentMode: 0
      - time: .666666687
        value: {x: 0, y: 0, z: -.0299659055, w: .999550939}
        inSlope: {x: 0, y: 0, z: -.0451409519, w: -.00135362276}
        outSlope: {x: 0, y: 0, z: -.0451409519, w: -.00135362276}
        tangentMode: 0
      - time: .683333337
        value: {x: 0, y: 0, z: -.0307088364, w: .999528348}
        inSlope: {x: 0, y: 0, z: -.0439544618, w: -.00135004648}
        outSlope: {x: 0, y: 0, z: -.0439544618, w: -.00135004648}
        tangentMode: 0
      - time: .699999988
        value: {x: 0, y: 0, z: -.0314310528, w: .999505937}
        inSlope: {x: 0, y: 0, z: -.0426550433, w: -.00133931765}
        outSlope: {x: 0, y: 0, z: -.0426550433, w: -.00133931765}
        tangentMode: 0
      - time: .716666639
        value: {x: 0, y: 0, z: -.0321306698, w: .999483705}
        inSlope: {x: 0, y: 0, z: -.0412431359, w: -.00132501253}
        outSlope: {x: 0, y: 0, z: -.0412431359, w: -.00132501253}
        tangentMode: 0
      - time: .73333329
        value: {x: 0, y: 0, z: -.0328058228, w: .99946177}
        inSlope: {x: 0, y: 0, z: -.0397183001, w: -.00130355486}
        outSlope: {x: 0, y: 0, z: -.0397183001, w: -.00130355486}
        tangentMode: 0
      - time: .74999994
        value: {x: 0, y: 0, z: -.0334546119, w: .999440253}
        inSlope: {x: 0, y: 0, z: -.0380803645, w: -.00127494452}
        outSlope: {x: 0, y: 0, z: -.0380803645, w: -.00127494452}
        tangentMode: 0
      - time: .766666591
        value: {x: 0, y: 0, z: -.034075167, w: .999419272}
        inSlope: {x: 0, y: 0, z: -.0363299996, w: -.00123918173}
        outSlope: {x: 0, y: 0, z: -.0363299996, w: -.00123918173}
        tangentMode: 0
      - time: .783333242
        value: {x: 0, y: 0, z: -.0346656106, w: .999398947}
        inSlope: {x: 0, y: 0, z: -.0344667546, w: -.00119447825}
        outSlope: {x: 0, y: 0, z: -.0344667546, w: -.00119447825}
        tangentMode: 0
      - time: .799999893
        value: {x: 0, y: 0, z: -.0352240577, w: .999379456}
        inSlope: {x: 0, y: 0, z: -.0324906334, w: -.00114441034}
        outSlope: {x: 0, y: 0, z: -.0324906334, w: -.00114441034}
        tangentMode: 0
      - time: .816666543
        value: {x: 0, y: 0, z: -.0357486308, w: .9993608}
        inSlope: {x: 0, y: 0, z: -.0304017514, w: -.00108718977}
        outSlope: {x: 0, y: 0, z: -.0304017514, w: -.00108718977}
        tangentMode: 0
      - time: .833333194
        value: {x: 0, y: 0, z: -.0362374485, w: .999343216}
        inSlope: {x: 0, y: 0, z: -.0282002129, w: -.0010210285}
        outSlope: {x: 0, y: 0, z: -.0282002129, w: -.0010210285}
        tangentMode: 0
      - time: .849999845
        value: {x: 0, y: 0, z: -.036688637, w: .999326766}
        inSlope: {x: 0, y: 0, z: -.0258858018, w: -.000949502923}
        outSlope: {x: 0, y: 0, z: -.0258858018, w: -.000949502923}
        tangentMode: 0
      - time: .866666496
        value: {x: 0, y: 0, z: -.0371003076, w: .999311566}
        inSlope: {x: 0, y: 0, z: -.0234587342, w: -.000870824675}
        outSlope: {x: 0, y: 0, z: -.0234587342, w: -.000870824675}
        tangentMode: 0
      - time: .883333147
        value: {x: 0, y: 0, z: -.037470594, w: .999297738}
        inSlope: {x: 0, y: 0, z: -.0209187903, w: -.000784993928}
        outSlope: {x: 0, y: 0, z: -.0209187903, w: -.000784993928}
        tangentMode: 0
      - time: .899999797
        value: {x: 0, y: 0, z: -.0377976, w: .9992854}
        inSlope: {x: 0, y: 0, z: -.0182659738, w: -.000690222427}
        outSlope: {x: 0, y: 0, z: -.0182659738, w: -.000690222427}
        tangentMode: 0
      - time: .916666448
        value: {x: 0, y: 0, z: -.0380794592, w: .999274731}
        inSlope: {x: 0, y: 0, z: -.0155006126, w: -.000590086565}
        outSlope: {x: 0, y: 0, z: -.0155006126, w: -.000590086565}
        tangentMode: 0
      - time: .933333099
        value: {x: 0, y: 0, z: -.0383142866, w: .99926573}
        inSlope: {x: 0, y: 0, z: -.012622375, w: -.000484586228}
        outSlope: {x: 0, y: 0, z: -.012622375, w: -.000484586228}
        tangentMode: 0
      - time: .94999975
        value: {x: 0, y: 0, z: -.0385002047, w: .999258578}
        inSlope: {x: 0, y: 0, z: -.00963126309, w: -.000370145193}
        outSlope: {x: 0, y: 0, z: -.00963126309, w: -.000370145193}
        tangentMode: 0
      - time: .9666664
        value: {x: 0, y: 0, z: -.0386353284, w: .999253392}
        inSlope: {x: 0, y: 0, z: -.00652727345, w: -.00025212788}
        outSlope: {x: 0, y: 0, z: -.00652727345, w: -.00025212788}
        tangentMode: 0
      - time: .983333051
        value: {x: 0, y: 0, z: -.0387177803, w: .999250174}
        inSlope: {x: 0, y: 0, z: -.00331085501, w: -.000128746149}
        outSlope: {x: 0, y: 0, z: -.00331085501, w: -.000128746149}
        tangentMode: 0
      - time: .999999702
        value: {x: 0, y: 0, z: -.0387456901, w: .999249101}
        inSlope: {x: 0, y: 0, z: -2.26544216e-07, w: -1.12777343e-10}
        outSlope: {x: 0, y: 0, z: -2.26544216e-07, w: -1.12777343e-10}
        tangentMode: 0
      - time: 1.01666641
        value: {x: 0, y: 0, z: -.0387177877, w: .999250174}
        inSlope: {x: 0, y: 0, z: .00331073999, w: .000128746047}
        outSlope: {x: 0, y: 0, z: .00331073999, w: .000128746047}
        tangentMode: 0
      - time: 1.03333306
        value: {x: 0, y: 0, z: -.0386353321, w: .999253392}
        inSlope: {x: 0, y: 0, z: .00652738521, w: .00025212788}
        outSlope: {x: 0, y: 0, z: .00652738521, w: .00025212788}
        tangentMode: 0
      - time: 1.04999971
        value: {x: 0, y: 0, z: -.0385002084, w: .999258578}
        inSlope: {x: 0, y: 0, z: .00963115133, w: .000370145193}
        outSlope: {x: 0, y: 0, z: .00963115133, w: .000370145193}
        tangentMode: 0
      - time: 1.06666636
        value: {x: 0, y: 0, z: -.0383142941, w: .99926573}
        inSlope: {x: 0, y: 0, z: .0126222633, w: .000484586228}
        outSlope: {x: 0, y: 0, z: .0126222633, w: .000484586228}
        tangentMode: 0
      - time: 1.08333302
        value: {x: 0, y: 0, z: -.0380794667, w: .999274731}
        inSlope: {x: 0, y: 0, z: .015500389, w: .000590086565}
        outSlope: {x: 0, y: 0, z: .015500389, w: .000590086565}
        tangentMode: 0
      - time: 1.09999967
        value: {x: 0, y: 0, z: -.0377976149, w: .9992854}
        inSlope: {x: 0, y: 0, z: .018265862, w: .000690222427}
        outSlope: {x: 0, y: 0, z: .018265862, w: .000690222427}
        tangentMode: 0
      - time: 1.11666632
        value: {x: 0, y: 0, z: -.0374706052, w: .999297738}
        inSlope: {x: 0, y: 0, z: .0209187903, w: .000784993928}
        outSlope: {x: 0, y: 0, z: .0209187903, w: .000784993928}
        tangentMode: 0
      - time: 1.13333297
        value: {x: 0, y: 0, z: -.0371003225, w: .999311566}
        inSlope: {x: 0, y: 0, z: .0234587342, w: .000870824675}
        outSlope: {x: 0, y: 0, z: .0234587342, w: .000870824675}
        tangentMode: 0
      - time: 1.14999962
        value: {x: 0, y: 0, z: -.0366886482, w: .999326766}
        inSlope: {x: 0, y: 0, z: .02588569, w: .000949502923}
        outSlope: {x: 0, y: 0, z: .02588569, w: .000949502923}
        tangentMode: 0
      - time: 1.16666627
        value: {x: 0, y: 0, z: -.0362374671, w: .999343216}
        inSlope: {x: 0, y: 0, z: .0281999893, w: .0010210285}
        outSlope: {x: 0, y: 0, z: .0281999893, w: .0010210285}
        tangentMode: 0
      - time: 1.18333292
        value: {x: 0, y: 0, z: -.0357486494, w: .9993608}
        inSlope: {x: 0, y: 0, z: .0304018632, w: .00108718977}
        outSlope: {x: 0, y: 0, z: .0304018632, w: .00108718977}
        tangentMode: 0
      - time: 1.19999957
        value: {x: 0, y: 0, z: -.0352240726, w: .999379456}
        inSlope: {x: 0, y: 0, z: .0324906334, w: .00114441034}
        outSlope: {x: 0, y: 0, z: .0324906334, w: .00114441034}
        tangentMode: 0
      - time: 1.21666622
        value: {x: 0, y: 0, z: -.0346656293, w: .999398947}
        inSlope: {x: 0, y: 0, z: .0344665311, w: .00119447825}
        outSlope: {x: 0, y: 0, z: .0344665311, w: .00119447825}
        tangentMode: 0
      - time: 1.23333287
        value: {x: 0, y: 0, z: -.0340751894, w: .999419272}
        inSlope: {x: 0, y: 0, z: .0363299996, w: .00123918173}
        outSlope: {x: 0, y: 0, z: .0363299996, w: .00123918173}
        tangentMode: 0
      - time: 1.24999952
        value: {x: 0, y: 0, z: -.0334546305, w: .999440253}
        inSlope: {x: 0, y: 0, z: .0380804762, w: .00127494452}
        outSlope: {x: 0, y: 0, z: .0380804762, w: .00127494452}
        tangentMode: 0
      - time: 1.26666617
        value: {x: 0, y: 0, z: -.0328058414, w: .99946177}
        inSlope: {x: 0, y: 0, z: .0397180766, w: .00130355486}
        outSlope: {x: 0, y: 0, z: .0397180766, w: .00130355486}
        tangentMode: 0
      - time: 1.28333282
        value: {x: 0, y: 0, z: -.0321306959, w: .999483705}
        inSlope: {x: 0, y: 0, z: .0412430242, w: .00132501253}
        outSlope: {x: 0, y: 0, z: .0412430242, w: .00132501253}
        tangentMode: 0
      - time: 1.29999948
        value: {x: 0, y: 0, z: -.0314310752, w: .999505937}
        inSlope: {x: 0, y: 0, z: .0426551551, w: .00133931765}
        outSlope: {x: 0, y: 0, z: .0426551551, w: .00133931765}
        tangentMode: 0
      - time: 1.31666613
        value: {x: 0, y: 0, z: -.0307088587, w: .999528348}
        inSlope: {x: 0, y: 0, z: .0439544618, w: .00135004648}
        outSlope: {x: 0, y: 0, z: .0439544618, w: .00135004648}
        tangentMode: 0
      - time: 1.33333278
        value: {x: 0, y: 0, z: -.0299659278, w: .999550939}
        inSlope: {x: 0, y: 0, z: .0451408923, w: .00135362276}
        outSlope: {x: 0, y: 0, z: .0451408923, w: .00135362276}
        tangentMode: 0
      - time: 1.34999943
        value: {x: 0, y: 0, z: -.0292041637, w: .999573469}
        inSlope: {x: 0, y: 0, z: .0462144502, w: .00135004648}
        outSlope: {x: 0, y: 0, z: .0462144502, w: .00135004648}
        tangentMode: 0
      - time: 1.36666608
        value: {x: 0, y: 0, z: -.0284254476, w: .99959594}
        inSlope: {x: 0, y: 0, z: .0471751839, w: .00134110579}
        outSlope: {x: 0, y: 0, z: .0471751839, w: .00134110579}
        tangentMode: 0
      - time: 1.38333273
        value: {x: 0, y: 0, z: -.0276316591, w: .999618173}
        inSlope: {x: 0, y: 0, z: .0480230413, w: .00132680067}
        outSlope: {x: 0, y: 0, z: .0480230413, w: .00132680067}
        tangentMode: 0
      - time: 1.39999938
        value: {x: 0, y: 0, z: -.0268246811, w: .999640167}
        inSlope: {x: 0, y: 0, z: .0487579107, w: .00130891928}
        outSlope: {x: 0, y: 0, z: .0487579107, w: .00130891928}
        tangentMode: 0
      - time: 1.41666603
        value: {x: 0, y: 0, z: -.0260063969, w: .999661803}
        inSlope: {x: 0, y: 0, z: .0493800193, w: .00128388521}
        outSlope: {x: 0, y: 0, z: .0493800193, w: .00128388521}
        tangentMode: 0
      - time: 1.43333268
        value: {x: 0, y: 0, z: -.0251786821, w: .999682963}
        inSlope: {x: 0, y: 0, z: .0498893037, w: .00125527498}
        outSlope: {x: 0, y: 0, z: .0498893037, w: .00125527498}
        tangentMode: 0
      - time: 1.44999933
        value: {x: 0, y: 0, z: -.0243434217, w: .999703646}
        inSlope: {x: 0, y: 0, z: .0502855442, w: .00122487661}
        outSlope: {x: 0, y: 0, z: .0502855442, w: .00122487661}
        tangentMode: 0
      - time: 1.46666598
        value: {x: 0, y: 0, z: -.0235024989, w: .999723792}
        inSlope: {x: 0, y: 0, z: .0505687408, w: .00118911383}
        outSlope: {x: 0, y: 0, z: .0505687408, w: .00118911383}
        tangentMode: 0
      - time: 1.48333263
        value: {x: 0, y: 0, z: -.0226577986, w: .999743283}
        inSlope: {x: 0, y: 0, z: .0507391728, w: .00114977476}
        outSlope: {x: 0, y: 0, z: .0507391728, w: .00114977476}
        tangentMode: 0
      - time: 1.49999928
        value: {x: 0, y: 0, z: -.0218111947, w: .999762118}
        inSlope: {x: 0, y: 0, z: .0507966727, w: .00110864744}
        outSlope: {x: 0, y: 0, z: .0507966727, w: .00110864744}
        tangentMode: 0
      - time: 1.51666594
        value: {x: 0, y: 0, z: -.0209645778, w: .999780238}
        inSlope: {x: 0, y: 0, z: .0507410169, w: .00106394396}
        outSlope: {x: 0, y: 0, z: .0507410169, w: .00106394396}
        tangentMode: 0
      - time: 1.53333259
        value: {x: 0, y: 0, z: -.0201198291, w: .999797583}
        inSlope: {x: 0, y: 0, z: .0505724847, w: .00101745222}
        outSlope: {x: 0, y: 0, z: .0505724847, w: .00101745222}
        tangentMode: 0
      - time: 1.54999924
        value: {x: 0, y: 0, z: -.0192788299, w: .999814153}
        inSlope: {x: 0, y: 0, z: .0502910204, w: .000969172455}
        outSlope: {x: 0, y: 0, z: .0502910204, w: .000969172455}
        tangentMode: 0
      - time: 1.56666589
        value: {x: 0, y: 0, z: -.0184434634, w: .999829888}
        inSlope: {x: 0, y: 0, z: .0498965681, w: .000920892635}
        outSlope: {x: 0, y: 0, z: .0498965681, w: .000920892635}
        tangentMode: 0
      - time: 1.58333254
        value: {x: 0, y: 0, z: -.0176156126, w: .999844849}
        inSlope: {x: 0, y: 0, z: .0493891276, w: .000870824675}
        outSlope: {x: 0, y: 0, z: .0493891276, w: .000870824675}
        tangentMode: 0
      - time: 1.59999919
        value: {x: 0, y: 0, z: -.0167971607, w: .999858916}
        inSlope: {x: 0, y: 0, z: .0487688109, w: .000818968634}
        outSlope: {x: 0, y: 0, z: .0487688109, w: .000818968634}
        tangentMode: 0
      - time: 1.61666584
        value: {x: 0, y: 0, z: -.0159899872, w: .999872148}
        inSlope: {x: 0, y: 0, z: .0480352789, w: .000768900616}
        outSlope: {x: 0, y: 0, z: .0480352789, w: .000768900616}
        tangentMode: 0
      - time: 1.63333249
        value: {x: 0, y: 0, z: -.0151959863, w: .999884546}
        inSlope: {x: 0, y: 0, z: .0471888185, w: .000717044575}
        outSlope: {x: 0, y: 0, z: .0471888185, w: .000717044575}
        tangentMode: 0
      - time: 1.64999914
        value: {x: 0, y: 0, z: -.0144170281, w: .999896049}
        inSlope: {x: 0, y: 0, z: .0462295115, w: .000666976615}
        outSlope: {x: 0, y: 0, z: .0462295115, w: .000666976615}
        tangentMode: 0
      - time: 1.66666579
        value: {x: 0, y: 0, z: -.0136550041, w: .999906778}
        inSlope: {x: 0, y: 0, z: .0451569855, w: .000616908656}
        outSlope: {x: 0, y: 0, z: .0451569855, w: .000616908656}
        tangentMode: 0
      - time: 1.68333244
        value: {x: 0, y: 0, z: -.0129117966, w: .999916613}
        inSlope: {x: 0, y: 0, z: .0439715311, w: .000568628893}
        outSlope: {x: 0, y: 0, z: .0439715311, w: .000568628893}
        tangentMode: 0
      - time: 1.69999909
        value: {x: 0, y: 0, z: -.0121892877, w: .999925733}
        inSlope: {x: 0, y: 0, z: .0426731184, w: .000522137154}
        outSlope: {x: 0, y: 0, z: .0426731184, w: .000522137154}
        tangentMode: 0
      - time: 1.71666574
        value: {x: 0, y: 0, z: -.0114893606, w: .999934018}
        inSlope: {x: 0, y: 0, z: .0412617475, w: .000473857392}
        outSlope: {x: 0, y: 0, z: .0412617475, w: .000473857392}
        tangentMode: 0
      - time: 1.7333324
        value: {x: 0, y: 0, z: -.0108138975, w: .999941528}
        inSlope: {x: 0, y: 0, z: .0397374406, w: .00042915385}
        outSlope: {x: 0, y: 0, z: .0397374406, w: .00042915385}
        tangentMode: 0
      - time: 1.74999905
        value: {x: 0, y: 0, z: -.0101647805, w: .999948323}
        inSlope: {x: 0, y: 0, z: .0381000042, w: .000388026587}
        outSlope: {x: 0, y: 0, z: .0381000042, w: .000388026587}
        tangentMode: 0
      - time: 1.7666657
        value: {x: 0, y: 0, z: -.00954389852, w: .999954462}
        inSlope: {x: 0, y: 0, z: .0363494456, w: .000348687521}
        outSlope: {x: 0, y: 0, z: .0363494456, w: .000348687521}
        tangentMode: 0
      - time: 1.78333235
        value: {x: 0, y: 0, z: -.0089531336, w: .999959946}
        inSlope: {x: 0, y: 0, z: .034486115, w: .000309348397}
        outSlope: {x: 0, y: 0, z: .034486115, w: .000309348397}
        tangentMode: 0
      - time: 1.799999
        value: {x: 0, y: 0, z: -.0083943624, w: .999964774}
        inSlope: {x: 0, y: 0, z: .032509774, w: .000271797413}
        outSlope: {x: 0, y: 0, z: .032509774, w: .000271797413}
        tangentMode: 0
      - time: 1.81666565
        value: {x: 0, y: 0, z: -.00786947552, w: .999969006}
        inSlope: {x: 0, y: 0, z: .0304203443, w: .000239610905}
        outSlope: {x: 0, y: 0, z: .0304203443, w: .000239610905}
        tangentMode: 0
      - time: 1.8333323
        value: {x: 0, y: 0, z: -.00738035189, w: .999972761}
        inSlope: {x: 0, y: 0, z: .0282179974, w: .000209212507}
        outSlope: {x: 0, y: 0, z: .0282179974, w: .000209212507}
        tangentMode: 0
      - time: 1.84999895
        value: {x: 0, y: 0, z: -.00692887651, w: .999975979}
        inSlope: {x: 0, y: 0, z: .0259027332, w: .000180602248}
        outSlope: {x: 0, y: 0, z: .0259027332, w: .000180602248}
        tangentMode: 0
      - time: 1.8666656
        value: {x: 0, y: 0, z: -.00651692832, w: .999978781}
        inSlope: {x: 0, y: 0, z: .0234744921, w: .000153780129}
        outSlope: {x: 0, y: 0, z: .0234744921, w: .000153780129}
        tangentMode: 0
      - time: 1.88333225
        value: {x: 0, y: 0, z: -.00614639418, w: .999981105}
        inSlope: {x: 0, y: 0, z: .0209332071, w: .000128746149}
        outSlope: {x: 0, y: 0, z: .0209332071, w: .000128746149}
        tangentMode: 0
      - time: 1.8999989
        value: {x: 0, y: 0, z: -.00581915537, w: .999983072}
        inSlope: {x: 0, y: 0, z: .0182788949, w: .000107288462}
        outSlope: {x: 0, y: 0, z: .0182788949, w: .000107288462}
        tangentMode: 0
      - time: 1.91666555
        value: {x: 0, y: 0, z: -.00553709827, w: .999984682}
        inSlope: {x: 0, y: 0, z: .0155117745, w: 8.58307758e-05}
        outSlope: {x: 0, y: 0, z: .0155117745, w: 8.58307758e-05}
        tangentMode: 0
      - time: 1.9333322
        value: {x: 0, y: 0, z: -.00530209672, w: .999985933}
        inSlope: {x: 0, y: 0, z: .0126315821, w: 6.61612212e-05}
        outSlope: {x: 0, y: 0, z: .0126315821, w: 6.61612212e-05}
        tangentMode: 0
      - time: 1.94999886
        value: {x: 0, y: 0, z: -.00511604594, w: .999986887}
        inSlope: {x: 0, y: 0, z: .00963838771, w: 5.00679489e-05}
        outSlope: {x: 0, y: 0, z: .00963838771, w: 5.00679489e-05}
        tangentMode: 0
      - time: 1.96666551
        value: {x: 0, y: 0, z: -.00498081744, w: .999987602}
        inSlope: {x: 0, y: 0, z: .00653245626, w: 3.39746803e-05}
        outSlope: {x: 0, y: 0, z: .00653245626, w: 3.39746803e-05}
        tangentMode: 0
      - time: 1.98333216
        value: {x: 0, y: 0, z: -.0048982976, w: .999988019}
        inSlope: {x: 0, y: 0, z: .00331335142, w: 1.6093014e-05}
        outSlope: {x: 0, y: 0, z: .00331335142, w: 1.6093014e-05}
        tangentMode: 0
      - time: 2
        value: {x: 0, y: 0, z: -.0048703705, w: .999988139}
        inSlope: {x: 0, y: 0, z: .00167550799, w: 7.1520526e-06}
        outSlope: {x: 0, y: 0, z: .00167550799, w: 7.1520526e-06}
        tangentMode: 0
      m_PreInfinity: 2
      m_PostInfinity: 2
    path: body/head
  m_CompressedRotationCurves: []
  m_PositionCurves: []
  m_ScaleCurves:
  - curve:
      serializedVersion: 2
      m_Curve:
      - time: 0
        value: {x: 1, y: 1, z: 1}
        inSlope: {x: 0, y: 0, z: 0}
        outSlope: {x: 0, y: 0, z: 0}
        tangentMode: 0
      - time: 1
        value: {x: 1.00999999, y: .99000001, z: 1}
        inSlope: {x: 0, y: 0, z: 0}
        outSlope: {x: 0, y: 0, z: 0}
        tangentMode: 0
      - time: 2
        value: {x: 1, y: 1, z: 1}
        inSlope: {x: 0, y: 0, z: 0}
        outSlope: {x: 0, y: 0, z: 0}
        tangentMode: 0
      m_PreInfinity: 2
      m_PostInfinity: 2
    path: body
  m_FloatCurves: []
  m_PPtrCurves: []
  m_SampleRate: 60
  m_WrapMode: 0
  m_Bounds:
    m_Center: {x: 0, y: 0, z: 0}
    m_Extent: {x: 0, y: 0, z: 0}
  m_ClipBindingConstant:
    genericBindings:
    - path: 195406385
      attribute: 2
      script: {fileID: 0}
      classID: 4
      customType: 0
      isPPtrCurve: 0
    - path: 3685223346
      attribute: 3
      script: {fileID: 0}
      classID: 4
      customType: 0
      isPPtrCurve: 0
    pptrCurveMapping: []
  m_AnimationClipSettings:
    serializedVersion: 2
    m_StartTime: 0
    m_StopTime: 2
    m_OrientationOffsetY: 0
    m_Level: 0
    m_CycleOffset: 0
    m_LoopTime: 1
    m_LoopBlend: 0
    m_LoopBlendOrientation: 0
    m_LoopBlendPositionY: 0
    m_LoopBlendPositionXZ: 0
    m_KeepOriginalOrientation: 0
    m_KeepOriginalPositionY: 1
    m_KeepOriginalPositionXZ: 0
    m_HeightFromFeet: 0
    m_Mirror: 0
  m_EditorCurves:
  - curve:
      serializedVersion: 2
      m_Curve:
      - time: 0
        value: 1
        inSlope: 0
        outSlope: 0
        tangentMode: 0
      - time: 1
        value: 1.00999999
        inSlope: 0
        outSlope: 0
        tangentMode: 0
      - time: 2
        value: 1
        inSlope: 0
        outSlope: 0
        tangentMode: 0
      m_PreInfinity: 2
      m_PostInfinity: 2
    attribute: m_LocalScale.x
    path: body
    classID: 4
    script: {fileID: 0}
  - curve:
      serializedVersion: 2
      m_Curve:
      - time: 0
        value: 1
        inSlope: 0
        outSlope: 0
        tangentMode: 0
      - time: 1
        value: .99000001
        inSlope: 0
        outSlope: 0
        tangentMode: 0
      - time: 2
        value: 1
        inSlope: 0
        outSlope: 0
        tangentMode: 0
      m_PreInfinity: 2
      m_PostInfinity: 2
    attribute: m_LocalScale.y
    path: body
    classID: 4
    script: {fileID: 0}
  - curve:
      serializedVersion: 2
      m_Curve:
      - time: 0
        value: 1
        inSlope: 0
        outSlope: 0
        tangentMode: 0
      - time: 1
        value: 1
        inSlope: 0
        outSlope: 0
        tangentMode: 0
      - time: 2
        value: 1
        inSlope: 0
        outSlope: 0
        tangentMode: 0
      m_PreInfinity: 2
      m_PostInfinity: 2
    attribute: m_LocalScale.z
    path: body
    classID: 4
    script: {fileID: 0}
  - curve:
      serializedVersion: 2
      m_Curve:
      - time: 0
        value: 0
        inSlope: 0
        outSlope: 0
        tangentMode: 0
      - time: .0166666675
        value: 0
        inSlope: 0
        outSlope: 0
        tangentMode: 0
      - time: .0333333351
        value: 0
        inSlope: 0
        outSlope: 0
        tangentMode: 0
      - time: .0500000045
        value: 0
        inSlope: 0
        outSlope: 0
        tangentMode: 0
      - time: .0666666701
        value: 0
        inSlope: 0
        outSlope: 0
        tangentMode: 0
      - time: .0833333358
        value: 0
        inSlope: 0
        outSlope: 0
        tangentMode: 0
      - time: .100000001
        value: 0
        inSlope: 0
        outSlope: 0
        tangentMode: 0
      - time: .116666667
        value: 0
        inSlope: 0
        outSlope: 0
        tangentMode: 0
      - time: .13333334
        value: 0
        inSlope: 0
        outSlope: 0
        tangentMode: 0
      - time: .150000006
        value: 0
        inSlope: 0
        outSlope: 0
        tangentMode: 0
      - time: .166666672
        value: 0
        inSlope: 0
        outSlope: 0
        tangentMode: 0
      - time: .183333337
        value: 0
        inSlope: 0
        outSlope: 0
        tangentMode: 0
      - time: .200000003
        value: 0
        inSlope: 0
        outSlope: 0
        tangentMode: 0
      - time: .216666669
        value: 0
        inSlope: 0
        outSlope: 0
        tangentMode: 0
      - time: .233333334
        value: 0
        inSlope: 0
        outSlope: 0
        tangentMode: 0
      - time: .25
        value: 0
        inSlope: 0
        outSlope: 0
        tangentMode: 0
      - time: .266666681
        value: 0
        inSlope: 0
        outSlope: 0
        tangentMode: 0
      - time: .283333361
        value: 0
        inSlope: 0
        outSlope: 0
        tangentMode: 0
      - time: .300000042
        value: 0
        inSlope: 0
        outSlope: 0
        tangentMode: 0
      - time: .316666722
        value: 0
        inSlope: 0
        outSlope: 0
        tangentMode: 0
      - time: .333333403
        value: 0
        inSlope: 0
        outSlope: 0
        tangentMode: 0
      - time: .350000083
        value: 0
        inSlope: 0
        outSlope: 0
        tangentMode: 0
      - time: .366666764
        value: 0
        inSlope: 0
        outSlope: 0
        tangentMode: 0
      - time: .383333445
        value: 0
        inSlope: 0
        outSlope: 0
        tangentMode: 0
      - time: .400000125
        value: 0
        inSlope: 0
        outSlope: 0
        tangentMode: 0
      - time: .416666806
        value: 0
        inSlope: 0
        outSlope: 0
        tangentMode: 0
      - time: .433333486
        value: 0
        inSlope: 0
        outSlope: 0
        tangentMode: 0
      - time: .450000167
        value: 0
        inSlope: 0
        outSlope: 0
        tangentMode: 0
      - time: .466666847
        value: 0
        inSlope: 0
        outSlope: 0
        tangentMode: 0
      - time: .483333528
        value: 0
        inSlope: 0
        outSlope: 0
        tangentMode: 0
      - time: .500000179
        value: 0
        inSlope: 0
        outSlope: 0
        tangentMode: 0
      - time: .51666683
        value: 0
        inSlope: 0
        outSlope: 0
        tangentMode: 0
      - time: .53333348
        value: 0
        inSlope: 0
        outSlope: 0
        tangentMode: 0
      - time: .550000131
        value: 0
        inSlope: 0
        outSlope: 0
        tangentMode: 0
      - time: .566666782
        value: 0
        inSlope: 0
        outSlope: 0
        tangentMode: 0
      - time: .583333433
        value: 0
        inSlope: 0
        outSlope: 0
        tangentMode: 0
      - time: .600000083
        value: 0
        inSlope: 0
        outSlope: 0
        tangentMode: 0
      - time: .616666734
        value: 0
        inSlope: 0
        outSlope: 0
        tangentMode: 0
      - time: .633333385
        value: 0
        inSlope: 0
        outSlope: 0
        tangentMode: 0
      - time: .650000036
        value: 0
        inSlope: 0
        outSlope: 0
        tangentMode: 0
      - time: .666666687
        value: 0
        inSlope: 0
        outSlope: 0
        tangentMode: 0
      - time: .683333337
        value: 0
        inSlope: 0
        outSlope: 0
        tangentMode: 0
      - time: .699999988
        value: 0
        inSlope: 0
        outSlope: 0
        tangentMode: 0
      - time: .716666639
        value: 0
        inSlope: 0
        outSlope: 0
        tangentMode: 0
      - time: .73333329
        value: 0
        inSlope: 0
        outSlope: 0
        tangentMode: 0
      - time: .74999994
        value: 0
        inSlope: 0
        outSlope: 0
        tangentMode: 0
      - time: .766666591
        value: 0
        inSlope: 0
        outSlope: 0
        tangentMode: 0
      - time: .783333242
        value: 0
        inSlope: 0
        outSlope: 0
        tangentMode: 0
      - time: .799999893
        value: 0
        inSlope: 0
        outSlope: 0
        tangentMode: 0
      - time: .816666543
        value: 0
        inSlope: 0
        outSlope: 0
        tangentMode: 0
      - time: .833333194
        value: 0
        inSlope: 0
        outSlope: 0
        tangentMode: 0
      - time: .849999845
        value: 0
        inSlope: 0
        outSlope: 0
        tangentMode: 0
      - time: .866666496
        value: 0
        inSlope: 0
        outSlope: 0
        tangentMode: 0
      - time: .883333147
        value: 0
        inSlope: 0
        outSlope: 0
        tangentMode: 0
      - time: .899999797
        value: 0
        inSlope: 0
        outSlope: 0
        tangentMode: 0
      - time: .916666448
        value: 0
        inSlope: 0
        outSlope: 0
        tangentMode: 0
      - time: .933333099
        value: 0
        inSlope: 0
        outSlope: 0
        tangentMode: 0
      - time: .94999975
        value: 0
        inSlope: 0
        outSlope: 0
        tangentMode: 0
      - time: .9666664
        value: 0
        inSlope: 0
        outSlope: 0
        tangentMode: 0
      - time: .983333051
        value: 0
        inSlope: 0
        outSlope: 0
        tangentMode: 0
      - time: .999999702
        value: 0
        inSlope: 0
        outSlope: 0
        tangentMode: 0
      - time: 1.01666641
        value: 0
        inSlope: 0
        outSlope: 0
        tangentMode: 0
      - time: 1.03333306
        value: 0
        inSlope: 0
        outSlope: 0
        tangentMode: 0
      - time: 1.04999971
        value: 0
        inSlope: 0
        outSlope: 0
        tangentMode: 0
      - time: 1.06666636
        value: 0
        inSlope: 0
        outSlope: 0
        tangentMode: 0
      - time: 1.08333302
        value: 0
        inSlope: 0
        outSlope: 0
        tangentMode: 0
      - time: 1.09999967
        value: 0
        inSlope: 0
        outSlope: 0
        tangentMode: 0
      - time: 1.11666632
        value: 0
        inSlope: 0
        outSlope: 0
        tangentMode: 0
      - time: 1.13333297
        value: 0
        inSlope: 0
        outSlope: 0
        tangentMode: 0
      - time: 1.14999962
        value: 0
        inSlope: 0
        outSlope: 0
        tangentMode: 0
      - time: 1.16666627
        value: 0
        inSlope: 0
        outSlope: 0
        tangentMode: 0
      - time: 1.18333292
        value: 0
        inSlope: 0
        outSlope: 0
        tangentMode: 0
      - time: 1.19999957
        value: 0
        inSlope: 0
        outSlope: 0
        tangentMode: 0
      - time: 1.21666622
        value: 0
        inSlope: 0
        outSlope: 0
        tangentMode: 0
      - time: 1.23333287
        value: 0
        inSlope: 0
        outSlope: 0
        tangentMode: 0
      - time: 1.24999952
        value: 0
        inSlope: 0
        outSlope: 0
        tangentMode: 0
      - time: 1.26666617
        value: 0
        inSlope: 0
        outSlope: 0
        tangentMode: 0
      - time: 1.28333282
        value: 0
        inSlope: 0
        outSlope: 0
        tangentMode: 0
      - time: 1.29999948
        value: 0
        inSlope: 0
        outSlope: 0
        tangentMode: 0
      - time: 1.31666613
        value: 0
        inSlope: 0
        outSlope: 0
        tangentMode: 0
      - time: 1.33333278
        value: 0
        inSlope: 0
        outSlope: 0
        tangentMode: 0
      - time: 1.34999943
        value: 0
        inSlope: 0
        outSlope: 0
        tangentMode: 0
      - time: 1.36666608
        value: 0
        inSlope: 0
        outSlope: 0
        tangentMode: 0
      - time: 1.38333273
        value: 0
        inSlope: 0
        outSlope: 0
        tangentMode: 0
      - time: 1.39999938
        value: 0
        inSlope: 0
        outSlope: 0
        tangentMode: 0
      - time: 1.41666603
        value: 0
        inSlope: 0
        outSlope: 0
        tangentMode: 0
      - time: 1.43333268
        value: 0
        inSlope: 0
        outSlope: 0
        tangentMode: 0
      - time: 1.44999933
        value: 0
        inSlope: 0
        outSlope: 0
        tangentMode: 0
      - time: 1.46666598
        value: 0
        inSlope: 0
        outSlope: 0
        tangentMode: 0
      - time: 1.48333263
        value: 0
        inSlope: 0
        outSlope: 0
        tangentMode: 0
      - time: 1.49999928
        value: 0
        inSlope: 0
        outSlope: 0
        tangentMode: 0
      - time: 1.51666594
        value: 0
        inSlope: 0
        outSlope: 0
        tangentMode: 0
      - time: 1.53333259
        value: 0
        inSlope: 0
        outSlope: 0
        tangentMode: 0
      - time: 1.54999924
        value: 0
        inSlope: 0
        outSlope: 0
        tangentMode: 0
      - time: 1.56666589
        value: 0
        inSlope: 0
        outSlope: 0
        tangentMode: 0
      - time: 1.58333254
        value: 0
        inSlope: 0
        outSlope: 0
        tangentMode: 0
      - time: 1.59999919
        value: 0
        inSlope: 0
        outSlope: 0
        tangentMode: 0
      - time: 1.61666584
        value: 0
        inSlope: 0
        outSlope: 0
        tangentMode: 0
      - time: 1.63333249
        value: 0
        inSlope: 0
        outSlope: 0
        tangentMode: 0
      - time: 1.64999914
        value: 0
        inSlope: 0
        outSlope: 0
        tangentMode: 0
      - time: 1.66666579
        value: 0
        inSlope: 0
        outSlope: 0
        tangentMode: 0
      - time: 1.68333244
        value: 0
        inSlope: 0
        outSlope: 0
        tangentMode: 0
      - time: 1.69999909
        value: 0
        inSlope: 0
        outSlope: 0
        tangentMode: 0
      - time: 1.71666574
        value: 0
        inSlope: 0
        outSlope: 0
        tangentMode: 0
      - time: 1.7333324
        value: 0
        inSlope: 0
        outSlope: 0
        tangentMode: 0
      - time: 1.74999905
        value: 0
        inSlope: 0
        outSlope: 0
        tangentMode: 0
      - time: 1.7666657
        value: 0
        inSlope: 0
        outSlope: 0
        tangentMode: 0
      - time: 1.78333235
        value: 0
        inSlope: 0
        outSlope: 0
        tangentMode: 0
      - time: 1.799999
        value: 0
        inSlope: 0
        outSlope: 0
        tangentMode: 0
      - time: 1.81666565
        value: 0
        inSlope: 0
        outSlope: 0
        tangentMode: 0
      - time: 1.8333323
        value: 0
        inSlope: 0
        outSlope: 0
        tangentMode: 0
      - time: 1.84999895
        value: 0
        inSlope: 0
        outSlope: 0
        tangentMode: 0
      - time: 1.8666656
        value: 0
        inSlope: 0
        outSlope: 0
        tangentMode: 0
      - time: 1.88333225
        value: 0
        inSlope: 0
        outSlope: 0
        tangentMode: 0
      - time: 1.8999989
        value: 0
        inSlope: 0
        outSlope: 0
        tangentMode: 0
      - time: 1.91666555
        value: 0
        inSlope: 0
        outSlope: 0
        tangentMode: 0
      - time: 1.9333322
        value: 0
        inSlope: 0
        outSlope: 0
        tangentMode: 0
      - time: 1.94999886
        value: 0
        inSlope: 0
        outSlope: 0
        tangentMode: 0
      - time: 1.96666551
        value: 0
        inSlope: 0
        outSlope: 0
        tangentMode: 0
      - time: 1.98333216
        value: 0
        inSlope: 0
        outSlope: 0
        tangentMode: 0
      - time: 2
        value: 0
        inSlope: 0
        outSlope: 0
        tangentMode: 0
      m_PreInfinity: 2
      m_PostInfinity: 2
    attribute: m_LocalRotation.x
    path: body/head
    classID: 4
    script: {fileID: 0}
  - curve:
      serializedVersion: 2
      m_Curve:
      - time: 0
        value: 0
        inSlope: 0
        outSlope: 0
        tangentMode: 0
      - time: .0166666675
        value: 0
        inSlope: 0
        outSlope: 0
        tangentMode: 0
      - time: .0333333351
        value: 0
        inSlope: 0
        outSlope: 0
        tangentMode: 0
      - time: .0500000045
        value: 0
        inSlope: 0
        outSlope: 0
        tangentMode: 0
      - time: .0666666701
        value: 0
        inSlope: 0
        outSlope: 0
        tangentMode: 0
      - time: .0833333358
        value: 0
        inSlope: 0
        outSlope: 0
        tangentMode: 0
      - time: .100000001
        value: 0
        inSlope: 0
        outSlope: 0
        tangentMode: 0
      - time: .116666667
        value: 0
        inSlope: 0
        outSlope: 0
        tangentMode: 0
      - time: .13333334
        value: 0
        inSlope: 0
        outSlope: 0
        tangentMode: 0
      - time: .150000006
        value: 0
        inSlope: 0
        outSlope: 0
        tangentMode: 0
      - time: .166666672
        value: 0
        inSlope: 0
        outSlope: 0
        tangentMode: 0
      - time: .183333337
        value: 0
        inSlope: 0
        outSlope: 0
        tangentMode: 0
      - time: .200000003
        value: 0
        inSlope: 0
        outSlope: 0
        tangentMode: 0
      - time: .216666669
        value: 0
        inSlope: 0
        outSlope: 0
        tangentMode: 0
      - time: .233333334
        value: 0
        inSlope: 0
        outSlope: 0
        tangentMode: 0
      - time: .25
        value: 0
        inSlope: 0
        outSlope: 0
        tangentMode: 0
      - time: .266666681
        value: 0
        inSlope: 0
        outSlope: 0
        tangentMode: 0
      - time: .283333361
        value: 0
        inSlope: 0
        outSlope: 0
        tangentMode: 0
      - time: .300000042
        value: 0
        inSlope: 0
        outSlope: 0
        tangentMode: 0
      - time: .316666722
        value: 0
        inSlope: 0
        outSlope: 0
        tangentMode: 0
      - time: .333333403
        value: 0
        inSlope: 0
        outSlope: 0
        tangentMode: 0
      - time: .350000083
        value: 0
        inSlope: 0
        outSlope: 0
        tangentMode: 0
      - time: .366666764
        value: 0
        inSlope: 0
        outSlope: 0
        tangentMode: 0
      - time: .383333445
        value: 0
        inSlope: 0
        outSlope: 0
        tangentMode: 0
      - time: .400000125
        value: 0
        inSlope: 0
        outSlope: 0
        tangentMode: 0
      - time: .416666806
        value: 0
        inSlope: 0
        outSlope: 0
        tangentMode: 0
      - time: .433333486
        value: 0
        inSlope: 0
        outSlope: 0
        tangentMode: 0
      - time: .450000167
        value: 0
        inSlope: 0
        outSlope: 0
        tangentMode: 0
      - time: .466666847
        value: 0
        inSlope: 0
        outSlope: 0
        tangentMode: 0
      - time: .483333528
        value: 0
        inSlope: 0
        outSlope: 0
        tangentMode: 0
      - time: .500000179
        value: 0
        inSlope: 0
        outSlope: 0
        tangentMode: 0
      - time: .51666683
        value: 0
        inSlope: 0
        outSlope: 0
        tangentMode: 0
      - time: .53333348
        value: 0
        inSlope: 0
        outSlope: 0
        tangentMode: 0
      - time: .550000131
        value: 0
        inSlope: 0
        outSlope: 0
        tangentMode: 0
      - time: .566666782
        value: 0
        inSlope: 0
        outSlope: 0
        tangentMode: 0
      - time: .583333433
        value: 0
        inSlope: 0
        outSlope: 0
        tangentMode: 0
      - time: .600000083
        value: 0
        inSlope: 0
        outSlope: 0
        tangentMode: 0
      - time: .616666734
        value: 0
        inSlope: 0
        outSlope: 0
        tangentMode: 0
      - time: .633333385
        value: 0
        inSlope: 0
        outSlope: 0
        tangentMode: 0
      - time: .650000036
        value: 0
        inSlope: 0
        outSlope: 0
        tangentMode: 0
      - time: .666666687
        value: 0
        inSlope: 0
        outSlope: 0
        tangentMode: 0
      - time: .683333337
        value: 0
        inSlope: 0
        outSlope: 0
        tangentMode: 0
      - time: .699999988
        value: 0
        inSlope: 0
        outSlope: 0
        tangentMode: 0
      - time: .716666639
        value: 0
        inSlope: 0
        outSlope: 0
        tangentMode: 0
      - time: .73333329
        value: 0
        inSlope: 0
        outSlope: 0
        tangentMode: 0
      - time: .74999994
        value: 0
        inSlope: 0
        outSlope: 0
        tangentMode: 0
      - time: .766666591
        value: 0
        inSlope: 0
        outSlope: 0
        tangentMode: 0
      - time: .783333242
        value: 0
        inSlope: 0
        outSlope: 0
        tangentMode: 0
      - time: .799999893
        value: 0
        inSlope: 0
        outSlope: 0
        tangentMode: 0
      - time: .816666543
        value: 0
        inSlope: 0
        outSlope: 0
        tangentMode: 0
      - time: .833333194
        value: 0
        inSlope: 0
        outSlope: 0
        tangentMode: 0
      - time: .849999845
        value: 0
        inSlope: 0
        outSlope: 0
        tangentMode: 0
      - time: .866666496
        value: 0
        inSlope: 0
        outSlope: 0
        tangentMode: 0
      - time: .883333147
        value: 0
        inSlope: 0
        outSlope: 0
        tangentMode: 0
      - time: .899999797
        value: 0
        inSlope: 0
        outSlope: 0
        tangentMode: 0
      - time: .916666448
        value: 0
        inSlope: 0
        outSlope: 0
        tangentMode: 0
      - time: .933333099
        value: 0
        inSlope: 0
        outSlope: 0
        tangentMode: 0
      - time: .94999975
        value: 0
        inSlope: 0
        outSlope: 0
        tangentMode: 0
      - time: .9666664
        value: 0
        inSlope: 0
        outSlope: 0
        tangentMode: 0
      - time: .983333051
        value: 0
        inSlope: 0
        outSlope: 0
        tangentMode: 0
      - time: .999999702
        value: 0
        inSlope: 0
        outSlope: 0
        tangentMode: 0
      - time: 1.01666641
        value: 0
        inSlope: 0
        outSlope: 0
        tangentMode: 0
      - time: 1.03333306
        value: 0
        inSlope: 0
        outSlope: 0
        tangentMode: 0
      - time: 1.04999971
        value: 0
        inSlope: 0
        outSlope: 0
        tangentMode: 0
      - time: 1.06666636
        value: 0
        inSlope: 0
        outSlope: 0
        tangentMode: 0
      - time: 1.08333302
        value: 0
        inSlope: 0
        outSlope: 0
        tangentMode: 0
      - time: 1.09999967
        value: 0
        inSlope: 0
        outSlope: 0
        tangentMode: 0
      - time: 1.11666632
        value: 0
        inSlope: 0
        outSlope: 0
        tangentMode: 0
      - time: 1.13333297
        value: 0
        inSlope: 0
        outSlope: 0
        tangentMode: 0
      - time: 1.14999962
        value: 0
        inSlope: 0
        outSlope: 0
        tangentMode: 0
      - time: 1.16666627
        value: 0
        inSlope: 0
        outSlope: 0
        tangentMode: 0
      - time: 1.18333292
        value: 0
        inSlope: 0
        outSlope: 0
        tangentMode: 0
      - time: 1.19999957
        value: 0
        inSlope: 0
        outSlope: 0
        tangentMode: 0
      - time: 1.21666622
        value: 0
        inSlope: 0
        outSlope: 0
        tangentMode: 0
      - time: 1.23333287
        value: 0
        inSlope: 0
        outSlope: 0
        tangentMode: 0
      - time: 1.24999952
        value: 0
        inSlope: 0
        outSlope: 0
        tangentMode: 0
      - time: 1.26666617
        value: 0
        inSlope: 0
        outSlope: 0
        tangentMode: 0
      - time: 1.28333282
        value: 0
        inSlope: 0
        outSlope: 0
        tangentMode: 0
      - time: 1.29999948
        value: 0
        inSlope: 0
        outSlope: 0
        tangentMode: 0
      - time: 1.31666613
        value: 0
        inSlope: 0
        outSlope: 0
        tangentMode: 0
      - time: 1.33333278
        value: 0
        inSlope: 0
        outSlope: 0
        tangentMode: 0
      - time: 1.34999943
        value: 0
        inSlope: 0
        outSlope: 0
        tangentMode: 0
      - time: 1.36666608
        value: 0
        inSlope: 0
        outSlope: 0
        tangentMode: 0
      - time: 1.38333273
        value: 0
        inSlope: 0
        outSlope: 0
        tangentMode: 0
      - time: 1.39999938
        value: 0
        inSlope: 0
        outSlope: 0
        tangentMode: 0
      - time: 1.41666603
        value: 0
        inSlope: 0
        outSlope: 0
        tangentMode: 0
      - time: 1.43333268
        value: 0
        inSlope: 0
        outSlope: 0
        tangentMode: 0
      - time: 1.44999933
        value: 0
        inSlope: 0
        outSlope: 0
        tangentMode: 0
      - time: 1.46666598
        value: 0
        inSlope: 0
        outSlope: 0
        tangentMode: 0
      - time: 1.48333263
        value: 0
        inSlope: 0
        outSlope: 0
        tangentMode: 0
      - time: 1.49999928
        value: 0
        inSlope: 0
        outSlope: 0
        tangentMode: 0
      - time: 1.51666594
        value: 0
        inSlope: 0
        outSlope: 0
        tangentMode: 0
      - time: 1.53333259
        value: 0
        inSlope: 0
        outSlope: 0
        tangentMode: 0
      - time: 1.54999924
        value: 0
        inSlope: 0
        outSlope: 0
        tangentMode: 0
      - time: 1.56666589
        value: 0
        inSlope: 0
        outSlope: 0
        tangentMode: 0
      - time: 1.58333254
        value: 0
        inSlope: 0
        outSlope: 0
        tangentMode: 0
      - time: 1.59999919
        value: 0
        inSlope: 0
        outSlope: 0
        tangentMode: 0
      - time: 1.61666584
        value: 0
        inSlope: 0
        outSlope: 0
        tangentMode: 0
      - time: 1.63333249
        value: 0
        inSlope: 0
        outSlope: 0
        tangentMode: 0
      - time: 1.64999914
        value: 0
        inSlope: 0
        outSlope: 0
        tangentMode: 0
      - time: 1.66666579
        value: 0
        inSlope: 0
        outSlope: 0
        tangentMode: 0
      - time: 1.68333244
        value: 0
        inSlope: 0
        outSlope: 0
        tangentMode: 0
      - time: 1.69999909
        value: 0
        inSlope: 0
        outSlope: 0
        tangentMode: 0
      - time: 1.71666574
        value: 0
        inSlope: 0
        outSlope: 0
        tangentMode: 0
      - time: 1.7333324
        value: 0
        inSlope: 0
        outSlope: 0
        tangentMode: 0
      - time: 1.74999905
        value: 0
        inSlope: 0
        outSlope: 0
        tangentMode: 0
      - time: 1.7666657
        value: 0
        inSlope: 0
        outSlope: 0
        tangentMode: 0
      - time: 1.78333235
        value: 0
        inSlope: 0
        outSlope: 0
        tangentMode: 0
      - time: 1.799999
        value: 0
        inSlope: 0
        outSlope: 0
        tangentMode: 0
      - time: 1.81666565
        value: 0
        inSlope: 0
        outSlope: 0
        tangentMode: 0
      - time: 1.8333323
        value: 0
        inSlope: 0
        outSlope: 0
        tangentMode: 0
      - time: 1.84999895
        value: 0
        inSlope: 0
        outSlope: 0
        tangentMode: 0
      - time: 1.8666656
        value: 0
        inSlope: 0
        outSlope: 0
        tangentMode: 0
      - time: 1.88333225
        value: 0
        inSlope: 0
        outSlope: 0
        tangentMode: 0
      - time: 1.8999989
        value: 0
        inSlope: 0
        outSlope: 0
        tangentMode: 0
      - time: 1.91666555
        value: 0
        inSlope: 0
        outSlope: 0
        tangentMode: 0
      - time: 1.9333322
        value: 0
        inSlope: 0
        outSlope: 0
        tangentMode: 0
      - time: 1.94999886
        value: 0
        inSlope: 0
        outSlope: 0
        tangentMode: 0
      - time: 1.96666551
        value: 0
        inSlope: 0
        outSlope: 0
        tangentMode: 0
      - time: 1.98333216
        value: 0
        inSlope: 0
        outSlope: 0
        tangentMode: 0
      - time: 2
        value: 0
        inSlope: 0
        outSlope: 0
        tangentMode: 0
      m_PreInfinity: 2
      m_PostInfinity: 2
    attribute: m_LocalRotation.y
    path: body/head
    classID: 4
    script: {fileID: 0}
  - curve:
      serializedVersion: 2
      m_Curve:
      - time: 0
        value: -.0048703705
        inSlope: -.00167537469
        outSlope: -.00167537469
        tangentMode: 0
      - time: .0166666675
        value: -.00489829341
        inSlope: -.00331315654
        outSlope: -.00331315654
        tangentMode: 0
      - time: .0333333351
        value: -.00498080906
        inSlope: -.00653219782
        outSlope: -.00653219782
        tangentMode: 0
      - time: .0500000045
        value: -.00511603337
        inSlope: -.00963826664
        outSlope: -.00963826664
        tangentMode: 0
      - time: .0666666701
        value: -.00530208461
        inSlope: -.0126314033
        outSlope: -.0126314033
        tangentMode: 0
      - time: .0833333358
        value: -.00553708011
        inSlope: -.0155115519
        outSlope: -.0155115519
        tangentMode: 0
      - time: .100000001
        value: -.00581913628
        inSlope: -.0182787664
        outSlope: -.0182787664
        tangentMode: 0
      - time: .116666667
        value: -.0061463723
        inSlope: -.0209330171
        outSlope: -.0209330171
        tangentMode: 0
      - time: .13333334
        value: -.00651690364
        inSlope: -.0234742705
        outSlope: -.0234742705
        tangentMode: 0
      - time: .150000006
        value: -.0069288481
        inSlope: -.0259025842
        outSlope: -.0259025842
        tangentMode: 0
      - time: .166666672
        value: -.00738032302
        inSlope: -.0282179303
        outSlope: -.0282179303
        tangentMode: 0
      - time: .183333337
        value: -.00786944572
        inSlope: -.0304202344
        outSlope: -.0304202344
        tangentMode: 0
      - time: .200000003
        value: -.00839433074
        inSlope: -.0325095803
        outSlope: -.0325095803
        tangentMode: 0
      - time: .216666669
        value: -.00895309821
        inSlope: -.0344859734
        outSlope: -.0344859734
        tangentMode: 0
      - time: .233333334
        value: -.00954386313
        inSlope: -.0363494121
        outSlope: -.0363494121
        tangentMode: 0
      - time: .25
        value: -.0101647452
        inSlope: -.0380998999
        outSlope: -.0380998999
        tangentMode: 0
      - time: .266666681
        value: -.0108138602
        inSlope: -.0397372842
        outSlope: -.0397372842
        tangentMode: 0
      - time: .283333361
        value: -.0114893224
        inSlope: -.0412616171
        outSlope: -.0412616171
        tangentMode: 0
      - time: .300000042
        value: -.0121892486
        inSlope: -.0426730737
        outSlope: -.0426730737
        tangentMode: 0
      - time: .316666722
        value: -.0129117593
        inSlope: -.0439715683
        outSlope: -.0439715683
        tangentMode: 0
      - time: .333333403
        value: -.0136549687
        inSlope: -.0451569632
        outSlope: -.0451569632
        tangentMode: 0
      - time: .350000083
        value: -.0144169927
        inSlope: -.0462293439
        outSlope: -.0462293439
        tangentMode: 0
      - time: .366666764
        value: -.0151959481
        inSlope: -.0471887887
        outSlope: -.0471887887
        tangentMode: 0
      - time: .383333445
        value: -.0159899537
        inSlope: -.0480353311
        outSlope: -.0480353311
        tangentMode: 0
      - time: .400000125
        value: -.0167971272
        inSlope: -.0487687215
        outSlope: -.0487687215
        tangentMode: 0
      - time: .416666806
        value: -.0176155791
        inSlope: -.0493890941
        outSlope: -.0493890941
        tangentMode: 0
      - time: .433333486
        value: -.0184434317
        inSlope: -.0498965904
        outSlope: -.0498965904
        tangentMode: 0
      - time: .450000167
        value: -.0192788001
        inSlope: -.0502909869
        outSlope: -.0502909869
        tangentMode: 0
      - time: .466666847
        value: -.0201197993
        inSlope: -.0505724512
        outSlope: -.0505724512
        tangentMode: 0
      - time: .483333528
        value: -.0209645499
        inSlope: -.050741028
        outSlope: -.050741028
        tangentMode: 0
      - time: .500000179
        value: -.0218111668
        inSlope: -.0507966727
        outSlope: -.0507966727
        tangentMode: 0
      - time: .51666683
        value: -.0226577707
        inSlope: -.0507392287
        outSlope: -.0507392287
        tangentMode: 0
      - time: .53333348
        value: -.0235024728
        inSlope: -.0505687408
        outSlope: -.0505687408
        tangentMode: 0
      - time: .550000131
        value: -.0243433937
        inSlope: -.0502854325
        outSlope: -.0502854325
        tangentMode: 0
      - time: .566666782
        value: -.0251786523
        inSlope: -.0498893037
        outSlope: -.0498893037
        tangentMode: 0
      - time: .583333433
        value: -.0260063689
        inSlope: -.0493801311
        outSlope: -.0493801311
        tangentMode: 0
      - time: .600000083
        value: -.026824655
        inSlope: -.0487580821
        outSlope: -.0487580821
        tangentMode: 0
      - time: .616666734
        value: -.0276316367
        inSlope: -.0480230413
        outSlope: -.0480230413
        tangentMode: 0
      - time: .633333385
        value: -.0284254216
        inSlope: -.047175128
        outSlope: -.047175128
        tangentMode: 0
      - time: .650000036
        value: -.0292041395
        inSlope: -.0462145619
        outSlope: -.0462145619
        tangentMode: 0
      - time: .666666687
        value: -.0299659055
        inSlope: -.0451409519
        outSlope: -.0451409519
        tangentMode: 0
      - time: .683333337
        value: -.0307088364
        inSlope: -.0439544618
        outSlope: -.0439544618
        tangentMode: 0
      - time: .699999988
        value: -.0314310528
        inSlope: -.0426550433
        outSlope: -.0426550433
        tangentMode: 0
      - time: .716666639
        value: -.0321306698
        inSlope: -.0412431359
        outSlope: -.0412431359
        tangentMode: 0
      - time: .73333329
        value: -.0328058228
        inSlope: -.0397183001
        outSlope: -.0397183001
        tangentMode: 0
      - time: .74999994
        value: -.0334546119
        inSlope: -.0380803645
        outSlope: -.0380803645
        tangentMode: 0
      - time: .766666591
        value: -.034075167
        inSlope: -.0363299996
        outSlope: -.0363299996
        tangentMode: 0
      - time: .783333242
        value: -.0346656106
        inSlope: -.0344667546
        outSlope: -.0344667546
        tangentMode: 0
      - time: .799999893
        value: -.0352240577
        inSlope: -.0324906334
        outSlope: -.0324906334
        tangentMode: 0
      - time: .816666543
        value: -.0357486308
        inSlope: -.0304017514
        outSlope: -.0304017514
        tangentMode: 0
      - time: .833333194
        value: -.0362374485
        inSlope: -.0282002129
        outSlope: -.0282002129
        tangentMode: 0
      - time: .849999845
        value: -.036688637
        inSlope: -.0258858018
        outSlope: -.0258858018
        tangentMode: 0
      - time: .866666496
        value: -.0371003076
        inSlope: -.0234587342
        outSlope: -.0234587342
        tangentMode: 0
      - time: .883333147
        value: -.037470594
        inSlope: -.0209187903
        outSlope: -.0209187903
        tangentMode: 0
      - time: .899999797
        value: -.0377976
        inSlope: -.0182659738
        outSlope: -.0182659738
        tangentMode: 0
      - time: .916666448
        value: -.0380794592
        inSlope: -.0155006126
        outSlope: -.0155006126
        tangentMode: 0
      - time: .933333099
        value: -.0383142866
        inSlope: -.012622375
        outSlope: -.012622375
        tangentMode: 0
      - time: .94999975
        value: -.0385002047
        inSlope: -.00963126309
        outSlope: -.00963126309
        tangentMode: 0
      - time: .9666664
        value: -.0386353284
        inSlope: -.00652727345
        outSlope: -.00652727345
        tangentMode: 0
      - time: .983333051
        value: -.0387177803
        inSlope: -.00331085501
        outSlope: -.00331085501
        tangentMode: 0
      - time: .999999702
        value: -.0387456901
        inSlope: -2.26544216e-07
        outSlope: -2.26544216e-07
        tangentMode: 0
      - time: 1.01666641
        value: -.0387177877
        inSlope: .00331073999
        outSlope: .00331073999
        tangentMode: 0
      - time: 1.03333306
        value: -.0386353321
        inSlope: .00652738521
        outSlope: .00652738521
        tangentMode: 0
      - time: 1.04999971
        value: -.0385002084
        inSlope: .00963115133
        outSlope: .00963115133
        tangentMode: 0
      - time: 1.06666636
        value: -.0383142941
        inSlope: .0126222633
        outSlope: .0126222633
        tangentMode: 0
      - time: 1.08333302
        value: -.0380794667
        inSlope: .015500389
        outSlope: .015500389
        tangentMode: 0
      - time: 1.09999967
        value: -.0377976149
        inSlope: .018265862
        outSlope: .018265862
        tangentMode: 0
      - time: 1.11666632
        value: -.0374706052
        inSlope: .0209187903
        outSlope: .0209187903
        tangentMode: 0
      - time: 1.13333297
        value: -.0371003225
        inSlope: .0234587342
        outSlope: .0234587342
        tangentMode: 0
      - time: 1.14999962
        value: -.0366886482
        inSlope: .02588569
        outSlope: .02588569
        tangentMode: 0
      - time: 1.16666627
        value: -.0362374671
        inSlope: .0281999893
        outSlope: .0281999893
        tangentMode: 0
      - time: 1.18333292
        value: -.0357486494
        inSlope: .0304018632
        outSlope: .0304018632
        tangentMode: 0
      - time: 1.19999957
        value: -.0352240726
        inSlope: .0324906334
        outSlope: .0324906334
        tangentMode: 0
      - time: 1.21666622
        value: -.0346656293
        inSlope: .0344665311
        outSlope: .0344665311
        tangentMode: 0
      - time: 1.23333287
        value: -.0340751894
        inSlope: .0363299996
        outSlope: .0363299996
        tangentMode: 0
      - time: 1.24999952
        value: -.0334546305
        inSlope: .0380804762
        outSlope: .0380804762
        tangentMode: 0
      - time: 1.26666617
        value: -.0328058414
        inSlope: .0397180766
        outSlope: .0397180766
        tangentMode: 0
      - time: 1.28333282
        value: -.0321306959
        inSlope: .0412430242
        outSlope: .0412430242
        tangentMode: 0
      - time: 1.29999948
        value: -.0314310752
        inSlope: .0426551551
        outSlope: .0426551551
        tangentMode: 0
      - time: 1.31666613
        value: -.0307088587
        inSlope: .0439544618
        outSlope: .0439544618
        tangentMode: 0
      - time: 1.33333278
        value: -.0299659278
        inSlope: .0451408923
        outSlope: .0451408923
        tangentMode: 0
      - time: 1.34999943
        value: -.0292041637
        inSlope: .0462144502
        outSlope: .0462144502
        tangentMode: 0
      - time: 1.36666608
        value: -.0284254476
        inSlope: .0471751839
        outSlope: .0471751839
        tangentMode: 0
      - time: 1.38333273
        value: -.0276316591
        inSlope: .0480230413
        outSlope: .0480230413
        tangentMode: 0
      - time: 1.39999938
        value: -.0268246811
        inSlope: .0487579107
        outSlope: .0487579107
        tangentMode: 0
      - time: 1.41666603
        value: -.0260063969
        inSlope: .0493800193
        outSlope: .0493800193
        tangentMode: 0
      - time: 1.43333268
        value: -.0251786821
        inSlope: .0498893037
        outSlope: .0498893037
        tangentMode: 0
      - time: 1.44999933
        value: -.0243434217
        inSlope: .0502855442
        outSlope: .0502855442
        tangentMode: 0
      - time: 1.46666598
        value: -.0235024989
        inSlope: .0505687408
        outSlope: .0505687408
        tangentMode: 0
      - time: 1.48333263
        value: -.0226577986
        inSlope: .0507391728
        outSlope: .0507391728
        tangentMode: 0
      - time: 1.49999928
        value: -.0218111947
        inSlope: .0507966727
        outSlope: .0507966727
        tangentMode: 0
      - time: 1.51666594
        value: -.0209645778
        inSlope: .0507410169
        outSlope: .0507410169
        tangentMode: 0
      - time: 1.53333259
        value: -.0201198291
        inSlope: .0505724847
        outSlope: .0505724847
        tangentMode: 0
      - time: 1.54999924
        value: -.0192788299
        inSlope: .0502910204
        outSlope: .0502910204
        tangentMode: 0
      - time: 1.56666589
        value: -.0184434634
        inSlope: .0498965681
        outSlope: .0498965681
        tangentMode: 0
      - time: 1.58333254
        value: -.0176156126
        inSlope: .0493891276
        outSlope: .0493891276
        tangentMode: 0
      - time: 1.59999919
        value: -.0167971607
        inSlope: .0487688109
        outSlope: .0487688109
        tangentMode: 0
      - time: 1.61666584
        value: -.0159899872
        inSlope: .0480352789
        outSlope: .0480352789
        tangentMode: 0
      - time: 1.63333249
        value: -.0151959863
        inSlope: .0471888185
        outSlope: .0471888185
        tangentMode: 0
      - time: 1.64999914
        value: -.0144170281
        inSlope: .0462295115
        outSlope: .0462295115
        tangentMode: 0
      - time: 1.66666579
        value: -.0136550041
        inSlope: .0451569855
        outSlope: .0451569855
        tangentMode: 0
      - time: 1.68333244
        value: -.0129117966
        inSlope: .0439715311
        outSlope: .0439715311
        tangentMode: 0
      - time: 1.69999909
        value: -.0121892877
        inSlope: .0426731184
        outSlope: .0426731184
        tangentMode: 0
      - time: 1.71666574
        value: -.0114893606
        inSlope: .0412617475
        outSlope: .0412617475
        tangentMode: 0
      - time: 1.7333324
        value: -.0108138975
        inSlope: .0397374406
        outSlope: .0397374406
        tangentMode: 0
      - time: 1.74999905
        value: -.0101647805
        inSlope: .0381000042
        outSlope: .0381000042
        tangentMode: 0
      - time: 1.7666657
        value: -.00954389852
        inSlope: .0363494456
        outSlope: .0363494456
        tangentMode: 0
      - time: 1.78333235
        value: -.0089531336
        inSlope: .034486115
        outSlope: .034486115
        tangentMode: 0
      - time: 1.799999
        value: -.0083943624
        inSlope: .032509774
        outSlope: .032509774
        tangentMode: 0
      - time: 1.81666565
        value: -.00786947552
        inSlope: .0304203443
        outSlope: .0304203443
        tangentMode: 0
      - time: 1.8333323
        value: -.00738035189
        inSlope: .0282179974
        outSlope: .0282179974
        tangentMode: 0
      - time: 1.84999895
        value: -.00692887651
        inSlope: .0259027332
        outSlope: .0259027332
        tangentMode: 0
      - time: 1.8666656
        value: -.00651692832
        inSlope: .0234744921
        outSlope: .0234744921
        tangentMode: 0
      - time: 1.88333225
        value: -.00614639418
        inSlope: .0209332071
        outSlope: .0209332071
        tangentMode: 0
      - time: 1.8999989
        value: -.00581915537
        inSlope: .0182788949
        outSlope: .0182788949
        tangentMode: 0
      - time: 1.91666555
        value: -.00553709827
        inSlope: .0155117745
        outSlope: .0155117745
        tangentMode: 0
      - time: 1.9333322
        value: -.00530209672
        inSlope: .0126315821
        outSlope: .0126315821
        tangentMode: 0
      - time: 1.94999886
        value: -.00511604594
        inSlope: .00963838771
        outSlope: .00963838771
        tangentMode: 0
      - time: 1.96666551
        value: -.00498081744
        inSlope: .00653245626
        outSlope: .00653245626
        tangentMode: 0
      - time: 1.98333216
        value: -.0048982976
        inSlope: .00331335142
        outSlope: .00331335142
        tangentMode: 0
      - time: 2
        value: -.0048703705
        inSlope: .00167550799
        outSlope: .00167550799
        tangentMode: 0
      m_PreInfinity: 2
      m_PostInfinity: 2
    attribute: m_LocalRotation.z
    path: body/head
    classID: 4
    script: {fileID: 0}
  - curve:
      serializedVersion: 2
      m_Curve:
      - time: 0
        value: .999988139
        inSlope: -7.15255692e-06
        outSlope: -7.15255692e-06
        tangentMode: 0
      - time: .0166666675
        value: .999988019
        inSlope: -1.60932523e-05
        outSlope: -1.60932523e-05
        tangentMode: 0
      - time: .0333333351
        value: .999987602
        inSlope: -3.39746439e-05
        outSlope: -3.39746439e-05
        tangentMode: 0
      - time: .0500000045
        value: .999986887
        inSlope: -5.00679016e-05
        outSlope: -5.00679016e-05
        tangentMode: 0
      - time: .0666666701
        value: .999985933
        inSlope: -6.6161163e-05
        outSlope: -6.6161163e-05
        tangentMode: 0
      - time: .0833333358
        value: .999984682
        inSlope: -8.58306958e-05
        outSlope: -8.58306958e-05
        tangentMode: 0
      - time: .100000001
        value: .999983072
        inSlope: -.000107288368
        outSlope: -.000107288368
        tangentMode: 0
      - time: .116666667
        value: .999981105
        inSlope: -.000128746004
        outSlope: -.000128746004
        tangentMode: 0
      - time: .13333334
        value: .999978781
        inSlope: -.000153779954
        outSlope: -.000153779954
        tangentMode: 0
      - time: .150000006
        value: .999975979
        inSlope: -.000180602088
        outSlope: -.000180602088
        tangentMode: 0
      - time: .166666672
        value: .999972761
        inSlope: -.000207424178
        outSlope: -.000207424178
        tangentMode: 0
      - time: .183333337
        value: .999969065
        inSlope: -.000239610701
        outSlope: -.000239610701
        tangentMode: 0
      - time: .200000003
        value: .999964774
        inSlope: -.000273585349
        outSlope: -.000273585349
        tangentMode: 0
      - time: .216666669
        value: .999959946
        inSlope: -.000309348135
        outSlope: -.000309348135
        tangentMode: 0
      - time: .233333334
        value: .999954462
        inSlope: -.000348687201
        outSlope: -.000348687201
        tangentMode: 0
      - time: .25
        value: .999948323
        inSlope: -.000388026063
        outSlope: -.000388026063
        tangentMode: 0
      - time: .266666681
        value: .999941528
        inSlope: -.000429153093
        outSlope: -.000429153093
        tangentMode: 0
      - time: .283333361
        value: .999934018
        inSlope: -.000473856519
        outSlope: -.000473856519
        tangentMode: 0
      - time: .300000042
        value: .999925733
        inSlope: -.000522136223
        outSlope: -.000522136223
        tangentMode: 0
      - time: .316666722
        value: .999916613
        inSlope: -.000568627845
        outSlope: -.000568627845
        tangentMode: 0
      - time: .333333403
        value: .999906778
        inSlope: -.000616907608
        outSlope: -.000616907608
        tangentMode: 0
      - time: .350000083
        value: .999896049
        inSlope: -.000666975393
        outSlope: -.000666975393
        tangentMode: 0
      - time: .366666764
        value: .999884546
        inSlope: -.000717043295
        outSlope: -.000717043295
        tangentMode: 0
      - time: .383333445
        value: .999872148
        inSlope: -.000768899277
        outSlope: -.000768899277
        tangentMode: 0
      - time: .400000125
        value: .999858916
        inSlope: -.000818967121
        outSlope: -.000818967121
        tangentMode: 0
      - time: .416666806
        value: .999844849
        inSlope: -.000870823162
        outSlope: -.000870823162
        tangentMode: 0
      - time: .433333486
        value: .999829888
        inSlope: -.000920890947
        outSlope: -.000920890947
        tangentMode: 0
      - time: .450000167
        value: .999814153
        inSlope: -.000969170709
        outSlope: -.000969170709
        tangentMode: 0
      - time: .466666847
        value: .999797583
        inSlope: -.00101745047
        outSlope: -.00101745047
        tangentMode: 0
      - time: .483333528
        value: .999780238
        inSlope: -.00106394303
        outSlope: -.00106394303
        tangentMode: 0
      - time: .500000179
        value: .999762118
        inSlope: -.00110864744
        outSlope: -.00110864744
        tangentMode: 0
      - time: .51666683
        value: .999743283
        inSlope: -.00114977476
        outSlope: -.00114977476
        tangentMode: 0
      - time: .53333348
        value: .999723792
        inSlope: -.00118911383
        outSlope: -.00118911383
        tangentMode: 0
      - time: .550000131
        value: .999703646
        inSlope: -.00122487661
        outSlope: -.00122487661
        tangentMode: 0
      - time: .566666782
        value: .999682963
        inSlope: -.00125527498
        outSlope: -.00125527498
        tangentMode: 0
      - time: .583333433
        value: .999661803
        inSlope: -.00128388521
        outSlope: -.00128388521
        tangentMode: 0
      - time: .600000083
        value: .999640167
        inSlope: -.00130891928
        outSlope: -.00130891928
        tangentMode: 0
      - time: .616666734
        value: .999618173
        inSlope: -.00132680067
        outSlope: -.00132680067
        tangentMode: 0
      - time: .633333385
        value: .99959594
        inSlope: -.00134110579
        outSlope: -.00134110579
        tangentMode: 0
      - time: .650000036
        value: .999573469
        inSlope: -.00135004648
        outSlope: -.00135004648
        tangentMode: 0
      - time: .666666687
        value: .999550939
        inSlope: -.00135362276
        outSlope: -.00135362276
        tangentMode: 0
      - time: .683333337
        value: .999528348
        inSlope: -.00135004648
        outSlope: -.00135004648
        tangentMode: 0
      - time: .699999988
        value: .999505937
        inSlope: -.00133931765
        outSlope: -.00133931765
        tangentMode: 0
      - time: .716666639
        value: .999483705
        inSlope: -.00132501253
        outSlope: -.00132501253
        tangentMode: 0
      - time: .73333329
        value: .99946177
        inSlope: -.00130355486
        outSlope: -.00130355486
        tangentMode: 0
      - time: .74999994
        value: .999440253
        inSlope: -.00127494452
        outSlope: -.00127494452
        tangentMode: 0
      - time: .766666591
        value: .999419272
        inSlope: -.00123918173
        outSlope: -.00123918173
        tangentMode: 0
      - time: .783333242
        value: .999398947
        inSlope: -.00119447825
        outSlope: -.00119447825
        tangentMode: 0
      - time: .799999893
        value: .999379456
        inSlope: -.00114441034
        outSlope: -.00114441034
        tangentMode: 0
      - time: .816666543
        value: .9993608
        inSlope: -.00108718977
        outSlope: -.00108718977
        tangentMode: 0
      - time: .833333194
        value: .999343216
        inSlope: -.0010210285
        outSlope: -.0010210285
        tangentMode: 0
      - time: .849999845
        value: .999326766
        inSlope: -.000949502923
        outSlope: -.000949502923
        tangentMode: 0
      - time: .866666496
        value: .999311566
        inSlope: -.000870824675
        outSlope: -.000870824675
        tangentMode: 0
      - time: .883333147
        value: .999297738
        inSlope: -.000784993928
        outSlope: -.000784993928
        tangentMode: 0
      - time: .899999797
        value: .9992854
        inSlope: -.000690222427
        outSlope: -.000690222427
        tangentMode: 0
      - time: .916666448
        value: .999274731
        inSlope: -.000590086565
        outSlope: -.000590086565
        tangentMode: 0
      - time: .933333099
        value: .99926573
        inSlope: -.000484586228
        outSlope: -.000484586228
        tangentMode: 0
      - time: .94999975
        value: .999258578
        inSlope: -.000370145193
        outSlope: -.000370145193
        tangentMode: 0
      - time: .9666664
        value: .999253392
        inSlope: -.00025212788
        outSlope: -.00025212788
        tangentMode: 0
      - time: .983333051
        value: .999250174
        inSlope: -.000128746149
        outSlope: -.000128746149
        tangentMode: 0
      - time: .999999702
        value: .999249101
        inSlope: -1.12777343e-10
        outSlope: -1.12777343e-10
        tangentMode: 0
      - time: 1.01666641
        value: .999250174
        inSlope: .000128746047
        outSlope: .000128746047
        tangentMode: 0
      - time: 1.03333306
        value: .999253392
        inSlope: .00025212788
        outSlope: .00025212788
        tangentMode: 0
      - time: 1.04999971
        value: .999258578
        inSlope: .000370145193
        outSlope: .000370145193
        tangentMode: 0
      - time: 1.06666636
        value: .99926573
        inSlope: .000484586228
        outSlope: .000484586228
        tangentMode: 0
      - time: 1.08333302
        value: .999274731
        inSlope: .000590086565
        outSlope: .000590086565
        tangentMode: 0
      - time: 1.09999967
        value: .9992854
        inSlope: .000690222427
        outSlope: .000690222427
        tangentMode: 0
      - time: 1.11666632
        value: .999297738
        inSlope: .000784993928
        outSlope: .000784993928
        tangentMode: 0
      - time: 1.13333297
        value: .999311566
        inSlope: .000870824675
        outSlope: .000870824675
        tangentMode: 0
      - time: 1.14999962
        value: .999326766
        inSlope: .000949502923
        outSlope: .000949502923
        tangentMode: 0
      - time: 1.16666627
        value: .999343216
        inSlope: .0010210285
        outSlope: .0010210285
        tangentMode: 0
      - time: 1.18333292
        value: .9993608
        inSlope: .00108718977
        outSlope: .00108718977
        tangentMode: 0
      - time: 1.19999957
        value: .999379456
        inSlope: .00114441034
        outSlope: .00114441034
        tangentMode: 0
      - time: 1.21666622
        value: .999398947
        inSlope: .00119447825
        outSlope: .00119447825
        tangentMode: 0
      - time: 1.23333287
        value: .999419272
        inSlope: .00123918173
        outSlope: .00123918173
        tangentMode: 0
      - time: 1.24999952
        value: .999440253
        inSlope: .00127494452
        outSlope: .00127494452
        tangentMode: 0
      - time: 1.26666617
        value: .99946177
        inSlope: .00130355486
        outSlope: .00130355486
        tangentMode: 0
      - time: 1.28333282
        value: .999483705
        inSlope: .00132501253
        outSlope: .00132501253
        tangentMode: 0
      - time: 1.29999948
        value: .999505937
        inSlope: .00133931765
        outSlope: .00133931765
        tangentMode: 0
      - time: 1.31666613
        value: .999528348
        inSlope: .00135004648
        outSlope: .00135004648
        tangentMode: 0
      - time: 1.33333278
        value: .999550939
        inSlope: .00135362276
        outSlope: .00135362276
        tangentMode: 0
      - time: 1.34999943
        value: .999573469
        inSlope: .00135004648
        outSlope: .00135004648
        tangentMode: 0
      - time: 1.36666608
        value: .99959594
        inSlope: .00134110579
        outSlope: .00134110579
        tangentMode: 0
      - time: 1.38333273
        value: .999618173
        inSlope: .00132680067
        outSlope: .00132680067
        tangentMode: 0
      - time: 1.39999938
        value: .999640167
        inSlope: .00130891928
        outSlope: .00130891928
        tangentMode: 0
      - time: 1.41666603
        value: .999661803
        inSlope: .00128388521
        outSlope: .00128388521
        tangentMode: 0
      - time: 1.43333268
        value: .999682963
        inSlope: .00125527498
        outSlope: .00125527498
        tangentMode: 0
      - time: 1.44999933
        value: .999703646
        inSlope: .00122487661
        outSlope: .00122487661
        tangentMode: 0
      - time: 1.46666598
        value: .999723792
        inSlope: .00118911383
        outSlope: .00118911383
        tangentMode: 0
      - time: 1.48333263
        value: .999743283
        inSlope: .00114977476
        outSlope: .00114977476
        tangentMode: 0
      - time: 1.49999928
        value: .999762118
        inSlope: .00110864744
        outSlope: .00110864744
        tangentMode: 0
      - time: 1.51666594
        value: .999780238
        inSlope: .00106394396
        outSlope: .00106394396
        tangentMode: 0
      - time: 1.53333259
        value: .999797583
        inSlope: .00101745222
        outSlope: .00101745222
        tangentMode: 0
      - time: 1.54999924
        value: .999814153
        inSlope: .000969172455
        outSlope: .000969172455
        tangentMode: 0
      - time: 1.56666589
        value: .999829888
        inSlope: .000920892635
        outSlope: .000920892635
        tangentMode: 0
      - time: 1.58333254
        value: .999844849
        inSlope: .000870824675
        outSlope: .000870824675
        tangentMode: 0
      - time: 1.59999919
        value: .999858916
        inSlope: .000818968634
        outSlope: .000818968634
        tangentMode: 0
      - time: 1.61666584
        value: .999872148
        inSlope: .000768900616
        outSlope: .000768900616
        tangentMode: 0
      - time: 1.63333249
        value: .999884546
        inSlope: .000717044575
        outSlope: .000717044575
        tangentMode: 0
      - time: 1.64999914
        value: .999896049
        inSlope: .000666976615
        outSlope: .000666976615
        tangentMode: 0
      - time: 1.66666579
        value: .999906778
        inSlope: .000616908656
        outSlope: .000616908656
        tangentMode: 0
      - time: 1.68333244
        value: .999916613
        inSlope: .000568628893
        outSlope: .000568628893
        tangentMode: 0
      - time: 1.69999909
        value: .999925733
        inSlope: .000522137154
        outSlope: .000522137154
        tangentMode: 0
      - time: 1.71666574
        value: .999934018
        inSlope: .000473857392
        outSlope: .000473857392
        tangentMode: 0
      - time: 1.7333324
        value: .999941528
        inSlope: .00042915385
        outSlope: .00042915385
        tangentMode: 0
      - time: 1.74999905
        value: .999948323
        inSlope: .000388026587
        outSlope: .000388026587
        tangentMode: 0
      - time: 1.7666657
        value: .999954462
        inSlope: .000348687521
        outSlope: .000348687521
        tangentMode: 0
      - time: 1.78333235
        value: .999959946
        inSlope: .000309348397
        outSlope: .000309348397
        tangentMode: 0
      - time: 1.799999
        value: .999964774
        inSlope: .000271797413
        outSlope: .000271797413
        tangentMode: 0
      - time: 1.81666565
        value: .999969006
        inSlope: .000239610905
        outSlope: .000239610905
        tangentMode: 0
      - time: 1.8333323
        value: .999972761
        inSlope: .000209212507
        outSlope: .000209212507
        tangentMode: 0
      - time: 1.84999895
        value: .999975979
        inSlope: .000180602248
        outSlope: .000180602248
        tangentMode: 0
      - time: 1.8666656
        value: .999978781
        inSlope: .000153780129
        outSlope: .000153780129
        tangentMode: 0
      - time: 1.88333225
        value: .999981105
        inSlope: .000128746149
        outSlope: .000128746149
        tangentMode: 0
      - time: 1.8999989
        value: .999983072
        inSlope: .000107288462
        outSlope: .000107288462
        tangentMode: 0
      - time: 1.91666555
        value: .999984682
        inSlope: 8.58307758e-05
        outSlope: 8.58307758e-05
        tangentMode: 0
      - time: 1.9333322
        value: .999985933
        inSlope: 6.61612212e-05
        outSlope: 6.61612212e-05
        tangentMode: 0
      - time: 1.94999886
        value: .999986887
        inSlope: 5.00679489e-05
        outSlope: 5.00679489e-05
        tangentMode: 0
      - time: 1.96666551
        value: .999987602
        inSlope: 3.39746803e-05
        outSlope: 3.39746803e-05
        tangentMode: 0
      - time: 1.98333216
        value: .999988019
        inSlope: 1.6093014e-05
        outSlope: 1.6093014e-05
        tangentMode: 0
      - time: 2
        value: .999988139
        inSlope: 7.1520526e-06
        outSlope: 7.1520526e-06
        tangentMode: 0
      m_PreInfinity: 2
      m_PostInfinity: 2
    attribute: m_LocalRotation.w
    path: body/head
    classID: 4
    script: {fileID: 0}
  m_EulerEditorCurves:
  - curve:
      serializedVersion: 2
      m_Curve:
      - time: 0
        value: 0
        inSlope: 0
        outSlope: 0
        tangentMode: 0
      - time: 1
        value: 0
        inSlope: 0
        outSlope: 0
        tangentMode: 0
      - time: 2
        value: 0
        inSlope: 0
        outSlope: 0
        tangentMode: 0
      m_PreInfinity: 2
      m_PostInfinity: 2
    attribute: localEulerAnglesBaked.x
    path: body/head
    classID: 4
    script: {fileID: 0}
  - curve:
      serializedVersion: 2
      m_Curve:
      - time: 0
        value: 0
        inSlope: 0
        outSlope: 0
        tangentMode: 0
      - time: 1
        value: 0
        inSlope: 0
        outSlope: 0
        tangentMode: 0
      - time: 2
        value: 0
        inSlope: 0
        outSlope: 0
        tangentMode: 0
      m_PreInfinity: 2
      m_PostInfinity: 2
    attribute: localEulerAnglesBaked.y
    path: body/head
    classID: 4
    script: {fileID: 0}
  - curve:
      serializedVersion: 2
      m_Curve:
      - time: 0
        value: -.558105469
        inSlope: 0
        outSlope: 0
        tangentMode: 0
      - time: 1
        value: -4.44104004
        inSlope: 0
        outSlope: 0
        tangentMode: 0
      - time: 2
        value: -.558105469
        inSlope: 0
        outSlope: 0
        tangentMode: 0
      m_PreInfinity: 2
      m_PostInfinity: 2
    attribute: localEulerAnglesBaked.z
    path: body/head
    classID: 4
    script: {fileID: 0}
  m_HasGenericRootTransform: 0
  m_HasMotionFloatCurves: 0
  m_GenerateMotionCurves: 0
  m_Events: []
