%YAML 1.1
%TAG !u! tag:unity3d.com,2011:
--- !u!74 &7400000
AnimationClip:
  m_ObjectHideFlags: 0
  m_PrefabParentObject: {fileID: 0}
  m_PrefabInternal: {fileID: 0}
  m_Name: smoke puff
  serializedVersion: 6
  m_Legacy: 0
  m_Compressed: 0
  m_UseHighQualityCurve: 1
  m_RotationCurves: []
  m_CompressedRotationCurves: []
  m_PositionCurves: []
  m_ScaleCurves:
  - curve:
      serializedVersion: 2
      m_Curve:
      - time: .0833333358
        value: {x: .699999988, y: .699999988, z: .890318155}
        inSlope: {x: 1.20000005, y: 1.20000005, z: .438727379}
        outSlope: {x: 1.20000005, y: 1.20000005, z: .438727379}
        tangentMode: 0
      - time: .333333343
        value: {x: 1, y: 1, z: 1}
        inSlope: {x: .900000095, y: .900000095, z: .219363689}
        outSlope: {x: .900000095, y: .900000095, z: .219363689}
        tangentMode: 0
      - time: .5
        value: {x: 1.10000002, y: 1.10000002, z: 1}
        inSlope: {x: .600000203, y: .600000203, z: 0}
        outSlope: {x: .600000203, y: .600000203, z: 0}
        tangentMode: 0
      m_PreInfinity: 2
      m_PostInfinity: 2
    path: smoke-puff_0
  m_FloatCurves: []
  m_PPtrCurves:
  - curve:
    - time: 0
      value: {fileID: 0}
    - time: .166666672
      value: {fileID: 21300000, guid: 90a3d6b7118ff0d49a150c216de346e7, type: 3}
    - time: .25
      value: {fileID: 21300002, guid: 90a3d6b7118ff0d49a150c216de346e7, type: 3}
    - time: .333333343
      value: {fileID: 21300004, guid: 90a3d6b7118ff0d49a150c216de346e7, type: 3}
    - time: .416666657
      value: {fileID: 21300006, guid: 90a3d6b7118ff0d49a150c216de346e7, type: 3}
    - time: .5
      value: {fileID: 0}
    attribute: m_Sprite
    path: smoke-puff_0
    classID: 212
    script: {fileID: 0}
  m_SampleRate: 12
  m_WrapMode: 0
  m_Bounds:
    m_Center: {x: 0, y: 0, z: 0}
    m_Extent: {x: 0, y: 0, z: 0}
  m_ClipBindingConstant:
    genericBindings:
    - path: 134739031
      attribute: 3
      script: {fileID: 0}
      classID: 4
      customType: 0
      isPPtrCurve: 0
    - path: 134739031
      attribute: 0
      script: {fileID: 0}
      classID: 212
      customType: 23
      isPPtrCurve: 1
    pptrCurveMapping:
    - {fileID: 0}
    - {fileID: 21300000, guid: 90a3d6b7118ff0d49a150c216de346e7, type: 3}
    - {fileID: 21300002, guid: 90a3d6b7118ff0d49a150c216de346e7, type: 3}
    - {fileID: 21300004, guid: 90a3d6b7118ff0d49a150c216de346e7, type: 3}
    - {fileID: 21300006, guid: 90a3d6b7118ff0d49a150c216de346e7, type: 3}
    - {fileID: 0}
  m_AnimationClipSettings:
    serializedVersion: 2
    m_StartTime: 0
    m_StopTime: .583333313
    m_OrientationOffsetY: 0
    m_Level: 0
    m_CycleOffset: 0
    m_LoopTime: 1
    m_LoopBlend: 0
    m_LoopBlendOrientation: 0
    m_LoopBlendPositionY: 0
    m_LoopBlendPositionXZ: 0
    m_KeepOriginalOrientation: 0
    m_KeepOriginalPositionY: 1
    m_KeepOriginalPositionXZ: 0
    m_HeightFromFeet: 0
    m_Mirror: 0
  m_EditorCurves:
  - curve:
      serializedVersion: 2
      m_Curve:
      - time: .0833333358
        value: .699999988
        inSlope: 1.20000005
        outSlope: 1.20000005
        tangentMode: 10
      - time: .333333343
        value: 1
        inSlope: .900000095
        outSlope: .900000095
        tangentMode: 10
      - time: .5
        value: 1.10000002
        inSlope: .600000203
        outSlope: .600000203
        tangentMode: 10
      m_PreInfinity: 2
      m_PostInfinity: 2
    attribute: m_LocalScale.x
    path: smoke-puff_0
    classID: 4
    script: {fileID: 0}
  - curve:
      serializedVersion: 2
      m_Curve:
      - time: .0833333358
        value: .699999988
        inSlope: 1.20000005
        outSlope: 1.20000005
        tangentMode: 10
      - time: .333333343
        value: 1
        inSlope: .900000095
        outSlope: .900000095
        tangentMode: 10
      - time: .5
        value: 1.10000002
        inSlope: .600000203
        outSlope: .600000203
        tangentMode: 10
      m_PreInfinity: 2
      m_PostInfinity: 2
    attribute: m_LocalScale.y
    path: smoke-puff_0
    classID: 4
    script: {fileID: 0}
  - curve:
      serializedVersion: 2
      m_Curve:
      - time: .0833333358
        value: .890318155
        inSlope: .438727379
        outSlope: .438727379
        tangentMode: 10
      - time: .333333343
        value: 1
        inSlope: .219363689
        outSlope: .219363689
        tangentMode: 10
      - time: .5
        value: 1
        inSlope: 0
        outSlope: 0
        tangentMode: 10
      m_PreInfinity: 2
      m_PostInfinity: 2
    attribute: m_LocalScale.z
    path: smoke-puff_0
    classID: 4
    script: {fileID: 0}
  m_EulerEditorCurves: []
  m_HasGenericRootTransform: 0
  m_HasMotionFloatCurves: 0
  m_GenerateMotionCurves: 0
  m_Events: []
