%YAML 1.1
%TAG !u! tag:unity3d.com,2011:
--- !u!74 &7400000
AnimationClip:
  m_ObjectHideFlags: 0
  m_PrefabParentObject: {fileID: 0}
  m_PrefabInternal: {fileID: 0}
  m_Name: girl_old idle
  serializedVersion: 6
  m_Legacy: 0
  m_Compressed: 0
  m_UseHighQualityCurve: 1
  m_RotationCurves: []
  m_CompressedRotationCurves: []
  m_EulerCurves:
  - curve:
      serializedVersion: 2
      m_Curve:
      - time: 0
        value: {x: -0, y: 0, z: 359.38327}
        inSlope: {x: 0, y: 0, z: 0}
        outSlope: {x: 0, y: 0, z: 0}
        tangentMode: 0
      - time: 1
        value: {x: -0, y: 0, z: 354.4997}
        inSlope: {x: 0, y: 0, z: 0}
        outSlope: {x: 0, y: 0, z: 0}
        tangentMode: 0
      - time: 2
        value: {x: -0, y: 0, z: 359.38327}
        inSlope: {x: 0, y: 0, z: 0}
        outSlope: {x: 0, y: 0, z: 0}
        tangentMode: 0
      m_PreInfinity: 2
      m_PostInfinity: 2
      m_RotationOrder: 4
    path: body/head
  m_PositionCurves:
  - curve:
      serializedVersion: 2
      m_Curve:
      - time: 1
        value: {x: 0.084, y: 0.461, z: 0}
        inSlope: {x: -0.02400001, y: -0.0359999, z: 0}
        outSlope: {x: -0.02400001, y: -0.0359999, z: 0}
        tangentMode: 0
      - time: 1.1666666
        value: {x: 0.08, y: 0.455, z: 0}
        inSlope: {x: -0.000000008381903, y: -0.000000013038516, z: 0}
        outSlope: {x: -0.000000008381903, y: -0.000000013038516, z: 0}
        tangentMode: 0
      - time: 1.3333334
        value: {x: 0.084, y: 0.461, z: 0}
        inSlope: {x: -0.000000008381903, y: -0.000000013038516, z: 0}
        outSlope: {x: -0.000000008381903, y: -0.000000013038516, z: 0}
        tangentMode: 0
      - time: 1.5
        value: {x: 0.08, y: 0.455, z: 0}
        inSlope: {x: 0, y: 0, z: 0}
        outSlope: {x: 0, y: 0, z: 0}
        tangentMode: 0
      - time: 1.6666666
        value: {x: 0.084, y: 0.461, z: 0}
        inSlope: {x: 0, y: 0, z: 0}
        outSlope: {x: 0, y: 0, z: 0}
        tangentMode: 0
      - time: 1.8333333
        value: {x: 0.08, y: 0.455, z: 0}
        inSlope: {x: -0.000000008381903, y: -0.000000013038516, z: 0}
        outSlope: {x: -0.000000008381903, y: -0.000000013038516, z: 0}
        tangentMode: 0
      - time: 2
        value: {x: 0.084, y: 0.461, z: 0}
        inSlope: {x: 0.023999993, y: 0.035999876, z: 0}
        outSlope: {x: 0.023999993, y: 0.035999876, z: 0}
        tangentMode: 0
      m_PreInfinity: 2
      m_PostInfinity: 2
      m_RotationOrder: 4
    path: body/head/mouth
  - curve:
      serializedVersion: 2
      m_Curve:
      - time: 0.16666667
        value: {x: -0.673, y: 1.267, z: 0}
        inSlope: {x: 0, y: 0, z: 0}
        outSlope: {x: 0, y: 0, z: 0}
        tangentMode: 0
      - time: 1.25
        value: {x: -0.673, y: 1.315, z: 0}
        inSlope: {x: 0, y: -0.009846175, z: 0}
        outSlope: {x: 0, y: -0.009846175, z: 0}
        tangentMode: 0
      - time: 2
        value: {x: -0.673, y: 1.267, z: 0}
        inSlope: {x: 0, y: 0, z: 0}
        outSlope: {x: 0, y: 0, z: 0}
        tangentMode: 0
      m_PreInfinity: 2
      m_PostInfinity: 2
      m_RotationOrder: 4
    path: body/head/eyeL
  - curve:
      serializedVersion: 2
      m_Curve:
      - time: 0.16666667
        value: {x: 0.545, y: 1.33, z: 0}
        inSlope: {x: 0, y: 0, z: 0}
        outSlope: {x: 0, y: 0, z: 0}
        tangentMode: 0
      - time: 1.25
        value: {x: 0.545, y: 1.378, z: 0}
        inSlope: {x: 0, y: -0.009846151, z: 0}
        outSlope: {x: 0, y: -0.009846151, z: 0}
        tangentMode: 0
      - time: 2
        value: {x: 0.545, y: 1.33, z: 0}
        inSlope: {x: 0, y: 0, z: 0}
        outSlope: {x: 0, y: 0, z: 0}
        tangentMode: 0
      m_PreInfinity: 2
      m_PostInfinity: 2
      m_RotationOrder: 4
    path: body/head/eyeR
  m_ScaleCurves:
  - curve:
      serializedVersion: 2
      m_Curve:
      - time: 1
        value: {x: 1, y: 1, z: 1}
        inSlope: {x: 0.6567666, y: -0.591969, z: 0}
        outSlope: {x: 0.6567666, y: -0.591969, z: 0}
        tangentMode: 0
      - time: 1.1666666
        value: {x: 1.1094611, y: 0.9013385, z: 1}
        inSlope: {x: 0.00000023841858, y: -0.00000020861626, z: 0}
        outSlope: {x: 0.00000023841858, y: -0.00000020861626, z: 0}
        tangentMode: 0
      - time: 1.3333334
        value: {x: 1, y: 1, z: 1}
        inSlope: {x: 0.00000023841858, y: -0.00000020861626, z: 0}
        outSlope: {x: 0.00000023841858, y: -0.00000020861626, z: 0}
        tangentMode: 0
      - time: 1.5
        value: {x: 1.1094611, y: 0.9013385, z: 1}
        inSlope: {x: 0, y: 0, z: 0}
        outSlope: {x: 0, y: 0, z: 0}
        tangentMode: 0
      - time: 1.6666666
        value: {x: 1, y: 1, z: 1}
        inSlope: {x: 0, y: 0, z: 0}
        outSlope: {x: 0, y: 0, z: 0}
        tangentMode: 0
      - time: 1.8333333
        value: {x: 1.1094611, y: 0.9013385, z: 1}
        inSlope: {x: 0.00000023841858, y: -0.00000020861626, z: 0}
        outSlope: {x: 0.00000023841858, y: -0.00000020861626, z: 0}
        tangentMode: 0
      - time: 2
        value: {x: 1, y: 1, z: 1}
        inSlope: {x: -0.6567661, y: 0.5919686, z: 0}
        outSlope: {x: -0.6567661, y: 0.5919686, z: 0}
        tangentMode: 0
      m_PreInfinity: 2
      m_PostInfinity: 2
      m_RotationOrder: 4
    path: body/head/mouth
  m_FloatCurves: []
  m_PPtrCurves: []
  m_SampleRate: 60
  m_WrapMode: 0
  m_Bounds:
    m_Center: {x: 0, y: 0, z: 0}
    m_Extent: {x: 0, y: 0, z: 0}
  m_ClipBindingConstant:
    genericBindings:
    - path: 2626611235
      attribute: 1
      script: {fileID: 0}
      classID: 4
      customType: 0
      isPPtrCurve: 0
    - path: 928753512
      attribute: 1
      script: {fileID: 0}
      classID: 4
      customType: 0
      isPPtrCurve: 0
    - path: 3444873739
      attribute: 1
      script: {fileID: 0}
      classID: 4
      customType: 0
      isPPtrCurve: 0
    - path: 195406385
      attribute: 4
      script: {fileID: 0}
      classID: 4
      customType: 14
      isPPtrCurve: 0
    - path: 2626611235
      attribute: 3
      script: {fileID: 0}
      classID: 4
      customType: 0
      isPPtrCurve: 0
    pptrCurveMapping: []
  m_AnimationClipSettings:
    serializedVersion: 2
    m_AdditiveReferencePoseClip: {fileID: 0}
    m_AdditiveReferencePoseTime: 0
    m_StartTime: 0
    m_StopTime: 2
    m_OrientationOffsetY: 0
    m_Level: 0
    m_CycleOffset: 0
    m_HasAdditiveReferencePose: 0
    m_LoopTime: 1
    m_LoopBlend: 0
    m_LoopBlendOrientation: 0
    m_LoopBlendPositionY: 0
    m_LoopBlendPositionXZ: 0
    m_KeepOriginalOrientation: 0
    m_KeepOriginalPositionY: 1
    m_KeepOriginalPositionXZ: 0
    m_HeightFromFeet: 0
    m_Mirror: 0
  m_EditorCurves:
  - curve:
      serializedVersion: 2
      m_Curve:
      - time: 0
        value: -0
        inSlope: 0
        outSlope: 0
        tangentMode: 0
      - time: 1
        value: -0
        inSlope: 0
        outSlope: 0
        tangentMode: 0
      - time: 2
        value: -0
        inSlope: 0
        outSlope: 0
        tangentMode: 0
      m_PreInfinity: 2
      m_PostInfinity: 2
      m_RotationOrder: 4
    attribute: localEulerAnglesRaw.x
    path: body/head
    classID: 4
    script: {fileID: 0}
  - curve:
      serializedVersion: 2
      m_Curve:
      - time: 0
        value: 0
        inSlope: 0
        outSlope: 0
        tangentMode: 0
      - time: 1
        value: 0
        inSlope: 0
        outSlope: 0
        tangentMode: 0
      - time: 2
        value: 0
        inSlope: 0
        outSlope: 0
        tangentMode: 0
      m_PreInfinity: 2
      m_PostInfinity: 2
      m_RotationOrder: 4
    attribute: localEulerAnglesRaw.y
    path: body/head
    classID: 4
    script: {fileID: 0}
  - curve:
      serializedVersion: 2
      m_Curve:
      - time: 0
        value: 359.38327
        inSlope: 0
        outSlope: 0
        tangentMode: 0
      - time: 1
        value: 354.4997
        inSlope: 0
        outSlope: 0
        tangentMode: 0
      - time: 2
        value: 359.38327
        inSlope: 0
        outSlope: 0
        tangentMode: 0
      m_PreInfinity: 2
      m_PostInfinity: 2
      m_RotationOrder: 4
    attribute: localEulerAnglesRaw.z
    path: body/head
    classID: 4
    script: {fileID: 0}
  - curve:
      serializedVersion: 2
      m_Curve:
      - time: 1
        value: 0.084
        inSlope: -0.02400001
        outSlope: -0.02400001
        tangentMode: 10
      - time: 1.1666666
        value: 0.08
        inSlope: -0.000000008381903
        outSlope: -0.000000008381903
        tangentMode: 10
      - time: 1.3333334
        value: 0.084
        inSlope: -0.000000008381903
        outSlope: -0.000000008381903
        tangentMode: 10
      - time: 1.5
        value: 0.08
        inSlope: 0
        outSlope: 0
        tangentMode: 10
      - time: 1.6666666
        value: 0.084
        inSlope: 0
        outSlope: 0
        tangentMode: 10
      - time: 1.8333333
        value: 0.08
        inSlope: -0.000000008381903
        outSlope: -0.000000008381903
        tangentMode: 10
      - time: 2
        value: 0.084
        inSlope: 0.023999993
        outSlope: 0.023999993
        tangentMode: 10
      m_PreInfinity: 2
      m_PostInfinity: 2
      m_RotationOrder: 4
    attribute: m_LocalPosition.x
    path: body/head/mouth
    classID: 4
    script: {fileID: 0}
  - curve:
      serializedVersion: 2
      m_Curve:
      - time: 1
        value: 0.461
        inSlope: -0.0359999
        outSlope: -0.0359999
        tangentMode: 10
      - time: 1.1666666
        value: 0.455
        inSlope: -0.000000013038516
        outSlope: -0.000000013038516
        tangentMode: 10
      - time: 1.3333334
        value: 0.461
        inSlope: -0.000000013038516
        outSlope: -0.000000013038516
        tangentMode: 10
      - time: 1.5
        value: 0.455
        inSlope: 0
        outSlope: 0
        tangentMode: 10
      - time: 1.6666666
        value: 0.461
        inSlope: 0
        outSlope: 0
        tangentMode: 10
      - time: 1.8333333
        value: 0.455
        inSlope: -0.000000013038516
        outSlope: -0.000000013038516
        tangentMode: 10
      - time: 2
        value: 0.461
        inSlope: 0.035999876
        outSlope: 0.035999876
        tangentMode: 10
      m_PreInfinity: 2
      m_PostInfinity: 2
      m_RotationOrder: 4
    attribute: m_LocalPosition.y
    path: body/head/mouth
    classID: 4
    script: {fileID: 0}
  - curve:
      serializedVersion: 2
      m_Curve:
      - time: 1
        value: 0
        inSlope: 0
        outSlope: 0
        tangentMode: 10
      - time: 1.1666666
        value: 0
        inSlope: 0
        outSlope: 0
        tangentMode: 10
      - time: 1.3333334
        value: 0
        inSlope: 0
        outSlope: 0
        tangentMode: 10
      - time: 1.5
        value: 0
        inSlope: 0
        outSlope: 0
        tangentMode: 10
      - time: 1.6666666
        value: 0
        inSlope: 0
        outSlope: 0
        tangentMode: 10
      - time: 1.8333333
        value: 0
        inSlope: 0
        outSlope: 0
        tangentMode: 10
      - time: 2
        value: 0
        inSlope: 0
        outSlope: 0
        tangentMode: 10
      m_PreInfinity: 2
      m_PostInfinity: 2
      m_RotationOrder: 4
    attribute: m_LocalPosition.z
    path: body/head/mouth
    classID: 4
    script: {fileID: 0}
  - curve:
      serializedVersion: 2
      m_Curve:
      - time: 1
        value: 1
        inSlope: 0.6567666
        outSlope: 0.6567666
        tangentMode: 10
      - time: 1.1666666
        value: 1.1094611
        inSlope: 0.00000023841858
        outSlope: 0.00000023841858
        tangentMode: 10
      - time: 1.3333334
        value: 1
        inSlope: 0.00000023841858
        outSlope: 0.00000023841858
        tangentMode: 10
      - time: 1.5
        value: 1.1094611
        inSlope: 0
        outSlope: 0
        tangentMode: 10
      - time: 1.6666666
        value: 1
        inSlope: 0
        outSlope: 0
        tangentMode: 10
      - time: 1.8333333
        value: 1.1094611
        inSlope: 0.00000023841858
        outSlope: 0.00000023841858
        tangentMode: 10
      - time: 2
        value: 1
        inSlope: -0.6567661
        outSlope: -0.6567661
        tangentMode: 10
      m_PreInfinity: 2
      m_PostInfinity: 2
      m_RotationOrder: 4
    attribute: m_LocalScale.x
    path: body/head/mouth
    classID: 4
    script: {fileID: 0}
  - curve:
      serializedVersion: 2
      m_Curve:
      - time: 1
        value: 1
        inSlope: -0.591969
        outSlope: -0.591969
        tangentMode: 10
      - time: 1.1666666
        value: 0.9013385
        inSlope: -0.00000020861626
        outSlope: -0.00000020861626
        tangentMode: 10
      - time: 1.3333334
        value: 1
        inSlope: -0.00000020861626
        outSlope: -0.00000020861626
        tangentMode: 10
      - time: 1.5
        value: 0.9013385
        inSlope: 0
        outSlope: 0
        tangentMode: 10
      - time: 1.6666666
        value: 1
        inSlope: 0
        outSlope: 0
        tangentMode: 10
      - time: 1.8333333
        value: 0.9013385
        inSlope: -0.00000020861626
        outSlope: -0.00000020861626
        tangentMode: 10
      - time: 2
        value: 1
        inSlope: 0.5919686
        outSlope: 0.5919686
        tangentMode: 10
      m_PreInfinity: 2
      m_PostInfinity: 2
      m_RotationOrder: 4
    attribute: m_LocalScale.y
    path: body/head/mouth
    classID: 4
    script: {fileID: 0}
  - curve:
      serializedVersion: 2
      m_Curve:
      - time: 1
        value: 1
        inSlope: 0
        outSlope: 0
        tangentMode: 10
      - time: 1.1666666
        value: 1
        inSlope: 0
        outSlope: 0
        tangentMode: 10
      - time: 1.3333334
        value: 1
        inSlope: 0
        outSlope: 0
        tangentMode: 10
      - time: 1.5
        value: 1
        inSlope: 0
        outSlope: 0
        tangentMode: 10
      - time: 1.6666666
        value: 1
        inSlope: 0
        outSlope: 0
        tangentMode: 10
      - time: 1.8333333
        value: 1
        inSlope: 0
        outSlope: 0
        tangentMode: 10
      - time: 2
        value: 1
        inSlope: 0
        outSlope: 0
        tangentMode: 10
      m_PreInfinity: 2
      m_PostInfinity: 2
      m_RotationOrder: 4
    attribute: m_LocalScale.z
    path: body/head/mouth
    classID: 4
    script: {fileID: 0}
  - curve:
      serializedVersion: 2
      m_Curve:
      - time: 0.16666667
        value: -0.673
        inSlope: 0
        outSlope: 0
        tangentMode: 0
      - time: 1.25
        value: -0.673
        inSlope: 0
        outSlope: 0
        tangentMode: 10
      - time: 2
        value: -0.673
        inSlope: 0
        outSlope: 0
        tangentMode: 0
      m_PreInfinity: 2
      m_PostInfinity: 2
      m_RotationOrder: 4
    attribute: m_LocalPosition.x
    path: body/head/eyeL
    classID: 4
    script: {fileID: 0}
  - curve:
      serializedVersion: 2
      m_Curve:
      - time: 0.16666667
        value: 1.267
        inSlope: 0
        outSlope: 0
        tangentMode: 0
      - time: 1.25
        value: 1.315
        inSlope: -0.009846175
        outSlope: -0.009846175
        tangentMode: 10
      - time: 2
        value: 1.267
        inSlope: 0
        outSlope: 0
        tangentMode: 0
      m_PreInfinity: 2
      m_PostInfinity: 2
      m_RotationOrder: 4
    attribute: m_LocalPosition.y
    path: body/head/eyeL
    classID: 4
    script: {fileID: 0}
  - curve:
      serializedVersion: 2
      m_Curve:
      - time: 0.16666667
        value: 0
        inSlope: 0
        outSlope: 0
        tangentMode: 0
      - time: 1.25
        value: 0
        inSlope: 0
        outSlope: 0
        tangentMode: 10
      - time: 2
        value: 0
        inSlope: 0
        outSlope: 0
        tangentMode: 0
      m_PreInfinity: 2
      m_PostInfinity: 2
      m_RotationOrder: 4
    attribute: m_LocalPosition.z
    path: body/head/eyeL
    classID: 4
    script: {fileID: 0}
  - curve:
      serializedVersion: 2
      m_Curve:
      - time: 0.16666667
        value: 0.545
        inSlope: 0
        outSlope: 0
        tangentMode: 0
      - time: 1.25
        value: 0.545
        inSlope: 0
        outSlope: 0
        tangentMode: 10
      - time: 2
        value: 0.545
        inSlope: 0
        outSlope: 0
        tangentMode: 0
      m_PreInfinity: 2
      m_PostInfinity: 2
      m_RotationOrder: 4
    attribute: m_LocalPosition.x
    path: body/head/eyeR
    classID: 4
    script: {fileID: 0}
  - curve:
      serializedVersion: 2
      m_Curve:
      - time: 0.16666667
        value: 1.33
        inSlope: 0
        outSlope: 0
        tangentMode: 0
      - time: 1.25
        value: 1.378
        inSlope: -0.009846151
        outSlope: -0.009846151
        tangentMode: 10
      - time: 2
        value: 1.33
        inSlope: 0
        outSlope: 0
        tangentMode: 0
      m_PreInfinity: 2
      m_PostInfinity: 2
      m_RotationOrder: 4
    attribute: m_LocalPosition.y
    path: body/head/eyeR
    classID: 4
    script: {fileID: 0}
  - curve:
      serializedVersion: 2
      m_Curve:
      - time: 0.16666667
        value: 0
        inSlope: 0
        outSlope: 0
        tangentMode: 0
      - time: 1.25
        value: 0
        inSlope: 0
        outSlope: 0
        tangentMode: 10
      - time: 2
        value: 0
        inSlope: 0
        outSlope: 0
        tangentMode: 0
      m_PreInfinity: 2
      m_PostInfinity: 2
      m_RotationOrder: 4
    attribute: m_LocalPosition.z
    path: body/head/eyeR
    classID: 4
    script: {fileID: 0}
  m_EulerEditorCurves:
  - curve:
      serializedVersion: 2
      m_Curve: []
      m_PreInfinity: 2
      m_PostInfinity: 2
      m_RotationOrder: 4
    attribute: m_LocalEulerAngles.x
    path: body/head
    classID: 4
    script: {fileID: 0}
  - curve:
      serializedVersion: 2
      m_Curve: []
      m_PreInfinity: 2
      m_PostInfinity: 2
      m_RotationOrder: 4
    attribute: m_LocalEulerAngles.y
    path: body/head
    classID: 4
    script: {fileID: 0}
  - curve:
      serializedVersion: 2
      m_Curve: []
      m_PreInfinity: 2
      m_PostInfinity: 2
      m_RotationOrder: 4
    attribute: m_LocalEulerAngles.z
    path: body/head
    classID: 4
    script: {fileID: 0}
  m_HasGenericRootTransform: 0
  m_HasMotionFloatCurves: 0
  m_GenerateMotionCurves: 0
  m_Events: []
