%YAML 1.1
%TAG !u! tag:unity3d.com,2011:
--- !u!74 &7400000
AnimationClip:
  m_ObjectHideFlags: 0
  m_PrefabParentObject: {fileID: 0}
  m_PrefabInternal: {fileID: 0}
  m_Name: mom appear
  serializedVersion: 6
  m_Legacy: 0
  m_Compressed: 0
  m_UseHighQualityCurve: 1
  m_RotationCurves: []
  m_CompressedRotationCurves: []
  m_PositionCurves:
  - curve:
      serializedVersion: 2
      m_Curve:
      - time: 0
        value: {x: -.910999775, y: 1.36000013, z: 0}
        inSlope: {x: -4.76837158e-07, y: -.504000187, z: 0}
        outSlope: {x: -4.76837158e-07, y: -.504000187, z: 0}
        tangentMode: 0
      - time: .5
        value: {x: -.911000013, y: 1.10800004, z: 0}
        inSlope: {x: -4.76837158e-07, y: -.504000187, z: 0}
        outSlope: {x: -4.76837158e-07, y: -.504000187, z: 0}
        tangentMode: 0
      m_PreInfinity: 2
      m_PostInfinity: 2
    path: body/head/eyeL
  - curve:
      serializedVersion: 2
      m_Curve:
      - time: 0
        value: {x: .226000309, y: .900000095, z: 0}
        inSlope: {x: -.184000611, y: -.352000237, z: 0}
        outSlope: {x: -.184000611, y: -.352000237, z: 0}
        tangentMode: 0
      - time: .5
        value: {x: .134000003, y: .723999977, z: 0}
        inSlope: {x: -.184000611, y: -.352000237, z: 0}
        outSlope: {x: -.184000611, y: -.352000237, z: 0}
        tangentMode: 0
      m_PreInfinity: 2
      m_PostInfinity: 2
    path: body/head/eyeR
  m_ScaleCurves:
  - curve:
      serializedVersion: 2
      m_Curve:
      - time: 0
        value: {x: 0, y: 0, z: 1}
        inSlope: {x: 5.39999962, y: 5.39999962, z: 0}
        outSlope: {x: 5.39999962, y: 5.39999962, z: 0}
        tangentMode: 0
      - time: .166666672
        value: {x: .899999976, y: .899999976, z: 1}
        inSlope: {x: 2.8499999, y: 2.8499999, z: 0}
        outSlope: {x: 2.8499999, y: 2.8499999, z: 0}
        tangentMode: 0
      - time: .5
        value: {x: 1, y: 1, z: 1}
        inSlope: {x: .150000051, y: .150000051, z: 0}
        outSlope: {x: .150000051, y: .150000051, z: 0}
        tangentMode: 0
      - time: 1
        value: {x: 1, y: 1, z: 1}
        inSlope: {x: 0, y: 0, z: 0}
        outSlope: {x: 0, y: 0, z: 0}
        tangentMode: 0
      m_PreInfinity: 2
      m_PostInfinity: 2
    path: body
  m_FloatCurves: []
  m_PPtrCurves: []
  m_SampleRate: 60
  m_WrapMode: 0
  m_Bounds:
    m_Center: {x: 0, y: 0, z: 0}
    m_Extent: {x: 0, y: 0, z: 0}
  m_ClipBindingConstant:
    genericBindings:
    - path: 928753512
      attribute: 1
      script: {fileID: 0}
      classID: 4
      customType: 0
      isPPtrCurve: 0
    - path: 3444873739
      attribute: 1
      script: {fileID: 0}
      classID: 4
      customType: 0
      isPPtrCurve: 0
    - path: 3685223346
      attribute: 3
      script: {fileID: 0}
      classID: 4
      customType: 0
      isPPtrCurve: 0
    pptrCurveMapping: []
  m_AnimationClipSettings:
    serializedVersion: 2
    m_StartTime: 0
    m_StopTime: 1
    m_OrientationOffsetY: 0
    m_Level: 0
    m_CycleOffset: 0
    m_LoopTime: 0
    m_LoopBlend: 0
    m_LoopBlendOrientation: 0
    m_LoopBlendPositionY: 0
    m_LoopBlendPositionXZ: 0
    m_KeepOriginalOrientation: 0
    m_KeepOriginalPositionY: 1
    m_KeepOriginalPositionXZ: 0
    m_HeightFromFeet: 0
    m_Mirror: 0
  m_EditorCurves:
  - curve:
      serializedVersion: 2
      m_Curve:
      - time: 0
        value: 0
        inSlope: 5.39999962
        outSlope: 5.39999962
        tangentMode: 10
      - time: .166666672
        value: .899999976
        inSlope: 2.8499999
        outSlope: 2.8499999
        tangentMode: 10
      - time: .5
        value: 1
        inSlope: .150000051
        outSlope: .150000051
        tangentMode: 10
      - time: 1
        value: 1
        inSlope: 0
        outSlope: 0
        tangentMode: 10
      m_PreInfinity: 2
      m_PostInfinity: 2
    attribute: m_LocalScale.x
    path: body
    classID: 4
    script: {fileID: 0}
  - curve:
      serializedVersion: 2
      m_Curve:
      - time: 0
        value: 0
        inSlope: 5.39999962
        outSlope: 5.39999962
        tangentMode: 10
      - time: .166666672
        value: .899999976
        inSlope: 2.8499999
        outSlope: 2.8499999
        tangentMode: 10
      - time: .5
        value: 1
        inSlope: .150000051
        outSlope: .150000051
        tangentMode: 10
      - time: 1
        value: 1
        inSlope: 0
        outSlope: 0
        tangentMode: 10
      m_PreInfinity: 2
      m_PostInfinity: 2
    attribute: m_LocalScale.y
    path: body
    classID: 4
    script: {fileID: 0}
  - curve:
      serializedVersion: 2
      m_Curve:
      - time: 0
        value: 1
        inSlope: 0
        outSlope: 0
        tangentMode: 10
      - time: .166666672
        value: 1
        inSlope: 0
        outSlope: 0
        tangentMode: 10
      - time: .5
        value: 1
        inSlope: 0
        outSlope: 0
        tangentMode: 10
      - time: 1
        value: 1
        inSlope: 0
        outSlope: 0
        tangentMode: 10
      m_PreInfinity: 2
      m_PostInfinity: 2
    attribute: m_LocalScale.z
    path: body
    classID: 4
    script: {fileID: 0}
  - curve:
      serializedVersion: 2
      m_Curve:
      - time: 0
        value: -.910999775
        inSlope: -4.76837158e-07
        outSlope: -4.76837158e-07
        tangentMode: 10
      - time: .5
        value: -.911000013
        inSlope: -4.76837158e-07
        outSlope: -4.76837158e-07
        tangentMode: 10
      m_PreInfinity: 2
      m_PostInfinity: 2
    attribute: m_LocalPosition.x
    path: body/head/eyeL
    classID: 4
    script: {fileID: 0}
  - curve:
      serializedVersion: 2
      m_Curve:
      - time: 0
        value: 1.36000013
        inSlope: -.504000187
        outSlope: -.504000187
        tangentMode: 10
      - time: .5
        value: 1.10800004
        inSlope: -.504000187
        outSlope: -.504000187
        tangentMode: 10
      m_PreInfinity: 2
      m_PostInfinity: 2
    attribute: m_LocalPosition.y
    path: body/head/eyeL
    classID: 4
    script: {fileID: 0}
  - curve:
      serializedVersion: 2
      m_Curve:
      - time: 0
        value: 0
        inSlope: 0
        outSlope: 0
        tangentMode: 10
      - time: .5
        value: 0
        inSlope: 0
        outSlope: 0
        tangentMode: 10
      m_PreInfinity: 2
      m_PostInfinity: 2
    attribute: m_LocalPosition.z
    path: body/head/eyeL
    classID: 4
    script: {fileID: 0}
  - curve:
      serializedVersion: 2
      m_Curve:
      - time: 0
        value: .226000309
        inSlope: -.184000611
        outSlope: -.184000611
        tangentMode: 10
      - time: .5
        value: .134000003
        inSlope: -.184000611
        outSlope: -.184000611
        tangentMode: 10
      m_PreInfinity: 2
      m_PostInfinity: 2
    attribute: m_LocalPosition.x
    path: body/head/eyeR
    classID: 4
    script: {fileID: 0}
  - curve:
      serializedVersion: 2
      m_Curve:
      - time: 0
        value: .900000095
        inSlope: -.352000237
        outSlope: -.352000237
        tangentMode: 10
      - time: .5
        value: .723999977
        inSlope: -.352000237
        outSlope: -.352000237
        tangentMode: 10
      m_PreInfinity: 2
      m_PostInfinity: 2
    attribute: m_LocalPosition.y
    path: body/head/eyeR
    classID: 4
    script: {fileID: 0}
  - curve:
      serializedVersion: 2
      m_Curve:
      - time: 0
        value: 0
        inSlope: 0
        outSlope: 0
        tangentMode: 10
      - time: .5
        value: 0
        inSlope: 0
        outSlope: 0
        tangentMode: 10
      m_PreInfinity: 2
      m_PostInfinity: 2
    attribute: m_LocalPosition.z
    path: body/head/eyeR
    classID: 4
    script: {fileID: 0}
  m_EulerEditorCurves: []
  m_HasGenericRootTransform: 0
  m_HasMotionFloatCurves: 0
  m_GenerateMotionCurves: 0
  m_Events: []
