%YAML 1.1
%TAG !u! tag:unity3d.com,2011:
--- !u!74 &7400000
AnimationClip:
  m_ObjectHideFlags: 0
  m_PrefabParentObject: {fileID: 0}
  m_PrefabInternal: {fileID: 0}
  m_Name: nay_old idle
  serializedVersion: 6
  m_Legacy: 0
  m_Compressed: 0
  m_UseHighQualityCurve: 1
  m_RotationCurves: []
  m_CompressedRotationCurves: []
  m_EulerCurves:
  - curve:
      serializedVersion: 2
      m_Curve:
      - time: 0
        value: {x: -0, y: 0, z: 0}
        inSlope: {x: 0, y: 0, z: 0}
        outSlope: {x: 0, y: 0, z: 0}
        tangentMode: 0
      - time: 1
        value: {x: -0, y: 0, z: 7.811991}
        inSlope: {x: 0, y: 0, z: 0}
        outSlope: {x: 0, y: 0, z: 0}
        tangentMode: 0
      - time: 2
        value: {x: -0, y: 0, z: 0}
        inSlope: {x: 0, y: 0, z: 0}
        outSlope: {x: 0, y: 0, z: 0}
        tangentMode: 0
      m_PreInfinity: 2
      m_PostInfinity: 2
      m_RotationOrder: 4
    path: body/head
  m_PositionCurves:
  - curve:
      serializedVersion: 2
      m_Curve:
      - time: 0
        value: {x: -0.17788896, y: 0.4757778, z: 0}
        inSlope: {x: -0.0006662607, y: -0.052666783, z: 0}
        outSlope: {x: -0.0006662607, y: -0.052666783, z: 0}
        tangentMode: 0
      - time: 0.16666667
        value: {x: -0.178, y: 0.467, z: 0}
        inSlope: {x: 0, y: 0, z: 0}
        outSlope: {x: 0, y: 0, z: 0}
        tangentMode: 0
      - time: 0.33333334
        value: {x: -0.17788896, y: 0.4757778, z: 0}
        inSlope: {x: -2.910383e-11, y: -0.0000000018626451, z: 0}
        outSlope: {x: -2.910383e-11, y: -0.0000000018626451, z: 0}
        tangentMode: 0
      - time: 0.5
        value: {x: -0.178, y: 0.467, z: 0}
        inSlope: {x: -5.820766e-11, y: -0.0000000055879354, z: 0}
        outSlope: {x: -5.820766e-11, y: -0.0000000055879354, z: 0}
        tangentMode: 0
      - time: 0.6666667
        value: {x: -0.17788896, y: 0.4757778, z: 0}
        inSlope: {x: 0, y: 0, z: 0}
        outSlope: {x: 0, y: 0, z: 0}
        tangentMode: 0
      - time: 0.8333334
        value: {x: -0.178, y: 0.467, z: 0}
        inSlope: {x: 1.1641532e-10, y: 0.000000009313226, z: 0}
        outSlope: {x: 1.1641532e-10, y: 0.000000009313226, z: 0}
        tangentMode: 0
      - time: 1
        value: {x: -0.17788896, y: 0.4757778, z: 0}
        inSlope: {x: 0.0006662609, y: 0.052666795, z: 0}
        outSlope: {x: 0.0006662609, y: 0.052666795, z: 0}
        tangentMode: 0
      m_PreInfinity: 2
      m_PostInfinity: 2
      m_RotationOrder: 4
    path: body/head/mouth
  - curve:
      serializedVersion: 2
      m_Curve:
      - time: 0
        value: {x: -0.8168888, y: 1.6137779, z: 0}
        inSlope: {x: 0, y: 0, z: 0}
        outSlope: {x: 0, y: 0, z: 0}
        tangentMode: 0
      - time: 1.1666666
        value: {x: -0.817, y: 1.683, z: 0}
        inSlope: {x: 0.000019056453, y: -0.011866642, z: 0}
        outSlope: {x: 0.000019056453, y: -0.011866642, z: 0}
        tangentMode: 0
      - time: 2
        value: {x: -0.8168888, y: 1.6137779, z: 0}
        inSlope: {x: 0, y: 0, z: 0}
        outSlope: {x: 0, y: 0, z: 0}
        tangentMode: 0
      m_PreInfinity: 2
      m_PostInfinity: 2
      m_RotationOrder: 4
    path: body/head/eyeL
  - curve:
      serializedVersion: 2
      m_Curve:
      - time: 0
        value: {x: 0.47911096, y: 1.5227777, z: 0}
        inSlope: {x: 0, y: 0, z: 0}
        outSlope: {x: 0, y: 0, z: 0}
        tangentMode: 0
      - time: 1.1666666
        value: {x: 0.479, y: 1.592, z: 0}
        inSlope: {x: 0.000019020685, y: -0.011866681, z: 0}
        outSlope: {x: 0.000019020685, y: -0.011866681, z: 0}
        tangentMode: 0
      - time: 2
        value: {x: 0.47911096, y: 1.5227777, z: 0}
        inSlope: {x: 0, y: 0, z: 0}
        outSlope: {x: 0, y: 0, z: 0}
        tangentMode: 0
      m_PreInfinity: 2
      m_PostInfinity: 2
      m_RotationOrder: 4
    path: body/head/eyeR
  m_ScaleCurves:
  - curve:
      serializedVersion: 2
      m_Curve:
      - time: 0
        value: {x: 1, y: 1, z: 1}
        inSlope: {x: 0.502563, y: -0.46372175, z: 0}
        outSlope: {x: 0.502563, y: -0.46372175, z: 0}
        tangentMode: 0
      - time: 0.16666667
        value: {x: 1.0837605, y: 0.92271304, z: 1}
        inSlope: {x: 0, y: 0, z: 0}
        outSlope: {x: 0, y: 0, z: 0}
        tangentMode: 0
      - time: 0.33333334
        value: {x: 1, y: 1, z: 1}
        inSlope: {x: 0.000000029802322, y: -0.000000014901161, z: 0}
        outSlope: {x: 0.000000029802322, y: -0.000000014901161, z: 0}
        tangentMode: 0
      - time: 0.5
        value: {x: 1.0837605, y: 0.92271304, z: 1}
        inSlope: {x: 0.000000059604645, y: -0.000000044703484, z: 0}
        outSlope: {x: 0.000000059604645, y: -0.000000044703484, z: 0}
        tangentMode: 0
      - time: 0.6666667
        value: {x: 1, y: 1, z: 1}
        inSlope: {x: 0, y: 0, z: 0}
        outSlope: {x: 0, y: 0, z: 0}
        tangentMode: 0
      - time: 0.8333334
        value: {x: 1.0837605, y: 0.92271304, z: 1}
        inSlope: {x: -0.00000008940697, y: 0.00000008940697, z: 0}
        outSlope: {x: -0.00000008940697, y: 0.00000008940697, z: 0}
        tangentMode: 0
      - time: 1
        value: {x: 1, y: 1, z: 1}
        inSlope: {x: -0.5025631, y: 0.46372187, z: 0}
        outSlope: {x: -0.5025631, y: 0.46372187, z: 0}
        tangentMode: 0
      m_PreInfinity: 2
      m_PostInfinity: 2
      m_RotationOrder: 4
    path: body/head/mouth
  m_FloatCurves: []
  m_PPtrCurves: []
  m_SampleRate: 60
  m_WrapMode: 0
  m_Bounds:
    m_Center: {x: 0, y: 0, z: 0}
    m_Extent: {x: 0, y: 0, z: 0}
  m_ClipBindingConstant:
    genericBindings:
    - path: 2626611235
      attribute: 1
      script: {fileID: 0}
      classID: 4
      customType: 0
      isPPtrCurve: 0
    - path: 928753512
      attribute: 1
      script: {fileID: 0}
      classID: 4
      customType: 0
      isPPtrCurve: 0
    - path: 3444873739
      attribute: 1
      script: {fileID: 0}
      classID: 4
      customType: 0
      isPPtrCurve: 0
    - path: 195406385
      attribute: 4
      script: {fileID: 0}
      classID: 4
      customType: 14
      isPPtrCurve: 0
    - path: 2626611235
      attribute: 3
      script: {fileID: 0}
      classID: 4
      customType: 0
      isPPtrCurve: 0
    pptrCurveMapping: []
  m_AnimationClipSettings:
    serializedVersion: 2
    m_AdditiveReferencePoseClip: {fileID: 0}
    m_AdditiveReferencePoseTime: 0
    m_StartTime: 0
    m_StopTime: 2
    m_OrientationOffsetY: 0
    m_Level: 0
    m_CycleOffset: 0
    m_HasAdditiveReferencePose: 0
    m_LoopTime: 1
    m_LoopBlend: 0
    m_LoopBlendOrientation: 0
    m_LoopBlendPositionY: 0
    m_LoopBlendPositionXZ: 0
    m_KeepOriginalOrientation: 0
    m_KeepOriginalPositionY: 1
    m_KeepOriginalPositionXZ: 0
    m_HeightFromFeet: 0
    m_Mirror: 0
  m_EditorCurves:
  - curve:
      serializedVersion: 2
      m_Curve:
      - time: 0
        value: -0
        inSlope: 0
        outSlope: 0
        tangentMode: 0
      - time: 1
        value: -0
        inSlope: 0
        outSlope: 0
        tangentMode: 0
      - time: 2
        value: -0
        inSlope: 0
        outSlope: 0
        tangentMode: 0
      m_PreInfinity: 2
      m_PostInfinity: 2
      m_RotationOrder: 4
    attribute: localEulerAnglesRaw.x
    path: body/head
    classID: 4
    script: {fileID: 0}
  - curve:
      serializedVersion: 2
      m_Curve:
      - time: 0
        value: 0
        inSlope: 0
        outSlope: 0
        tangentMode: 0
      - time: 1
        value: 0
        inSlope: 0
        outSlope: 0
        tangentMode: 0
      - time: 2
        value: 0
        inSlope: 0
        outSlope: 0
        tangentMode: 0
      m_PreInfinity: 2
      m_PostInfinity: 2
      m_RotationOrder: 4
    attribute: localEulerAnglesRaw.y
    path: body/head
    classID: 4
    script: {fileID: 0}
  - curve:
      serializedVersion: 2
      m_Curve:
      - time: 0
        value: 0
        inSlope: 0
        outSlope: 0
        tangentMode: 0
      - time: 1
        value: 7.811991
        inSlope: 0
        outSlope: 0
        tangentMode: 0
      - time: 2
        value: 0
        inSlope: 0
        outSlope: 0
        tangentMode: 0
      m_PreInfinity: 2
      m_PostInfinity: 2
      m_RotationOrder: 4
    attribute: localEulerAnglesRaw.z
    path: body/head
    classID: 4
    script: {fileID: 0}
  - curve:
      serializedVersion: 2
      m_Curve:
      - time: 0
        value: -0.17788896
        inSlope: -0.0006662607
        outSlope: -0.0006662607
        tangentMode: 10
      - time: 0.16666667
        value: -0.178
        inSlope: 0
        outSlope: 0
        tangentMode: 10
      - time: 0.33333334
        value: -0.17788896
        inSlope: -2.910383e-11
        outSlope: -2.910383e-11
        tangentMode: 10
      - time: 0.5
        value: -0.178
        inSlope: -5.820766e-11
        outSlope: -5.820766e-11
        tangentMode: 10
      - time: 0.6666667
        value: -0.17788896
        inSlope: 0
        outSlope: 0
        tangentMode: 10
      - time: 0.8333334
        value: -0.178
        inSlope: 1.1641532e-10
        outSlope: 1.1641532e-10
        tangentMode: 10
      - time: 1
        value: -0.17788896
        inSlope: 0.0006662609
        outSlope: 0.0006662609
        tangentMode: 10
      m_PreInfinity: 2
      m_PostInfinity: 2
      m_RotationOrder: 4
    attribute: m_LocalPosition.x
    path: body/head/mouth
    classID: 4
    script: {fileID: 0}
  - curve:
      serializedVersion: 2
      m_Curve:
      - time: 0
        value: 0.4757778
        inSlope: -0.052666783
        outSlope: -0.052666783
        tangentMode: 10
      - time: 0.16666667
        value: 0.467
        inSlope: 0
        outSlope: 0
        tangentMode: 10
      - time: 0.33333334
        value: 0.4757778
        inSlope: -0.0000000018626451
        outSlope: -0.0000000018626451
        tangentMode: 10
      - time: 0.5
        value: 0.467
        inSlope: -0.0000000055879354
        outSlope: -0.0000000055879354
        tangentMode: 10
      - time: 0.6666667
        value: 0.4757778
        inSlope: 0
        outSlope: 0
        tangentMode: 10
      - time: 0.8333334
        value: 0.467
        inSlope: 0.000000009313226
        outSlope: 0.000000009313226
        tangentMode: 10
      - time: 1
        value: 0.4757778
        inSlope: 0.052666795
        outSlope: 0.052666795
        tangentMode: 10
      m_PreInfinity: 2
      m_PostInfinity: 2
      m_RotationOrder: 4
    attribute: m_LocalPosition.y
    path: body/head/mouth
    classID: 4
    script: {fileID: 0}
  - curve:
      serializedVersion: 2
      m_Curve:
      - time: 0
        value: 0
        inSlope: 0
        outSlope: 0
        tangentMode: 10
      - time: 0.16666667
        value: 0
        inSlope: 0
        outSlope: 0
        tangentMode: 10
      - time: 0.33333334
        value: 0
        inSlope: 0
        outSlope: 0
        tangentMode: 10
      - time: 0.5
        value: 0
        inSlope: 0
        outSlope: 0
        tangentMode: 10
      - time: 0.6666667
        value: 0
        inSlope: 0
        outSlope: 0
        tangentMode: 10
      - time: 0.8333334
        value: 0
        inSlope: 0
        outSlope: 0
        tangentMode: 10
      - time: 1
        value: 0
        inSlope: 0
        outSlope: 0
        tangentMode: 10
      m_PreInfinity: 2
      m_PostInfinity: 2
      m_RotationOrder: 4
    attribute: m_LocalPosition.z
    path: body/head/mouth
    classID: 4
    script: {fileID: 0}
  - curve:
      serializedVersion: 2
      m_Curve:
      - time: 0
        value: 1
        inSlope: 0.502563
        outSlope: 0.502563
        tangentMode: 10
      - time: 0.16666667
        value: 1.0837605
        inSlope: 0
        outSlope: 0
        tangentMode: 10
      - time: 0.33333334
        value: 1
        inSlope: 0.000000029802322
        outSlope: 0.000000029802322
        tangentMode: 10
      - time: 0.5
        value: 1.0837605
        inSlope: 0.000000059604645
        outSlope: 0.000000059604645
        tangentMode: 10
      - time: 0.6666667
        value: 1
        inSlope: 0
        outSlope: 0
        tangentMode: 10
      - time: 0.8333334
        value: 1.0837605
        inSlope: -0.00000008940697
        outSlope: -0.00000008940697
        tangentMode: 10
      - time: 1
        value: 1
        inSlope: -0.5025631
        outSlope: -0.5025631
        tangentMode: 10
      m_PreInfinity: 2
      m_PostInfinity: 2
      m_RotationOrder: 4
    attribute: m_LocalScale.x
    path: body/head/mouth
    classID: 4
    script: {fileID: 0}
  - curve:
      serializedVersion: 2
      m_Curve:
      - time: 0
        value: 1
        inSlope: -0.46372175
        outSlope: -0.46372175
        tangentMode: 10
      - time: 0.16666667
        value: 0.92271304
        inSlope: 0
        outSlope: 0
        tangentMode: 10
      - time: 0.33333334
        value: 1
        inSlope: -0.000000014901161
        outSlope: -0.000000014901161
        tangentMode: 10
      - time: 0.5
        value: 0.92271304
        inSlope: -0.000000044703484
        outSlope: -0.000000044703484
        tangentMode: 10
      - time: 0.6666667
        value: 1
        inSlope: 0
        outSlope: 0
        tangentMode: 10
      - time: 0.8333334
        value: 0.92271304
        inSlope: 0.00000008940697
        outSlope: 0.00000008940697
        tangentMode: 10
      - time: 1
        value: 1
        inSlope: 0.46372187
        outSlope: 0.46372187
        tangentMode: 10
      m_PreInfinity: 2
      m_PostInfinity: 2
      m_RotationOrder: 4
    attribute: m_LocalScale.y
    path: body/head/mouth
    classID: 4
    script: {fileID: 0}
  - curve:
      serializedVersion: 2
      m_Curve:
      - time: 0
        value: 1
        inSlope: 0
        outSlope: 0
        tangentMode: 10
      - time: 0.16666667
        value: 1
        inSlope: 0
        outSlope: 0
        tangentMode: 10
      - time: 0.33333334
        value: 1
        inSlope: 0
        outSlope: 0
        tangentMode: 10
      - time: 0.5
        value: 1
        inSlope: 0
        outSlope: 0
        tangentMode: 10
      - time: 0.6666667
        value: 1
        inSlope: 0
        outSlope: 0
        tangentMode: 10
      - time: 0.8333334
        value: 1
        inSlope: 0
        outSlope: 0
        tangentMode: 10
      - time: 1
        value: 1
        inSlope: 0
        outSlope: 0
        tangentMode: 10
      m_PreInfinity: 2
      m_PostInfinity: 2
      m_RotationOrder: 4
    attribute: m_LocalScale.z
    path: body/head/mouth
    classID: 4
    script: {fileID: 0}
  - curve:
      serializedVersion: 2
      m_Curve:
      - time: 0
        value: -0.8168888
        inSlope: 0
        outSlope: 0
        tangentMode: 0
      - time: 1.1666666
        value: -0.817
        inSlope: 0.000019056453
        outSlope: 0.000019056453
        tangentMode: 10
      - time: 2
        value: -0.8168888
        inSlope: 0
        outSlope: 0
        tangentMode: 0
      m_PreInfinity: 2
      m_PostInfinity: 2
      m_RotationOrder: 4
    attribute: m_LocalPosition.x
    path: body/head/eyeL
    classID: 4
    script: {fileID: 0}
  - curve:
      serializedVersion: 2
      m_Curve:
      - time: 0
        value: 1.6137779
        inSlope: 0
        outSlope: 0
        tangentMode: 0
      - time: 1.1666666
        value: 1.683
        inSlope: -0.011866642
        outSlope: -0.011866642
        tangentMode: 10
      - time: 2
        value: 1.6137779
        inSlope: 0
        outSlope: 0
        tangentMode: 0
      m_PreInfinity: 2
      m_PostInfinity: 2
      m_RotationOrder: 4
    attribute: m_LocalPosition.y
    path: body/head/eyeL
    classID: 4
    script: {fileID: 0}
  - curve:
      serializedVersion: 2
      m_Curve:
      - time: 0
        value: 0
        inSlope: 0
        outSlope: 0
        tangentMode: 0
      - time: 1.1666666
        value: 0
        inSlope: 0
        outSlope: 0
        tangentMode: 10
      - time: 2
        value: 0
        inSlope: 0
        outSlope: 0
        tangentMode: 0
      m_PreInfinity: 2
      m_PostInfinity: 2
      m_RotationOrder: 4
    attribute: m_LocalPosition.z
    path: body/head/eyeL
    classID: 4
    script: {fileID: 0}
  - curve:
      serializedVersion: 2
      m_Curve:
      - time: 0
        value: 0.47911096
        inSlope: 0
        outSlope: 0
        tangentMode: 0
      - time: 1.1666666
        value: 0.479
        inSlope: 0.000019020685
        outSlope: 0.000019020685
        tangentMode: 10
      - time: 2
        value: 0.47911096
        inSlope: 0
        outSlope: 0
        tangentMode: 0
      m_PreInfinity: 2
      m_PostInfinity: 2
      m_RotationOrder: 4
    attribute: m_LocalPosition.x
    path: body/head/eyeR
    classID: 4
    script: {fileID: 0}
  - curve:
      serializedVersion: 2
      m_Curve:
      - time: 0
        value: 1.5227777
        inSlope: 0
        outSlope: 0
        tangentMode: 0
      - time: 1.1666666
        value: 1.592
        inSlope: -0.011866681
        outSlope: -0.011866681
        tangentMode: 10
      - time: 2
        value: 1.5227777
        inSlope: 0
        outSlope: 0
        tangentMode: 0
      m_PreInfinity: 2
      m_PostInfinity: 2
      m_RotationOrder: 4
    attribute: m_LocalPosition.y
    path: body/head/eyeR
    classID: 4
    script: {fileID: 0}
  - curve:
      serializedVersion: 2
      m_Curve:
      - time: 0
        value: 0
        inSlope: 0
        outSlope: 0
        tangentMode: 0
      - time: 1.1666666
        value: 0
        inSlope: 0
        outSlope: 0
        tangentMode: 10
      - time: 2
        value: 0
        inSlope: 0
        outSlope: 0
        tangentMode: 0
      m_PreInfinity: 2
      m_PostInfinity: 2
      m_RotationOrder: 4
    attribute: m_LocalPosition.z
    path: body/head/eyeR
    classID: 4
    script: {fileID: 0}
  m_EulerEditorCurves:
  - curve:
      serializedVersion: 2
      m_Curve: []
      m_PreInfinity: 2
      m_PostInfinity: 2
      m_RotationOrder: 4
    attribute: m_LocalEulerAngles.x
    path: body/head
    classID: 4
    script: {fileID: 0}
  - curve:
      serializedVersion: 2
      m_Curve: []
      m_PreInfinity: 2
      m_PostInfinity: 2
      m_RotationOrder: 4
    attribute: m_LocalEulerAngles.y
    path: body/head
    classID: 4
    script: {fileID: 0}
  - curve:
      serializedVersion: 2
      m_Curve: []
      m_PreInfinity: 2
      m_PostInfinity: 2
      m_RotationOrder: 4
    attribute: m_LocalEulerAngles.z
    path: body/head
    classID: 4
    script: {fileID: 0}
  m_HasGenericRootTransform: 0
  m_HasMotionFloatCurves: 0
  m_GenerateMotionCurves: 0
  m_Events: []
