%YAML 1.1
%TAG !u! tag:unity3d.com,2011:
--- !u!74 &7400000
AnimationClip:
  m_ObjectHideFlags: 0
  m_PrefabParentObject: {fileID: 0}
  m_PrefabInternal: {fileID: 0}
  m_Name: adarna
  serializedVersion: 6
  m_Legacy: 0
  m_Compressed: 0
  m_UseHighQualityCurve: 1
  m_RotationCurves: []
  m_CompressedRotationCurves: []
  m_PositionCurves:
  - curve:
      serializedVersion: 2
      m_Curve:
      - time: .000166666665
        value: {x: .779999971, y: 12.8999996, z: 0}
        inSlope: {x: 0, y: -4.06366539, z: 0}
        outSlope: {x: 0, y: -4.06366539, z: 0}
        tangentMode: 0
      - time: 4
        value: {x: .779999971, y: 1.50999999, z: 0}
        inSlope: {x: 0, y: -1.73801839, z: 0}
        outSlope: {x: 0, y: -1.73801839, z: 0}
        tangentMode: 0
      - time: 6
        value: {x: .782279968, y: .0222001765, z: 0}
        inSlope: {x: 0, y: 0, z: 0}
        outSlope: {x: 0, y: 0, z: 0}
        tangentMode: 0
      m_PreInfinity: 2
      m_PostInfinity: 2
    path: 
  - curve:
      serializedVersion: 2
      m_Curve:
      - time: 6.16666651
        value: {x: -3.16983318, y: 1.94138741, z: 0}
        inSlope: {x: 0, y: 0, z: 0}
        outSlope: {x: 0, y: 0, z: 0}
        tangentMode: 0
      - time: 8
        value: {x: -7.11000013, y: 14.6499996, z: 0}
        inSlope: {x: -2.14918184, y: 6.93196964, z: 0}
        outSlope: {x: -2.14918184, y: 6.93196964, z: 0}
        tangentMode: 0
      m_PreInfinity: 2
      m_PostInfinity: 2
    path: birdy13
  - curve:
      serializedVersion: 2
      m_Curve:
      - time: 6.16666651
        value: {x: 3.34405565, y: 2.83027649, z: 0}
        inSlope: {x: 0, y: 0, z: 0}
        outSlope: {x: 0, y: 0, z: 0}
        tangentMode: 0
      - time: 8
        value: {x: 8.44999981, y: 15.5299997, z: 0}
        inSlope: {x: 2.78506017, y: 6.92712116, z: 0}
        outSlope: {x: 2.78506017, y: 6.92712116, z: 0}
        tangentMode: 0
      m_PreInfinity: 2
      m_PostInfinity: 2
    path: birdy14
  m_ScaleCurves: []
  m_FloatCurves: []
  m_PPtrCurves: []
  m_SampleRate: 60
  m_WrapMode: 0
  m_Bounds:
    m_Center: {x: 0, y: 0, z: 0}
    m_Extent: {x: 0, y: 0, z: 0}
  m_ClipBindingConstant:
    genericBindings:
    - path: 0
      attribute: 1
      script: {fileID: 0}
      classID: 4
      customType: 0
      isPPtrCurve: 0
    - path: 3141876384
      attribute: 1
      script: {fileID: 0}
      classID: 4
      customType: 0
      isPPtrCurve: 0
    - path: 622964483
      attribute: 1
      script: {fileID: 0}
      classID: 4
      customType: 0
      isPPtrCurve: 0
    pptrCurveMapping: []
  m_AnimationClipSettings:
    serializedVersion: 2
    m_StartTime: 0
    m_StopTime: 8
    m_OrientationOffsetY: 0
    m_Level: 0
    m_CycleOffset: 0
    m_LoopTime: 0
    m_LoopBlend: 0
    m_LoopBlendOrientation: 0
    m_LoopBlendPositionY: 0
    m_LoopBlendPositionXZ: 0
    m_KeepOriginalOrientation: 0
    m_KeepOriginalPositionY: 1
    m_KeepOriginalPositionXZ: 0
    m_HeightFromFeet: 0
    m_Mirror: 0
  m_EditorCurves:
  - curve:
      serializedVersion: 2
      m_Curve:
      - time: .000166666665
        value: .779999971
        inSlope: 0
        outSlope: 0
        tangentMode: 10
      - time: 4
        value: .779999971
        inSlope: 0
        outSlope: 0
        tangentMode: 0
      - time: 6
        value: .782279968
        inSlope: 0
        outSlope: 0
        tangentMode: 0
      m_PreInfinity: 2
      m_PostInfinity: 2
    attribute: m_LocalPosition.x
    path: 
    classID: 4
    script: {fileID: 0}
  - curve:
      serializedVersion: 2
      m_Curve:
      - time: .000166666665
        value: 12.8999996
        inSlope: -4.06366539
        outSlope: -4.06366539
        tangentMode: 0
      - time: 4
        value: 1.50999999
        inSlope: -1.73801839
        outSlope: -1.73801839
        tangentMode: 0
      - time: 6
        value: .0222001765
        inSlope: 0
        outSlope: 0
        tangentMode: 0
      m_PreInfinity: 2
      m_PostInfinity: 2
    attribute: m_LocalPosition.y
    path: 
    classID: 4
    script: {fileID: 0}
  - curve:
      serializedVersion: 2
      m_Curve:
      - time: .000166666665
        value: 0
        inSlope: 0
        outSlope: 0
        tangentMode: 10
      - time: 4
        value: 0
        inSlope: 0
        outSlope: 0
        tangentMode: 0
      - time: 6
        value: 0
        inSlope: 0
        outSlope: 0
        tangentMode: 0
      m_PreInfinity: 2
      m_PostInfinity: 2
    attribute: m_LocalPosition.z
    path: 
    classID: 4
    script: {fileID: 0}
  - curve:
      serializedVersion: 2
      m_Curve:
      - time: 6.16666651
        value: -3.16983318
        inSlope: 0
        outSlope: 0
        tangentMode: 0
      - time: 8
        value: -7.11000013
        inSlope: -2.14918184
        outSlope: -2.14918184
        tangentMode: 10
      m_PreInfinity: 2
      m_PostInfinity: 2
    attribute: m_LocalPosition.x
    path: birdy13
    classID: 4
    script: {fileID: 0}
  - curve:
      serializedVersion: 2
      m_Curve:
      - time: 6.16666651
        value: 1.94138741
        inSlope: 0
        outSlope: 0
        tangentMode: 0
      - time: 8
        value: 14.6499996
        inSlope: 6.93196964
        outSlope: 6.93196964
        tangentMode: 10
      m_PreInfinity: 2
      m_PostInfinity: 2
    attribute: m_LocalPosition.y
    path: birdy13
    classID: 4
    script: {fileID: 0}
  - curve:
      serializedVersion: 2
      m_Curve:
      - time: 6.16666651
        value: 0
        inSlope: 0
        outSlope: 0
        tangentMode: 0
      - time: 8
        value: 0
        inSlope: 0
        outSlope: 0
        tangentMode: 10
      m_PreInfinity: 2
      m_PostInfinity: 2
    attribute: m_LocalPosition.z
    path: birdy13
    classID: 4
    script: {fileID: 0}
  - curve:
      serializedVersion: 2
      m_Curve:
      - time: 6.16666651
        value: 3.34405565
        inSlope: 0
        outSlope: 0
        tangentMode: 0
      - time: 8
        value: 8.44999981
        inSlope: 2.78506017
        outSlope: 2.78506017
        tangentMode: 10
      m_PreInfinity: 2
      m_PostInfinity: 2
    attribute: m_LocalPosition.x
    path: birdy14
    classID: 4
    script: {fileID: 0}
  - curve:
      serializedVersion: 2
      m_Curve:
      - time: 6.16666651
        value: 2.83027649
        inSlope: 0
        outSlope: 0
        tangentMode: 0
      - time: 8
        value: 15.5299997
        inSlope: 6.92712116
        outSlope: 6.92712116
        tangentMode: 10
      m_PreInfinity: 2
      m_PostInfinity: 2
    attribute: m_LocalPosition.y
    path: birdy14
    classID: 4
    script: {fileID: 0}
  - curve:
      serializedVersion: 2
      m_Curve:
      - time: 6.16666651
        value: 0
        inSlope: 0
        outSlope: 0
        tangentMode: 0
      - time: 8
        value: 0
        inSlope: 0
        outSlope: 0
        tangentMode: 10
      m_PreInfinity: 2
      m_PostInfinity: 2
    attribute: m_LocalPosition.z
    path: birdy14
    classID: 4
    script: {fileID: 0}
  m_EulerEditorCurves: []
  m_HasGenericRootTransform: 1
  m_HasMotionFloatCurves: 0
  m_GenerateMotionCurves: 0
  m_Events: []
