%YAML 1.1
%TAG !u! tag:unity3d.com,2011:
--- !u!74 &7400000
AnimationClip:
  m_ObjectHideFlags: 0
  m_PrefabParentObject: {fileID: 0}
  m_PrefabInternal: {fileID: 0}
  m_Name: cloud4 move
  serializedVersion: 6
  m_Legacy: 0
  m_Compressed: 0
  m_UseHighQualityCurve: 1
  m_RotationCurves: []
  m_CompressedRotationCurves: []
  m_PositionCurves:
  - curve:
      serializedVersion: 2
      m_Curve:
      - time: 0
        value: {x: 0, y: 0, z: 0}
        inSlope: {x: 75.7655182, y: 0, z: 0}
        outSlope: {x: 47.7652168, y: -0, z: -0}
        tangentMode: 0
      - time: .766666651
        value: {x: 36.6199989, y: 0, z: 0}
        inSlope: {x: 47.7652168, y: 0, z: 0}
        outSlope: {x: Infinity, y: Infinity, z: Infinity}
        tangentMode: 0
      - time: .783333361
        value: {x: -12.6999998, y: 0, z: 0}
        inSlope: {x: -1466.8988, y: 0, z: 0}
        outSlope: {x: 58.6153908, y: -0, z: -0}
        tangentMode: 0
      - time: 1
        value: {x: 0, y: 0, z: 0}
        inSlope: {x: 58.6153908, y: 0, z: 0}
        outSlope: {x: 75.7655182, y: -0, z: -0}
        tangentMode: 0
      m_PreInfinity: 2
      m_PostInfinity: 2
    path: cloud4
  m_ScaleCurves: []
  m_FloatCurves: []
  m_PPtrCurves: []
  m_SampleRate: 60
  m_WrapMode: 0
  m_Bounds:
    m_Center: {x: 0, y: 0, z: 0}
    m_Extent: {x: 0, y: 0, z: 0}
  m_ClipBindingConstant:
    genericBindings:
    - path: 1916424675
      attribute: 1
      script: {fileID: 0}
      classID: 4
      customType: 0
      isPPtrCurve: 0
    pptrCurveMapping: []
  m_AnimationClipSettings:
    serializedVersion: 2
    m_StartTime: 0
    m_StopTime: 1
    m_OrientationOffsetY: 0
    m_Level: 0
    m_CycleOffset: 0
    m_LoopTime: 1
    m_LoopBlend: 0
    m_LoopBlendOrientation: 0
    m_LoopBlendPositionY: 0
    m_LoopBlendPositionXZ: 0
    m_KeepOriginalOrientation: 0
    m_KeepOriginalPositionY: 1
    m_KeepOriginalPositionXZ: 0
    m_HeightFromFeet: 0
    m_Mirror: 0
  m_EditorCurves:
  - curve:
      serializedVersion: 2
      m_Curve:
      - time: 0
        value: 0
        inSlope: 75.7655182
        outSlope: 47.7652168
        tangentMode: 17
      - time: .766666651
        value: 36.6199989
        inSlope: 47.7652168
        outSlope: Infinity
        tangentMode: 29
      - time: .783333361
        value: -12.6999998
        inSlope: -1466.8988
        outSlope: 58.6153908
        tangentMode: 17
      - time: 1
        value: 0
        inSlope: 58.6153908
        outSlope: 75.7655182
        tangentMode: 21
      m_PreInfinity: 2
      m_PostInfinity: 2
    attribute: m_LocalPosition.x
    path: cloud4
    classID: 4
    script: {fileID: 0}
  - curve:
      serializedVersion: 2
      m_Curve:
      - time: 0
        value: 0
        inSlope: 0
        outSlope: -0
        tangentMode: 17
      - time: .766666651
        value: 0
        inSlope: 0
        outSlope: Infinity
        tangentMode: 29
      - time: .783333361
        value: 0
        inSlope: 0
        outSlope: -0
        tangentMode: 17
      - time: 1
        value: 0
        inSlope: 0
        outSlope: -0
        tangentMode: 21
      m_PreInfinity: 2
      m_PostInfinity: 2
    attribute: m_LocalPosition.y
    path: cloud4
    classID: 4
    script: {fileID: 0}
  - curve:
      serializedVersion: 2
      m_Curve:
      - time: 0
        value: 0
        inSlope: 0
        outSlope: -0
        tangentMode: 17
      - time: .766666651
        value: 0
        inSlope: 0
        outSlope: Infinity
        tangentMode: 29
      - time: .783333361
        value: 0
        inSlope: 0
        outSlope: -0
        tangentMode: 17
      - time: 1
        value: 0
        inSlope: 0
        outSlope: -0
        tangentMode: 21
      m_PreInfinity: 2
      m_PostInfinity: 2
    attribute: m_LocalPosition.z
    path: cloud4
    classID: 4
    script: {fileID: 0}
  m_EulerEditorCurves: []
  m_HasGenericRootTransform: 0
  m_HasMotionFloatCurves: 0
  m_GenerateMotionCurves: 0
  m_Events: []
