%YAML 1.1
%TAG !u! tag:unity3d.com,2011:
--- !u!74 &7400000
AnimationClip:
  m_ObjectHideFlags: 0
  m_PrefabParentObject: {fileID: 0}
  m_PrefabInternal: {fileID: 0}
  m_Name: xr
  serializedVersion: 6
  m_Legacy: 0
  m_Compressed: 0
  m_UseHighQualityCurve: 1
  m_RotationCurves: []
  m_CompressedRotationCurves: []
  m_PositionCurves:
  - curve:
      serializedVersion: 2
      m_Curve:
      - time: 0
        value: {x: 21.3899994, y: 4.44999981, z: 0}
        inSlope: {x: 0, y: 0, z: 0}
        outSlope: {x: 0, y: 0, z: 0}
        tangentMode: 0
      - time: 1
        value: {x: 16.1123219, y: 4.44999981, z: 0}
        inSlope: {x: -9.25609779, y: 0, z: 0}
        outSlope: {x: -9.25609779, y: 0, z: 0}
        tangentMode: 0
      - time: 2.5
        value: {x: .585031271, y: 3.17491579, z: 0}
        inSlope: {x: -8.52363396, y: .497358471, z: 0}
        outSlope: {x: -8.52363396, y: .497358471, z: 0}
        tangentMode: 0
      - time: 3
        value: {x: -2.72250962, y: 3.04948807, z: 0}
        inSlope: {x: -4.38171673, y: -1.1188463, z: 0}
        outSlope: {x: -4.38171673, y: -1.1188463, z: 0}
        tangentMode: 0
      - time: 4
        value: {x: -4.61899996, y: -.524000168, z: 0}
        inSlope: {x: 0, y: -6.50723648, z: 0}
        outSlope: {x: 0, y: -6.50723648, z: 0}
        tangentMode: 0
      m_PreInfinity: 2
      m_PostInfinity: 2
    path: 
  - curve:
      serializedVersion: 2
      m_Curve:
      - time: 4.16666651
        value: {x: -.0549998283, y: 1.19300008, z: 0}
        inSlope: {x: 1.78759468, y: 5.82054234, z: 0}
        outSlope: {x: 1.78759468, y: 5.82054234, z: 0}
        tangentMode: 0
      - time: 6
        value: {x: -17.9099998, y: 6.86999989, z: 0}
        inSlope: {x: -9.73908997, y: 3.09654522, z: 0}
        outSlope: {x: -9.73908997, y: 3.09654522, z: 0}
        tangentMode: 0
      m_PreInfinity: 2
      m_PostInfinity: 2
    path: birdy5
  m_ScaleCurves: []
  m_FloatCurves: []
  m_PPtrCurves: []
  m_SampleRate: 60
  m_WrapMode: 0
  m_Bounds:
    m_Center: {x: 0, y: 0, z: 0}
    m_Extent: {x: 0, y: 0, z: 0}
  m_ClipBindingConstant:
    genericBindings:
    - path: 0
      attribute: 1
      script: {fileID: 0}
      classID: 4
      customType: 0
      isPPtrCurve: 0
    - path: 1182406585
      attribute: 1
      script: {fileID: 0}
      classID: 4
      customType: 0
      isPPtrCurve: 0
    pptrCurveMapping: []
  m_AnimationClipSettings:
    serializedVersion: 2
    m_StartTime: 0
    m_StopTime: 6
    m_OrientationOffsetY: 0
    m_Level: 0
    m_CycleOffset: 0
    m_LoopTime: 0
    m_LoopBlend: 0
    m_LoopBlendOrientation: 0
    m_LoopBlendPositionY: 0
    m_LoopBlendPositionXZ: 0
    m_KeepOriginalOrientation: 0
    m_KeepOriginalPositionY: 1
    m_KeepOriginalPositionXZ: 0
    m_HeightFromFeet: 0
    m_Mirror: 0
  m_EditorCurves:
  - curve:
      serializedVersion: 2
      m_Curve:
      - time: 0
        value: 21.3899994
        inSlope: 0
        outSlope: 0
        tangentMode: 0
      - time: 3
        value: -2.72250962
        inSlope: -4.38171673
        outSlope: -4.38171673
        tangentMode: 0
      - time: 4
        value: -4.61899996
        inSlope: 0
        outSlope: 0
        tangentMode: 0
      m_PreInfinity: 2
      m_PostInfinity: 2
    attribute: m_LocalPosition.x
    path: 
    classID: 4
    script: {fileID: 0}
  - curve:
      serializedVersion: 2
      m_Curve:
      - time: 1
        value: 4.44999981
        inSlope: 0
        outSlope: 0
        tangentMode: 0
      - time: 2.5
        value: 3.17491579
        inSlope: .497358471
        outSlope: .497358471
        tangentMode: 0
      - time: 4
        value: -.524000168
        inSlope: -6.50723648
        outSlope: -6.50723648
        tangentMode: 0
      m_PreInfinity: 2
      m_PostInfinity: 2
    attribute: m_LocalPosition.y
    path: 
    classID: 4
    script: {fileID: 0}
  - curve:
      serializedVersion: 2
      m_Curve:
      - time: 0
        value: 0
        inSlope: 0
        outSlope: 0
        tangentMode: 0
      - time: 4
        value: 0
        inSlope: 0
        outSlope: 0
        tangentMode: 0
      m_PreInfinity: 2
      m_PostInfinity: 2
    attribute: m_LocalPosition.z
    path: 
    classID: 4
    script: {fileID: 0}
  - curve:
      serializedVersion: 2
      m_Curve:
      - time: 4.16666651
        value: -.0549998283
        inSlope: 1.78759468
        outSlope: 1.78759468
        tangentMode: 0
      - time: 6
        value: -17.9099998
        inSlope: -9.73908997
        outSlope: -9.73908997
        tangentMode: 10
      m_PreInfinity: 2
      m_PostInfinity: 2
    attribute: m_LocalPosition.x
    path: birdy5
    classID: 4
    script: {fileID: 0}
  - curve:
      serializedVersion: 2
      m_Curve:
      - time: 4.16666651
        value: 1.19300008
        inSlope: 5.82054234
        outSlope: 5.82054234
        tangentMode: 0
      - time: 6
        value: 6.86999989
        inSlope: 3.09654522
        outSlope: 3.09654522
        tangentMode: 10
      m_PreInfinity: 2
      m_PostInfinity: 2
    attribute: m_LocalPosition.y
    path: birdy5
    classID: 4
    script: {fileID: 0}
  - curve:
      serializedVersion: 2
      m_Curve:
      - time: 4.16666651
        value: 0
        inSlope: 0
        outSlope: 0
        tangentMode: 0
      - time: 6
        value: 0
        inSlope: 0
        outSlope: 0
        tangentMode: 10
      m_PreInfinity: 2
      m_PostInfinity: 2
    attribute: m_LocalPosition.z
    path: birdy5
    classID: 4
    script: {fileID: 0}
  m_EulerEditorCurves: []
  m_HasGenericRootTransform: 1
  m_HasMotionFloatCurves: 0
  m_GenerateMotionCurves: 0
  m_Events: []
