%YAML 1.1
%TAG !u! tag:unity3d.com,2011:
--- !u!74 &7400000
AnimationClip:
  m_ObjectHideFlags: 0
  m_PrefabParentObject: {fileID: 0}
  m_PrefabInternal: {fileID: 0}
  m_Name: xs
  serializedVersion: 6
  m_Legacy: 0
  m_Compressed: 0
  m_UseHighQualityCurve: 1
  m_RotationCurves: []
  m_CompressedRotationCurves: []
  m_PositionCurves:
  - curve:
      serializedVersion: 2
      m_Curve:
      - time: 0
        value: {x: 9.97000027, y: 10.4099998, z: 0}
        inSlope: {x: -3.3462956, y: -1.21221292, z: 0}
        outSlope: {x: -3.3462956, y: -1.21221292, z: 0}
        tangentMode: 0
      - time: 2
        value: {x: 7.31400013, y: -.524000168, z: 0}
        inSlope: {x: 0, y: 0, z: 0}
        outSlope: {x: 0, y: 0, z: 0}
        tangentMode: 0
      m_PreInfinity: 2
      m_PostInfinity: 2
    path: 
  - curve:
      serializedVersion: 2
      m_Curve:
      - time: 2.16666675
        value: {x: .00600004196, y: 1.17400002, z: 0}
        inSlope: {x: 0, y: -3.74157548, z: 0}
        outSlope: {x: 0, y: -3.74157548, z: 0}
        tangentMode: 0
      - time: 6
        value: {x: -30.4400005, y: -5.98999977, z: 0}
        inSlope: {x: -7.94243526, y: -1.86886954, z: 0}
        outSlope: {x: -7.94243526, y: -1.86886954, z: 0}
        tangentMode: 0
      m_PreInfinity: 2
      m_PostInfinity: 2
    path: birdy11
  m_ScaleCurves: []
  m_FloatCurves: []
  m_PPtrCurves: []
  m_SampleRate: 60
  m_WrapMode: 0
  m_Bounds:
    m_Center: {x: 0, y: 0, z: 0}
    m_Extent: {x: 0, y: 0, z: 0}
  m_ClipBindingConstant:
    genericBindings:
    - path: 0
      attribute: 1
      script: {fileID: 0}
      classID: 4
      customType: 0
      isPPtrCurve: 0
    - path: 1431001996
      attribute: 1
      script: {fileID: 0}
      classID: 4
      customType: 0
      isPPtrCurve: 0
    pptrCurveMapping: []
  m_AnimationClipSettings:
    serializedVersion: 2
    m_StartTime: 0
    m_StopTime: 6
    m_OrientationOffsetY: 0
    m_Level: 0
    m_CycleOffset: 0
    m_LoopTime: 0
    m_LoopBlend: 0
    m_LoopBlendOrientation: 0
    m_LoopBlendPositionY: 0
    m_LoopBlendPositionXZ: 0
    m_KeepOriginalOrientation: 0
    m_KeepOriginalPositionY: 1
    m_KeepOriginalPositionXZ: 0
    m_HeightFromFeet: 0
    m_Mirror: 0
  m_EditorCurves:
  - curve:
      serializedVersion: 2
      m_Curve:
      - time: 0
        value: 9.97000027
        inSlope: -3.3462956
        outSlope: -3.3462956
        tangentMode: 0
      - time: 2
        value: 7.31400013
        inSlope: 0
        outSlope: 0
        tangentMode: 0
      m_PreInfinity: 2
      m_PostInfinity: 2
    attribute: m_LocalPosition.x
    path: 
    classID: 4
    script: {fileID: 0}
  - curve:
      serializedVersion: 2
      m_Curve:
      - time: 0
        value: 10.4099998
        inSlope: -1.21221292
        outSlope: -1.21221292
        tangentMode: 0
      - time: 2
        value: -.524000168
        inSlope: 0
        outSlope: 0
        tangentMode: 0
      m_PreInfinity: 2
      m_PostInfinity: 2
    attribute: m_LocalPosition.y
    path: 
    classID: 4
    script: {fileID: 0}
  - curve:
      serializedVersion: 2
      m_Curve:
      - time: 0
        value: 0
        inSlope: 0
        outSlope: 0
        tangentMode: 10
      - time: 2
        value: 0
        inSlope: 0
        outSlope: 0
        tangentMode: 0
      m_PreInfinity: 2
      m_PostInfinity: 2
    attribute: m_LocalPosition.z
    path: 
    classID: 4
    script: {fileID: 0}
  - curve:
      serializedVersion: 2
      m_Curve:
      - time: 2.16666675
        value: .00600004196
        inSlope: 0
        outSlope: 0
        tangentMode: 0
      - time: 6
        value: -30.4400005
        inSlope: -7.94243526
        outSlope: -7.94243526
        tangentMode: 10
      m_PreInfinity: 2
      m_PostInfinity: 2
    attribute: m_LocalPosition.x
    path: birdy11
    classID: 4
    script: {fileID: 0}
  - curve:
      serializedVersion: 2
      m_Curve:
      - time: 2.16666675
        value: 1.17400002
        inSlope: -3.74157548
        outSlope: -3.74157548
        tangentMode: 0
      - time: 6
        value: -5.98999977
        inSlope: -1.86886954
        outSlope: -1.86886954
        tangentMode: 10
      m_PreInfinity: 2
      m_PostInfinity: 2
    attribute: m_LocalPosition.y
    path: birdy11
    classID: 4
    script: {fileID: 0}
  - curve:
      serializedVersion: 2
      m_Curve:
      - time: 2.16666675
        value: 0
        inSlope: 0
        outSlope: 0
        tangentMode: 0
      - time: 6
        value: 0
        inSlope: 0
        outSlope: 0
        tangentMode: 10
      m_PreInfinity: 2
      m_PostInfinity: 2
    attribute: m_LocalPosition.z
    path: birdy11
    classID: 4
    script: {fileID: 0}
  m_EulerEditorCurves: []
  m_HasGenericRootTransform: 1
  m_HasMotionFloatCurves: 0
  m_GenerateMotionCurves: 0
  m_Events: []
