%YAML 1.1
%TAG !u! tag:unity3d.com,2011:
--- !u!74 &7400000
AnimationClip:
  m_ObjectHideFlags: 0
  m_PrefabParentObject: {fileID: 0}
  m_PrefabInternal: {fileID: 0}
  m_Name: tree shake
  serializedVersion: 6
  m_Legacy: 0
  m_Compressed: 0
  m_UseHighQualityCurve: 1
  m_RotationCurves: []
  m_CompressedRotationCurves: []
  m_PositionCurves:
  - curve:
      serializedVersion: 2
      m_Curve:
      - time: 0
        value: {x: -1.12, y: 9.30000019, z: -.5}
        inSlope: {x: -.257142603, y: -1.50000167, z: 0}
        outSlope: {x: -.257142603, y: -1.50000167, z: 0}
        tangentMode: 0
      - time: .233333334
        value: {x: -1.17999995, y: 8.94999981, z: -.5}
        inSlope: {x: .0514285266, y: .30000031, z: 0}
        outSlope: {x: .0514285266, y: .30000031, z: 0}
        tangentMode: 0
      - time: .400000006
        value: {x: -1.12, y: 9.30000019, z: -.5}
        inSlope: {x: .179999828, y: 1.05000114, z: 0}
        outSlope: {x: .179999828, y: 1.05000114, z: 0}
        tangentMode: 0
      - time: .833333313
        value: {x: -1.12, y: 9.30000019, z: -.5}
        inSlope: {x: 0, y: 0, z: 0}
        outSlope: {x: 0, y: 0, z: 0}
        tangentMode: 0
      m_PreInfinity: 2
      m_PostInfinity: 2
    path: tree-base/head1
  - curve:
      serializedVersion: 2
      m_Curve:
      - time: 0
        value: {x: -.720000029, y: 8.90999985, z: -.200000003}
        inSlope: {x: .675000191, y: -4.42500114, z: 0}
        outSlope: {x: .675000191, y: -4.42500114, z: 0}
        tangentMode: 0
      - time: .13333334
        value: {x: -.629999995, y: 8.31999969, z: -.200000003}
        inSlope: {x: .0674999952, y: -.442500114, z: 0}
        outSlope: {x: .0674999952, y: -.442500114, z: 0}
        tangentMode: 0
      - time: .300000012
        value: {x: -.720000029, y: 8.90999985, z: -.200000003}
        inSlope: {x: -.2700001, y: 1.77000046, z: 0}
        outSlope: {x: -.2700001, y: 1.77000046, z: 0}
        tangentMode: 0
      - time: .833333313
        value: {x: -.720000029, y: 8.90999985, z: -.200000003}
        inSlope: {x: 0, y: 0, z: 0}
        outSlope: {x: 0, y: 0, z: 0}
        tangentMode: 0
      m_PreInfinity: 2
      m_PostInfinity: 2
    path: tree-base/head2
  - curve:
      serializedVersion: 2
      m_Curve:
      - time: 0
        value: {x: 4.63999987, y: 5.63999987, z: .400000006}
        inSlope: {x: 1.44000149, y: 1.14000034, z: 0}
        outSlope: {x: 1.44000149, y: 1.14000034, z: 0}
        tangentMode: 0
      - time: .166666672
        value: {x: 4.88000011, y: 5.82999992, z: .400000006}
        inSlope: {x: 0, y: 0, z: 0}
        outSlope: {x: 0, y: 0, z: 0}
        tangentMode: 0
      - time: .333333343
        value: {x: 4.63999987, y: 5.63999987, z: .400000006}
        inSlope: {x: -.720000744, y: -.570000172, z: 0}
        outSlope: {x: -.720000744, y: -.570000172, z: 0}
        tangentMode: 0
      - time: .833333313
        value: {x: 4.63999987, y: 5.63999987, z: .400000006}
        inSlope: {x: 0, y: 0, z: 0}
        outSlope: {x: 0, y: 0, z: 0}
        tangentMode: 0
      m_PreInfinity: 2
      m_PostInfinity: 2
    path: tree-base/back
  m_ScaleCurves: []
  m_FloatCurves: []
  m_PPtrCurves: []
  m_SampleRate: 60
  m_WrapMode: 0
  m_Bounds:
    m_Center: {x: 0, y: 0, z: 0}
    m_Extent: {x: 0, y: 0, z: 0}
  m_ClipBindingConstant:
    genericBindings:
    - path: 2442546190
      attribute: 1
      script: {fileID: 0}
      classID: 4
      customType: 0
      isPPtrCurve: 0
    - path: 144645556
      attribute: 1
      script: {fileID: 0}
      classID: 4
      customType: 0
      isPPtrCurve: 0
    - path: 930602738
      attribute: 1
      script: {fileID: 0}
      classID: 4
      customType: 0
      isPPtrCurve: 0
    pptrCurveMapping: []
  m_AnimationClipSettings:
    serializedVersion: 2
    m_StartTime: 0
    m_StopTime: .833333313
    m_OrientationOffsetY: 0
    m_Level: 0
    m_CycleOffset: 0
    m_LoopTime: 0
    m_LoopBlend: 0
    m_LoopBlendOrientation: 0
    m_LoopBlendPositionY: 0
    m_LoopBlendPositionXZ: 0
    m_KeepOriginalOrientation: 0
    m_KeepOriginalPositionY: 1
    m_KeepOriginalPositionXZ: 0
    m_HeightFromFeet: 0
    m_Mirror: 0
  m_EditorCurves:
  - curve:
      serializedVersion: 2
      m_Curve:
      - time: 0
        value: -1.12
        inSlope: -.257142603
        outSlope: -.257142603
        tangentMode: 10
      - time: .233333334
        value: -1.17999995
        inSlope: .0514285266
        outSlope: .0514285266
        tangentMode: 10
      - time: .400000006
        value: -1.12
        inSlope: .179999828
        outSlope: .179999828
        tangentMode: 10
      - time: .833333313
        value: -1.12
        inSlope: 0
        outSlope: 0
        tangentMode: 10
      m_PreInfinity: 2
      m_PostInfinity: 2
    attribute: m_LocalPosition.x
    path: tree-base/head1
    classID: 4
    script: {fileID: 0}
  - curve:
      serializedVersion: 2
      m_Curve:
      - time: 0
        value: 9.30000019
        inSlope: -1.50000167
        outSlope: -1.50000167
        tangentMode: 10
      - time: .233333334
        value: 8.94999981
        inSlope: .30000031
        outSlope: .30000031
        tangentMode: 10
      - time: .400000006
        value: 9.30000019
        inSlope: 1.05000114
        outSlope: 1.05000114
        tangentMode: 10
      - time: .833333313
        value: 9.30000019
        inSlope: 0
        outSlope: 0
        tangentMode: 10
      m_PreInfinity: 2
      m_PostInfinity: 2
    attribute: m_LocalPosition.y
    path: tree-base/head1
    classID: 4
    script: {fileID: 0}
  - curve:
      serializedVersion: 2
      m_Curve:
      - time: 0
        value: -.5
        inSlope: 0
        outSlope: 0
        tangentMode: 10
      - time: .233333334
        value: -.5
        inSlope: 0
        outSlope: 0
        tangentMode: 10
      - time: .400000006
        value: -.5
        inSlope: 0
        outSlope: 0
        tangentMode: 10
      - time: .833333313
        value: -.5
        inSlope: 0
        outSlope: 0
        tangentMode: 10
      m_PreInfinity: 2
      m_PostInfinity: 2
    attribute: m_LocalPosition.z
    path: tree-base/head1
    classID: 4
    script: {fileID: 0}
  - curve:
      serializedVersion: 2
      m_Curve:
      - time: 0
        value: -.720000029
        inSlope: .675000191
        outSlope: .675000191
        tangentMode: 10
      - time: .13333334
        value: -.629999995
        inSlope: .0674999952
        outSlope: .0674999952
        tangentMode: 10
      - time: .300000012
        value: -.720000029
        inSlope: -.2700001
        outSlope: -.2700001
        tangentMode: 10
      - time: .833333313
        value: -.720000029
        inSlope: 0
        outSlope: 0
        tangentMode: 10
      m_PreInfinity: 2
      m_PostInfinity: 2
    attribute: m_LocalPosition.x
    path: tree-base/head2
    classID: 4
    script: {fileID: 0}
  - curve:
      serializedVersion: 2
      m_Curve:
      - time: 0
        value: 8.90999985
        inSlope: -4.42500114
        outSlope: -4.42500114
        tangentMode: 10
      - time: .13333334
        value: 8.31999969
        inSlope: -.442500114
        outSlope: -.442500114
        tangentMode: 10
      - time: .300000012
        value: 8.90999985
        inSlope: 1.77000046
        outSlope: 1.77000046
        tangentMode: 10
      - time: .833333313
        value: 8.90999985
        inSlope: 0
        outSlope: 0
        tangentMode: 10
      m_PreInfinity: 2
      m_PostInfinity: 2
    attribute: m_LocalPosition.y
    path: tree-base/head2
    classID: 4
    script: {fileID: 0}
  - curve:
      serializedVersion: 2
      m_Curve:
      - time: 0
        value: -.200000003
        inSlope: 0
        outSlope: 0
        tangentMode: 10
      - time: .13333334
        value: -.200000003
        inSlope: 0
        outSlope: 0
        tangentMode: 10
      - time: .300000012
        value: -.200000003
        inSlope: 0
        outSlope: 0
        tangentMode: 10
      - time: .833333313
        value: -.200000003
        inSlope: 0
        outSlope: 0
        tangentMode: 10
      m_PreInfinity: 2
      m_PostInfinity: 2
    attribute: m_LocalPosition.z
    path: tree-base/head2
    classID: 4
    script: {fileID: 0}
  - curve:
      serializedVersion: 2
      m_Curve:
      - time: 0
        value: 4.63999987
        inSlope: 1.44000149
        outSlope: 1.44000149
        tangentMode: 10
      - time: .166666672
        value: 4.88000011
        inSlope: 0
        outSlope: 0
        tangentMode: 10
      - time: .333333343
        value: 4.63999987
        inSlope: -.720000744
        outSlope: -.720000744
        tangentMode: 10
      - time: .833333313
        value: 4.63999987
        inSlope: 0
        outSlope: 0
        tangentMode: 10
      m_PreInfinity: 2
      m_PostInfinity: 2
    attribute: m_LocalPosition.x
    path: tree-base/back
    classID: 4
    script: {fileID: 0}
  - curve:
      serializedVersion: 2
      m_Curve:
      - time: 0
        value: 5.63999987
        inSlope: 1.14000034
        outSlope: 1.14000034
        tangentMode: 10
      - time: .166666672
        value: 5.82999992
        inSlope: 0
        outSlope: 0
        tangentMode: 10
      - time: .333333343
        value: 5.63999987
        inSlope: -.570000172
        outSlope: -.570000172
        tangentMode: 10
      - time: .833333313
        value: 5.63999987
        inSlope: 0
        outSlope: 0
        tangentMode: 10
      m_PreInfinity: 2
      m_PostInfinity: 2
    attribute: m_LocalPosition.y
    path: tree-base/back
    classID: 4
    script: {fileID: 0}
  - curve:
      serializedVersion: 2
      m_Curve:
      - time: 0
        value: .400000006
        inSlope: 0
        outSlope: 0
        tangentMode: 10
      - time: .166666672
        value: .400000006
        inSlope: 0
        outSlope: 0
        tangentMode: 10
      - time: .333333343
        value: .400000006
        inSlope: 0
        outSlope: 0
        tangentMode: 10
      - time: .833333313
        value: .400000006
        inSlope: 0
        outSlope: 0
        tangentMode: 10
      m_PreInfinity: 2
      m_PostInfinity: 2
    attribute: m_LocalPosition.z
    path: tree-base/back
    classID: 4
    script: {fileID: 0}
  m_EulerEditorCurves: []
  m_HasGenericRootTransform: 0
  m_HasMotionFloatCurves: 0
  m_GenerateMotionCurves: 0
  m_Events: []
