%YAML 1.1
%TAG !u! tag:unity3d.com,2011:
--- !u!74 &7400000
AnimationClip:
  m_ObjectHideFlags: 0
  m_PrefabParentObject: {fileID: 0}
  m_PrefabInternal: {fileID: 0}
  m_Name: cloud2 idle
  serializedVersion: 6
  m_Legacy: 0
  m_Compressed: 0
  m_UseHighQualityCurve: 1
  m_RotationCurves: []
  m_CompressedRotationCurves: []
  m_PositionCurves:
  - curve:
      serializedVersion: 2
      m_Curve:
      - time: 0
        value: {x: .850000024, y: 0, z: 0}
        inSlope: {x: 26.9599991, y: 0, z: 0}
        outSlope: {x: 29.955555, y: -0, z: -0}
        tangentMode: 0
      - time: .450000018
        value: {x: 14.3299999, y: 0, z: 0}
        inSlope: {x: 29.955555, y: 0, z: 0}
        outSlope: {x: Infinity, y: 0, z: 0}
        tangentMode: 0
      - time: .466666669
        value: {x: -16.2900009, y: 0, z: 0}
        inSlope: {x: -900.869873, y: 0, z: 0}
        outSlope: {x: 32.1375008, y: 0, z: 0}
        tangentMode: 0
      - time: .5
        value: {x: -15.21875, y: 0, z: 0}
        inSlope: {x: 32.1375008, y: 0, z: 0}
        outSlope: {x: 32.1375008, y: Infinity, z: Infinity}
        tangentMode: 0
      - time: .516666651
        value: {x: -14.6831255, y: 0, z: 0}
        inSlope: {x: 32.1375008, y: 0, z: 0}
        outSlope: {x: 32.1375008, y: -0, z: -0}
        tangentMode: 0
      - time: 1
        value: {x: .850000024, y: 0, z: 0}
        inSlope: {x: 32.1375008, y: 0, z: 0}
        outSlope: {x: 35.4620705, y: 0, z: 0}
        tangentMode: 0
      m_PreInfinity: 2
      m_PostInfinity: 2
    path: Clouds_2
  m_ScaleCurves: []
  m_FloatCurves: []
  m_PPtrCurves: []
  m_SampleRate: 60
  m_WrapMode: 0
  m_Bounds:
    m_Center: {x: 0, y: 0, z: 0}
    m_Extent: {x: 0, y: 0, z: 0}
  m_ClipBindingConstant:
    genericBindings:
    - path: 1370572928
      attribute: 1
      script: {fileID: 0}
      classID: 4
      customType: 0
      isPPtrCurve: 0
    pptrCurveMapping: []
  m_AnimationClipSettings:
    serializedVersion: 2
    m_StartTime: 0
    m_StopTime: 1
    m_OrientationOffsetY: 0
    m_Level: 0
    m_CycleOffset: 0
    m_LoopTime: 1
    m_LoopBlend: 0
    m_LoopBlendOrientation: 0
    m_LoopBlendPositionY: 0
    m_LoopBlendPositionXZ: 0
    m_KeepOriginalOrientation: 0
    m_KeepOriginalPositionY: 1
    m_KeepOriginalPositionXZ: 0
    m_HeightFromFeet: 0
    m_Mirror: 0
  m_EditorCurves:
  - curve:
      serializedVersion: 2
      m_Curve:
      - time: 0
        value: .850000024
        inSlope: 26.9599991
        outSlope: 29.955555
        tangentMode: 17
      - time: .450000018
        value: 14.3299999
        inSlope: 29.955555
        outSlope: Infinity
        tangentMode: 29
      - time: .466666669
        value: -16.2900009
        inSlope: -900.869873
        outSlope: 32.1375008
        tangentMode: 17
      - time: 1
        value: .850000024
        inSlope: 32.1375008
        outSlope: 35.4620705
        tangentMode: 5
      m_PreInfinity: 2
      m_PostInfinity: 2
    attribute: m_LocalPosition.x
    path: Clouds_2
    classID: 4
    script: {fileID: 0}
  - curve:
      serializedVersion: 2
      m_Curve:
      - time: 0
        value: 0
        inSlope: 0
        outSlope: -0
        tangentMode: 17
      - time: .5
        value: 0
        inSlope: 0
        outSlope: Infinity
        tangentMode: 29
      - time: .516666651
        value: 0
        inSlope: 0
        outSlope: -0
        tangentMode: 17
      - time: 1
        value: 0
        inSlope: 0
        outSlope: 0
        tangentMode: 5
      m_PreInfinity: 2
      m_PostInfinity: 2
    attribute: m_LocalPosition.y
    path: Clouds_2
    classID: 4
    script: {fileID: 0}
  - curve:
      serializedVersion: 2
      m_Curve:
      - time: 0
        value: 0
        inSlope: 0
        outSlope: -0
        tangentMode: 17
      - time: .5
        value: 0
        inSlope: 0
        outSlope: Infinity
        tangentMode: 29
      - time: .516666651
        value: 0
        inSlope: 0
        outSlope: -0
        tangentMode: 17
      - time: 1
        value: 0
        inSlope: 0
        outSlope: 0
        tangentMode: 5
      m_PreInfinity: 2
      m_PostInfinity: 2
    attribute: m_LocalPosition.z
    path: Clouds_2
    classID: 4
    script: {fileID: 0}
  m_EulerEditorCurves: []
  m_HasGenericRootTransform: 0
  m_HasMotionFloatCurves: 0
  m_GenerateMotionCurves: 0
  m_Events: []
